City,Population,ZipCode
Abbeville,1547,"[('31001', '1547')]"
Acworth,2117,"[('30101', '621'), ('30102', '1496')]"
Adairsville,1563,"[('30103', '1563')]"
Adel,1240,"[('31620', '1240')]"
Adrian,2452,"[('31002', '2452')]"
Ailey,2226,"[('30410', '2226')]"
Alamo,947,"[('30411', '947')]"
Alapaha,2498,"[('31622', '2498')]"
Albany,15001,"[('31701', '2349'), ('31702', '2445'), ('31703', '1611'), ('31704', '560'), ('31705', '1315'), ('31706', '2272'), ('31707', '1175'), ('31708', '2234'), ('31721', '1040')]"
Allenhurst,1982,"[('31301', '1982')]"
Allentown,1627,"[('31003', '1627')]"
Alma,1261,"[('31510', '1261')]"
Alpharetta,7484,"[('30004', '588'), ('30005', '2365'), ('30009', '1324'), ('30022', '2155'), ('30023', '1052')]"
Alston,1589,"[('30412', '1589')]"
Alto,3096,"[('30510', '1952'), ('30596', '1144')]"
Ambrose,1994,"[('31512', '1994')]"
Americus,5545,"[('31709', '2038'), ('31710', '1383'), ('31719', '2124')]"
Andersonville,2381,"[('31711', '2381')]"
Appling,1912,"[('30802', '1912')]"
Arabi,1750,"[('31712', '1750')]"
Aragon,1484,"[('30104', '1484')]"
Argyle,2237,"[('31623', '2237')]"
Arlington,1534,"[('39813', '1534')]"
Armuchee,1081,"[('30105', '1081')]"
Arnoldsville,1976,"[('30619', '1976')]"
Ashburn,599,"[('31714', '599')]"
Athens,13234,"[('30601', '2060'), ('30602', '1043'), ('30603', '1101'), ('30604', '741'), ('30605', '884'), ('30606', '2175'), ('30607', '1401'), ('30608', '1174'), ('30609', '1513'), ('30612', '1142')]"
Atlanta,157436,"[('30301', '2405'), ('30302', '2486'), ('30303', '1120'), ('30304', '1494'), ('30305', '1989'), ('30306', '704'), ('30307', '1687'), ('30308', '2392'), ('30309', '1410'), ('30310', '1965'), ('30311', '1784'), ('30312', '970'), ('30313', '1072'), ('30314', '1126'), ('30315', '1151'), ('30316', '777'), ('30317', '1112'), ('30318', '1190'), ('30319', '545'), ('30320', '827'), ('30321', '2148'), ('30322', '2400'), ('30324', '2005'), ('30325', '2413'), ('30326', '1902'), ('30327', '882'), ('30328', '1200'), ('30329', '967'), ('30330', '1577'), ('30331', '622'), ('30332', '570'), ('30333', '526'), ('30334', '1474'), ('30336', '872'), ('30337', '2322'), ('30338', '1656'), ('30339', '551'), ('30340', '566'), ('30341', '845'), ('30342', '1692'), ('30343', '2283'), ('30344', '2318'), ('30345', '633'), ('30346', '2430'), ('30347', '1221'), ('30348', '2421'), ('30349', '2057'), ('30350', '1211'), ('30353', '1570'), ('30354', '1092'), ('30355', '645'), ('30356', '1940'), ('30357', '2494'), ('30358', '1133'), ('30359', '1262'), ('30360', '994'), ('30361', '2124'), ('30362', '1546'), ('30363', '1479'), ('30364', '1429'), ('30366', '649'), ('30368', '2173'), ('30369', '1336'), ('30370', '1636'), ('30371', '608'), ('30374', '854'), ('30375', '1203'), ('30376', '2098'), ('30377', '1602'), ('30378', '1601'), ('30379', '1330'), ('30380', '1905'), ('30384', '2180'), ('30385', '1581'), ('30386', '1344'), ('30387', '1686'), ('30388', '2194'), ('30389', '701'), ('30390', '1573'), ('30392', '1897'), ('30394', '1671'), ('30396', '1100'), ('30398', '2346'), ('30399', '2035'), ('31106', '993'), ('31107', '582'), ('31119', '1000'), ('31120', '943'), ('31126', '2173'), ('31131', '1453'), ('31136', '541'), ('31139', '1412'), ('31141', '1099'), ('31145', '1642'), ('31146', '1539'), ('31150', '2323'), ('31156', '1613'), ('31191', '930'), ('31192', '1923'), ('31193', '820'), ('31195', '2122'), ('31196', '1096'), ('31197', '2422'), ('31198', '2478'), ('31199', '969'), ('39901', '2382')]"
Attapulgus,2039,"[('39815', '2039')]"
Auburn,1497,"[('30011', '1497')]"
Augusta,25204,"[('30901', '2034'), ('30903', '2383'), ('30904', '1960'), ('30905', '649'), ('30906', '2277'), ('30907', '1975'), ('30909', '1619'), ('30911', '567'), ('30912', '2491'), ('30913', '1457'), ('30914', '2297'), ('30916', '798'), ('30917', '1714'), ('30919', '2075'), ('30999', '908')]"
Austell,3574,"[('30106', '1586'), ('30168', '1988')]"
Avera,666,"[('30803', '666')]"
Avondale Estates,507,"[('30002', '507')]"
Axson,2324,"[('31624', '2324')]"
Baconton,2124,"[('31716', '2124')]"
Bainbridge,3822,"[('39817', '1276'), ('39818', '1963'), ('39819', '583')]"
Baldwin,980,"[('30511', '980')]"
Ball Ground,2302,"[('30107', '2302')]"
Barnesville,1494,"[('30204', '1494')]"
Barney,1669,"[('31625', '1669')]"
Bartow,551,"[('30413', '551')]"
Barwick,1247,"[('31720', '1247')]"
Baxley,2008,"[('31513', '1123'), ('31515', '885')]"
Bellville,602,"[('30414', '602')]"
Berlin,1288,"[('31722', '1288')]"
Bethlehem,2099,"[('30620', '2099')]"
Bishop,1255,"[('30621', '1255')]"
Blackshear,2092,"[('31516', '2092')]"
Blairsville,1552,"[('30512', '742'), ('30514', '810')]"
Blakely,2372,"[('39823', '2372')]"
Bloomingdale,1738,"[('31302', '1738')]"
Blue Ridge,764,"[('30513', '764')]"
Bluffton,2141,"[('39824', '2141')]"
Blythe,928,"[('30805', '928')]"
Bogart,2158,"[('30622', '2158')]"
Bolingbroke,2317,"[('31004', '2317')]"
Bonaire,2154,"[('31005', '2154')]"
Boneville,1602,"[('30806', '1602')]"
Boston,563,"[('31626', '563')]"
Bostwick,1041,"[('30623', '1041')]"
Bowdon Junction,2144,"[('30109', '2144')]"
Bowdon,1172,"[('30108', '1172')]"
Bowersville,931,"[('30516', '931')]"
Bowman,1004,"[('30624', '1004')]"
Box Springs,1225,"[('31801', '1225')]"
Braselton,2319,"[('30517', '2319')]"
Bremen,1810,"[('30110', '1810')]"
Brinson,1499,"[('39825', '1499')]"
Bristol,1079,"[('31518', '1079')]"
Bronwood,1575,"[('39826', '1575')]"
Brookfield,1975,"[('31727', '1975')]"
Brooklet,1040,"[('30415', '1040')]"
Brooks,2068,"[('30205', '2068')]"
Broxton,530,"[('31519', '530')]"
Brunswick,7694,"[('31520', '823'), ('31521', '1867'), ('31523', '1867'), ('31524', '2291'), ('31525', '846')]"
Buchanan,534,"[('30113', '534')]"
Buckhead,2010,"[('30625', '2010')]"
Buena Vista,1917,"[('31803', '1917')]"
Buford,4318,"[('30515', '2007'), ('30518', '1085'), ('30519', '1226')]"
Butler,1643,"[('31006', '1643')]"
Byromville,1839,"[('31007', '1839')]"
Byron,2361,"[('31008', '2361')]"
Cadwell,1879,"[('31009', '1879')]"
Cairo,2392,"[('39827', '1762'), ('39828', '630')]"
Calhoun,1968,"[('30701', '685'), ('30703', '1283')]"
Calvary,1600,"[('39829', '1600')]"
Camak,1224,"[('30807', '1224')]"
Camilla,1735,"[('31730', '1735')]"
Canon,1074,"[('30520', '1074')]"
Canton,4931,"[('30114', '1347'), ('30115', '2306'), ('30169', '1278')]"
Carlton,852,"[('30627', '852')]"
Carnesville,1809,"[('30521', '1809')]"
Carrollton,7231,"[('30112', '1547'), ('30116', '1076'), ('30117', '1130'), ('30118', '1003'), ('30119', '2475')]"
Cartersville,2533,"[('30120', '1183'), ('30121', '1350')]"
Cassville,680,"[('30123', '680')]"
Cataula,1621,"[('31804', '1621')]"
Cave Spring,904,"[('30124', '904')]"
Cecil,813,"[('31627', '813')]"
Cedar Springs,1070,"[('39832', '1070')]"
Cedartown,1979,"[('30125', '1979')]"
Centerville,1166,"[('31028', '1166')]"
Chatsworth,668,"[('30705', '668')]"
Chauncey,846,"[('31011', '846')]"
Cherrylog,737,"[('30522', '737')]"
Chester,672,"[('31012', '672')]"
Chestnut Mountain,1691,"[('30502', '1691')]"
Chickamauga,584,"[('30707', '584')]"
Chula,1640,"[('31733', '1640')]"
Cisco,1505,"[('30708', '1505')]"
Clarkdale,1173,"[('30111', '1173')]"
Clarkesville,2270,"[('30523', '2270')]"
Clarkston,1217,"[('30021', '1217')]"
Claxton,687,"[('30417', '687')]"
Clayton,784,"[('30525', '784')]"
Clermont,1284,"[('30527', '1284')]"
Cleveland,2135,"[('30528', '2135')]"
Climax,2000,"[('39834', '2000')]"
Clinchfield,2215,"[('31013', '2215')]"
Clyo,1860,"[('31303', '1860')]"
Cobb,682,"[('31735', '682')]"
Cobbtown,2247,"[('30420', '2247')]"
Cochran,1048,"[('31014', '1048')]"
Cohutta,1630,"[('30710', '1630')]"
Colbert,2290,"[('30628', '2290')]"
Coleman,1217,"[('39836', '1217')]"
Collins,2427,"[('30421', '2427')]"
Colquitt,1480,"[('39837', '1480')]"
Columbus,21009,"[('31901', '2406'), ('31902', '2255'), ('31903', '1823'), ('31904', '963'), ('31906', '702'), ('31907', '644'), ('31908', '2282'), ('31909', '2326'), ('31914', '637'), ('31917', '1478'), ('31993', '1332'), ('31997', '904'), ('31998', '1710'), ('31999', '1547')]"
Comer,551,"[('30629', '551')]"
Commerce,4007,"[('30529', '926'), ('30530', '1787'), ('30599', '1294')]"
Concord,1548,"[('30206', '1548')]"
Conley,1118,"[('30288', '1118')]"
Conyers,3697,"[('30012', '584'), ('30013', '2415'), ('30094', '698')]"
Coolidge,1991,"[('31738', '1991')]"
Coosa,538,"[('30129', '538')]"
Cordele,3476,"[('31010', '2372'), ('31015', '1104')]"
Cornelia,1141,"[('30531', '1141')]"
Cotton,1864,"[('31739', '1864')]"
Covington,3833,"[('30014', '1562'), ('30015', '697'), ('30016', '1574')]"
Crandall,2345,"[('30711', '2345')]"
Crawford,509,"[('30630', '509')]"
Crawfordville,2490,"[('30631', '2490')]"
Crescent,973,"[('31304', '973')]"
Culloden,647,"[('31016', '647')]"
Cumming,3734,"[('30028', '1307'), ('30040', '1411'), ('30041', '1016')]"
Cusseta,884,"[('31805', '884')]"
Cuthbert,1066,"[('39840', '1066')]"
Dacula,857,"[('30019', '857')]"
Dahlonega,3010,"[('30533', '860'), ('30597', '2150')]"
Daisy,824,"[('30423', '824')]"
Dallas,3339,"[('30132', '1818'), ('30157', '1521')]"
Dalton,4941,"[('30719', '1269'), ('30720', '638'), ('30721', '2490'), ('30722', '544')]"
Damascus,1585,"[('39841', '1585')]"
Danielsville,1182,"[('30633', '1182')]"
Danville,500,"[('31017', '500')]"
Darien,2077,"[('31305', '2077')]"
Davisboro,1238,"[('31018', '1238')]"
Dawson,1076,"[('39842', '1076')]"
Dawsonville,1967,"[('30534', '1967')]"
De Soto,842,"[('31743', '842')]"
Dearing,1096,"[('30808', '1096')]"
Decatur,13415,"[('30030', '1865'), ('30031', '692'), ('30032', '1529'), ('30033', '1248'), ('30034', '1221'), ('30035', '1546'), ('30036', '887'), ('30037', '2419'), ('30073', '2008')]"
Demorest,3083,"[('30535', '2112'), ('30544', '971')]"
Denton,1883,"[('31532', '1883')]"
Dewy Rose,758,"[('30634', '758')]"
Dexter,2375,"[('31019', '2375')]"
Dillard,1667,"[('30537', '1667')]"
Dixie,1019,"[('31629', '1019')]"
Doerun,1772,"[('31744', '1772')]"
Donalsonville,1149,"[('39845', '1149')]"
Douglas,4916,"[('31533', '2036'), ('31534', '1997'), ('31535', '883')]"
Douglasville,7752,"[('30133', '2130'), ('30134', '2090'), ('30135', '2176'), ('30154', '1356')]"
Dover,1058,"[('30424', '1058')]"
Dry Branch,1542,"[('31020', '1542')]"
Du Pont,2397,"[('31630', '2397')]"
Dublin,3122,"[('31021', '1832'), ('31040', '1290')]"
Dudley,1525,"[('31022', '1525')]"
Duluth,8183,"[('30095', '2081'), ('30096', '1400'), ('30097', '1510'), ('30098', '2455'), ('30099', '737')]"
East Dublin,621,"[('31027', '621')]"
East Ellijay,1485,"[('30539', '1485')]"
Eastanollee,1921,"[('30538', '1921')]"
Eastman,1328,"[('31023', '1328')]"
Eatonton,2398,"[('31024', '1764'), ('31026', '634')]"
Eden,2162,"[('31307', '2162')]"
Edison,2041,"[('39846', '2041')]"
Elberton,1932,"[('30635', '1932')]"
Elko,2326,"[('31025', '2326')]"
Ellabell,1839,"[('31308', '1839')]"
Ellaville,1324,"[('31806', '1324')]"
Ellenton,1428,"[('31747', '1428')]"
Ellenwood,1494,"[('30294', '1494')]"
Ellerslie,940,"[('31807', '940')]"
Ellijay,4178,"[('30536', '2360'), ('30540', '1818')]"
Emerson,1019,"[('30137', '1019')]"
Enigma,797,"[('31749', '797')]"
Epworth,1266,"[('30541', '1266')]"
Esom Hill,1772,"[('30138', '1772')]"
Eton,866,"[('30724', '866')]"
Evans,995,"[('30809', '995')]"
Experiment,1607,"[('30212', '1607')]"
Fairburn,2471,"[('30213', '2471')]"
Fairmount,726,"[('30139', '726')]"
Fargo,2185,"[('31631', '2185')]"
Farmington,1093,"[('30638', '1093')]"
Fayetteville,3345,"[('30214', '1410'), ('30215', '1935')]"
Felton,1490,"[('30140', '1490')]"
Fitzgerald,2071,"[('31750', '2071')]"
Fleming,1527,"[('31309', '1527')]"
Flintstone,1031,"[('30725', '1031')]"
Flovilla,1677,"[('30216', '1677')]"
Flowery Branch,1186,"[('30542', '1186')]"
Folkston,1858,"[('31537', '1858')]"
Forest Park,3792,"[('30297', '1929'), ('30298', '1863')]"
Forsyth,1827,"[('31029', '1827')]"
Fort Benning,2708,"[('31905', '1603'), ('31995', '1105')]"
Fort Gaines,836,"[('39851', '836')]"
Fort Oglethorpe,2329,"[('30742', '2329')]"
Fort Stewart,3351,"[('31314', '2030'), ('31315', '1321')]"
Fort Valley,1290,"[('31030', '1290')]"
Fortson,602,"[('31808', '602')]"
Fowlstown,1000,"[('39852', '1000')]"
Franklin Springs,880,"[('30639', '880')]"
Franklin,614,"[('30217', '614')]"
Funston,1822,"[('31753', '1822')]"
Gainesville,7391,"[('30501', '792'), ('30503', '1957'), ('30504', '1169'), ('30506', '1096'), ('30507', '2377')]"
Garfield,2110,"[('30425', '2110')]"
Gay,1537,"[('30218', '1537')]"
Geneva,1538,"[('31810', '1538')]"
Georgetown,1558,"[('39854', '1558')]"
Gibson,1488,"[('30810', '1488')]"
Gillsville,1136,"[('30543', '1136')]"
Girard,1923,"[('30426', '1923')]"
Glenn,2087,"[('30219', '2087')]"
Glennville,551,"[('30427', '551')]"
Glenwood,844,"[('30428', '844')]"
Good Hope,2373,"[('30641', '2373')]"
Gordon,1745,"[('31031', '1745')]"
Gough,1696,"[('30811', '1696')]"
Gracewood,1190,"[('30812', '1190')]"
Grantville,1847,"[('30220', '1847')]"
Gray,571,"[('31032', '571')]"
Grayson,2449,"[('30017', '2449')]"
Graysville,1409,"[('30726', '1409')]"
Greensboro,2250,"[('30642', '2250')]"
Greenville,2446,"[('30222', '2446')]"
Griffin,3543,"[('30223', '1160'), ('30224', '2383')]"
Grovetown,2239,"[('30813', '2239')]"
Guyton,1573,"[('31312', '1573')]"
Haddock,932,"[('31033', '932')]"
Hagan,2425,"[('30429', '2425')]"
Hahira,2456,"[('31632', '2456')]"
Hamilton,674,"[('31811', '674')]"
Hampton,2197,"[('30228', '2197')]"
Haralson,2315,"[('30229', '2315')]"
Hardwick,972,"[('31034', '972')]"
Harlem,1174,"[('30814', '1174')]"
Harrison,934,"[('31035', '934')]"
Hartsfield,1921,"[('31756', '1921')]"
Hartwell,1745,"[('30643', '1745')]"
Hawkinsville,2218,"[('31036', '2218')]"
Hazlehurst,1850,"[('31539', '1850')]"
Helen,940,"[('30545', '940')]"
Helena,2468,"[('31037', '2468')]"
Hephzibah,1624,"[('30815', '1624')]"
Hiawassee,2233,"[('30546', '2233')]"
High Shoals,1498,"[('30645', '1498')]"
Hillsboro,2452,"[('31038', '2452')]"
Hinesville,2508,"[('31310', '1642'), ('31313', '866')]"
Hiram,749,"[('30141', '749')]"
Hoboken,2331,"[('31542', '2331')]"
Hogansville,911,"[('30230', '911')]"
Holly Springs,2058,"[('30142', '2058')]"
Homer,2110,"[('30547', '2110')]"
Homerville,563,"[('31634', '563')]"
Hortense,2231,"[('31543', '2231')]"
Hoschton,997,"[('30548', '997')]"
Howard,1423,"[('31039', '1423')]"
Hull,1710,"[('30646', '1710')]"
Ideal,1889,"[('31041', '1889')]"
Ila,2015,"[('30647', '2015')]"
Iron City,647,"[('39859', '647')]"
Irwinton,1747,"[('31042', '1747')]"
Irwinville,1001,"[('31760', '1001')]"
Jackson,1049,"[('30233', '1049')]"
Jacksonville,582,"[('31544', '582')]"
Jakin,744,"[('39861', '744')]"
Jasper,695,"[('30143', '695')]"
Jefferson,1084,"[('30549', '1084')]"
Jeffersonville,1224,"[('31044', '1224')]"
Jekyll Island,1982,"[('31527', '1982')]"
Jenkinsburg,1724,"[('30234', '1724')]"
Jersey,1288,"[('30018', '1288')]"
Jesup,6191,"[('31545', '1216'), ('31546', '2382'), ('31598', '740'), ('31599', '1853')]"
Jewell,2400,"[('31045', '2400')]"
Jonesboro,5105,"[('30236', '1430'), ('30237', '2313'), ('30238', '1362')]"
Juliette,1762,"[('31046', '1762')]"
Junction City,2379,"[('31812', '2379')]"
Kathleen,1591,"[('31047', '1591')]"
Kennesaw,8303,"[('30144', '1963'), ('30152', '1944'), ('30156', '2054'), ('30160', '2342')]"
Keysville,790,"[('30816', '790')]"
Kings Bay,1222,"[('31547', '1222')]"
Kingsland,1509,"[('31548', '1509')]"
Kingston,1810,"[('30145', '1810')]"
Kite,1364,"[('31049', '1364')]"
Knoxville,1913,"[('31050', '1913')]"
La Fayette,1050,"[('30728', '1050')]"
Lagrange,6143,"[('30240', '1755'), ('30241', '1978'), ('30261', '2410')]"
Lake Park,1988,"[('31636', '1988')]"
Lakeland,856,"[('31635', '856')]"
Lakemont,2123,"[('30552', '2123')]"
Lavonia,1674,"[('30553', '1674')]"
Lawrenceville,9836,"[('30042', '1357'), ('30043', '2012'), ('30044', '2416'), ('30045', '2031'), ('30046', '1209'), ('30049', '811')]"
Leary,704,"[('39862', '704')]"
Lebanon,1025,"[('30146', '1025')]"
Leesburg,1711,"[('31763', '1711')]"
Lenox,2163,"[('31637', '2163')]"
Leslie,1787,"[('31764', '1787')]"
Lexington,2145,"[('30648', '2145')]"
Lilburn,3204,"[('30047', '2319'), ('30048', '885')]"
Lilly,914,"[('31051', '914')]"
Lincolnton,1241,"[('30817', '1241')]"
Lindale,1369,"[('30147', '1369')]"
Lithia Springs,626,"[('30122', '626')]"
Lithonia,1859,"[('30038', '1006'), ('30058', '853')]"
Lizella,645,"[('31052', '645')]"
Locust Grove,2242,"[('30248', '2242')]"
Loganville,1801,"[('30052', '1801')]"
Lookout Mountain,2186,"[('30750', '2186')]"
Louisville,1928,"[('30434', '1928')]"
Louvale,711,"[('31814', '711')]"
Lovejoy,871,"[('30250', '871')]"
Ludowici,1663,"[('31316', '1663')]"
Lula,1872,"[('30554', '1872')]"
Lumber City,2039,"[('31549', '2039')]"
Lumpkin,2165,"[('31815', '2165')]"
Luthersville,644,"[('30251', '644')]"
Lyerly,2302,"[('30730', '2302')]"
Lyons,1227,"[('30436', '1227')]"
Mableton,1811,"[('30126', '1811')]"
Macon,31438,"[('31201', '1725'), ('31202', '2352'), ('31203', '1606'), ('31204', '949'), ('31205', '1903'), ('31206', '833'), ('31207', '1661'), ('31208', '2404'), ('31209', '680'), ('31210', '808'), ('31211', '2206'), ('31212', '836'), ('31213', '924'), ('31216', '1115'), ('31217', '1080'), ('31220', '2400'), ('31221', '1063'), ('31294', '2428'), ('31295', '1034'), ('31296', '1914'), ('31297', '1517')]"
Madison,1609,"[('30650', '1609')]"
Manassas,756,"[('30438', '756')]"
Manchester,1496,"[('31816', '1496')]"
Manor,1453,"[('31550', '1453')]"
Mansfield,868,"[('30055', '868')]"
Marble Hill,1931,"[('30148', '1931')]"
Marietta,18318,"[('30006', '1029'), ('30007', '1013'), ('30008', '796'), ('30060', '2377'), ('30061', '1086'), ('30062', '1523'), ('30063', '1176'), ('30064', '1885'), ('30065', '865'), ('30066', '727'), ('30067', '623'), ('30068', '2228'), ('30069', '1265'), ('30090', '1725')]"
Marshallville,2038,"[('31057', '2038')]"
Martin,618,"[('30557', '618')]"
Matthews,1481,"[('30818', '1481')]"
Mauk,1445,"[('31058', '1445')]"
Maxeys,1467,"[('30671', '1467')]"
Maysville,1559,"[('30558', '1559')]"
Mc Caysville,2035,"[('30555', '2035')]"
Mc Intyre,1489,"[('31054', '1489')]"
Mc Rae,903,"[('31055', '903')]"
Mcdonough,3063,"[('30252', '2366'), ('30253', '697')]"
Meansville,2115,"[('30256', '2115')]"
Meigs,536,"[('31765', '536')]"
Meldrim,2287,"[('31318', '2287')]"
Menlo,682,"[('30731', '682')]"
Meridian,1679,"[('31319', '1679')]"
Mershon,773,"[('31551', '773')]"
Mesena,1170,"[('30819', '1170')]"
Metter,1312,"[('30439', '1312')]"
Midland,1338,"[('31820', '1338')]"
Midville,1566,"[('30441', '1566')]"
Midway,1171,"[('31320', '1171')]"
Milan,1394,"[('31060', '1394')]"
Milledgeville,4344,"[('31059', '652'), ('31061', '2442'), ('31062', '1250')]"
Millen,608,"[('30442', '608')]"
Millwood,2276,"[('31552', '2276')]"
Milner,683,"[('30257', '683')]"
Mineral Bluff,1103,"[('30559', '1103')]"
Mitchell,1019,"[('30820', '1019')]"
Molena,1766,"[('30258', '1766')]"
Monroe,2904,"[('30655', '1305'), ('30656', '1599')]"
Montezuma,1831,"[('31063', '1831')]"
Monticello,872,"[('31064', '872')]"
Montrose,1878,"[('31065', '1878')]"
Moody A F B,992,"[('31699', '992')]"
Moreland,1748,"[('30259', '1748')]"
Morgan,645,"[('39866', '645')]"
Morganton,1160,"[('30560', '1160')]"
Morris,2045,"[('39867', '2045')]"
Morrow,2129,"[('30260', '862'), ('30287', '1267')]"
Morven,1023,"[('31638', '1023')]"
Moultrie,5626,"[('31768', '1370'), ('31776', '2043'), ('31788', '2213')]"
Mount Airy,1939,"[('30563', '1939')]"
Mount Berry,1059,"[('30149', '1059')]"
Mount Vernon,2421,"[('30445', '2421')]"
Mount Zion,663,"[('30150', '663')]"
Mountain City,1279,"[('30562', '1279')]"
Murrayville,1110,"[('30564', '1110')]"
Musella,1893,"[('31066', '1893')]"
Mystic,1803,"[('31769', '1803')]"
Nahunta,1743,"[('31553', '1743')]"
Nashville,1860,"[('31639', '1860')]"
Naylor,1109,"[('31641', '1109')]"
Nelson,2437,"[('30151', '2437')]"
Newborn,1608,"[('30056', '1608')]"
Newington,1099,"[('30446', '1099')]"
Newnan,6804,"[('30263', '2429'), ('30264', '1357'), ('30265', '1948'), ('30271', '1070')]"
Newton,1998,"[('39870', '1998')]"
Nicholls,2411,"[('31554', '2411')]"
Nicholson,2348,"[('30565', '2348')]"
Norcross,7213,"[('30003', '776'), ('30010', '1559'), ('30071', '1942'), ('30091', '1227'), ('30092', '1066'), ('30093', '643')]"
Norman Park,2263,"[('31771', '2263')]"
Norristown,1332,"[('30447', '1332')]"
North Metro,1777,"[('30026', '576'), ('30029', '1201')]"
Norwood,1500,"[('30821', '1500')]"
Nunez,1132,"[('30448', '1132')]"
Oakfield,710,"[('31772', '710')]"
Oakman,1975,"[('30732', '1975')]"
Oakwood,1251,"[('30566', '1251')]"
Ochlocknee,1560,"[('31773', '1560')]"
Ocilla,1117,"[('31774', '1117')]"
Oconee,2320,"[('31067', '2320')]"
Odum,2454,"[('31555', '2454')]"
Offerman,1434,"[('31556', '1434')]"
Oglethorpe,1272,"[('31068', '1272')]"
Oliver,2150,"[('30449', '2150')]"
Omaha,1969,"[('31821', '1969')]"
Omega,1220,"[('31775', '1220')]"
Orchard Hill,1221,"[('30266', '1221')]"
Oxford,2225,"[('30054', '2225')]"
Palmetto,1041,"[('30268', '1041')]"
Parrott,1484,"[('39877', '1484')]"
Patterson,1666,"[('31557', '1666')]"
Pavo,2160,"[('31778', '2160')]"
Peachtree City,2977,"[('30269', '1534'), ('30270', '1443')]"
Pearson,705,"[('31642', '705')]"
Pelham,1732,"[('31779', '1732')]"
Pembroke,1900,"[('31321', '1900')]"
Pendergrass,742,"[('30567', '742')]"
Perkins,1339,"[('30822', '1339')]"
Perry,2498,"[('31069', '2498')]"
Pine Lake,618,"[('30072', '618')]"
Pine Mountain Valley,1736,"[('31823', '1736')]"
Pine Mountain,1359,"[('31822', '1359')]"
Pinehurst,634,"[('31070', '634')]"
Pineview,924,"[('31071', '924')]"
Pitts,1764,"[('31072', '1764')]"
Plains,1623,"[('31780', '1623')]"
Plainville,2161,"[('30733', '2161')]"
Pooler,2104,"[('31322', '2104')]"
Portal,1670,"[('30450', '1670')]"
Porterdale,1053,"[('30070', '1053')]"
Poulan,2094,"[('31781', '2094')]"
Powder Springs,2394,"[('30127', '2394')]"
Preston,1829,"[('31824', '1829')]"
Pulaski,1895,"[('30451', '1895')]"
Putney,2034,"[('31782', '2034')]"
Quitman,511,"[('31643', '511')]"
Rabun Gap,827,"[('30568', '827')]"
Ranger,1801,"[('30734', '1801')]"
Ray City,1408,"[('31645', '1408')]"
Rayle,2249,"[('30660', '2249')]"
Rebecca,1828,"[('31783', '1828')]"
Red Oak,794,"[('30272', '794')]"
Redan,984,"[('30074', '984')]"
Register,2058,"[('30452', '2058')]"
Reidsville,2941,"[('30453', '2226'), ('30499', '715')]"
Rentz,1950,"[('31075', '1950')]"
Resaca,1876,"[('30735', '1876')]"
Rex,913,"[('30273', '913')]"
Reynolds,1611,"[('31076', '1611')]"
Rhine,2489,"[('31077', '2489')]"
Riceboro,768,"[('31323', '768')]"
Richland,572,"[('31825', '572')]"
Richmond Hill,1329,"[('31324', '1329')]"
Rincon,503,"[('31326', '503')]"
Ringgold,1500,"[('30736', '1500')]"
Rising Fawn,1247,"[('30738', '1247')]"
Riverdale,1583,"[('30274', '729'), ('30296', '854')]"
Roberta,849,"[('31078', '849')]"
Rochelle,1378,"[('31079', '1378')]"
Rock Spring,751,"[('30739', '751')]"
Rockledge,1503,"[('30454', '1503')]"
Rockmart,945,"[('30153', '945')]"
Rocky Face,1454,"[('30740', '1454')]"
Rocky Ford,1986,"[('30455', '1986')]"
Rome,7073,"[('30161', '1243'), ('30162', '2438'), ('30163', '764'), ('30164', '1461'), ('30165', '1167')]"
Roopville,986,"[('30170', '986')]"
Rossville,973,"[('30741', '973')]"
Roswell,4484,"[('30075', '536'), ('30076', '1955'), ('30077', '1993')]"
Royston,1697,"[('30662', '1697')]"
Rupert,1400,"[('31081', '1400')]"
Rutledge,1618,"[('30663', '1618')]"
Rydal,1057,"[('30171', '1057')]"
Saint George,1744,"[('31562', '1744')]"
Saint Marys,776,"[('31558', '776')]"
Saint Simons Island,1260,"[('31522', '1260')]"
Sale City,1054,"[('31784', '1054')]"
Sandersville,1691,"[('31082', '1691')]"
Sapelo Island,2455,"[('31327', '2455')]"
Sardis,1832,"[('30456', '1832')]"
Sargent,1982,"[('30275', '1982')]"
Sasser,1650,"[('39885', '1650')]"
Sautee Nacoochee,874,"[('30571', '874')]"
Savannah,28545,"[('31401', '1345'), ('31402', '2300'), ('31403', '517'), ('31404', '655'), ('31405', '793'), ('31406', '699'), ('31407', '773'), ('31408', '2099'), ('31409', '1158'), ('31410', '2107'), ('31411', '2426'), ('31412', '785'), ('31414', '2477'), ('31415', '2000'), ('31416', '1617'), ('31418', '2131'), ('31419', '1653'), ('31420', '811'), ('31421', '2199')]"
Scotland,2380,"[('31083', '2380')]"
Scottdale,565,"[('30079', '565')]"
Screven,1444,"[('31560', '1444')]"
Sea Island,1844,"[('31561', '1844')]"
Senoia,1743,"[('30276', '1743')]"
Seville,642,"[('31084', '642')]"
Shady Dale,877,"[('31085', '877')]"
Shannon,1285,"[('30172', '1285')]"
Sharon,957,"[('30664', '957')]"
Sharpsburg,514,"[('30277', '514')]"
Shellman,1236,"[('39886', '1236')]"
Shiloh,1285,"[('31826', '1285')]"
Siloam,1519,"[('30665', '1519')]"
Silver Creek,716,"[('30173', '716')]"
Smarr,1607,"[('31086', '1607')]"
Smithville,1307,"[('31787', '1307')]"
Smyrna,2516,"[('30080', '1471'), ('30081', '530'), ('30082', '515')]"
Snellville,3579,"[('30039', '1777'), ('30078', '1802')]"
Social Circle,829,"[('30025', '829')]"
Soperton,560,"[('30457', '560')]"
Sparks,2306,"[('31647', '2306')]"
Sparta,2025,"[('31087', '2025')]"
Springfield,1318,"[('31329', '1318')]"
Stapleton,2044,"[('30823', '2044')]"
Statenville,2126,"[('31648', '2126')]"
Statesboro,4706,"[('30458', '1206'), ('30459', '507'), ('30460', '2070'), ('30461', '923')]"
Statham,1041,"[('30666', '1041')]"
Stephens,2404,"[('30667', '2404')]"
Stillmore,1785,"[('30464', '1785')]"
Stockbridge,1944,"[('30281', '1944')]"
Stockton,598,"[('31649', '598')]"
Stone Mountain,8129,"[('30083', '2401'), ('30086', '1627'), ('30087', '1668'), ('30088', '2433')]"
Suches,2282,"[('30572', '2282')]"
Sugar Valley,2264,"[('30746', '2264')]"
Summerville,1813,"[('30747', '1813')]"
Sumner,1484,"[('31789', '1484')]"
Sunny Side,1791,"[('30284', '1791')]"
Surrency,823,"[('31563', '823')]"
Suwanee,637,"[('30024', '637')]"
Swainsboro,1709,"[('30401', '1709')]"
Sycamore,1537,"[('31790', '1537')]"
Sylvania,512,"[('30467', '512')]"
Sylvester,935,"[('31791', '935')]"
Talbotton,2143,"[('31827', '2143')]"
Talking Rock,2449,"[('30175', '2449')]"
Tallapoosa,1653,"[('30176', '1653')]"
Tallulah Falls,1317,"[('30573', '1317')]"
Talmo,595,"[('30575', '595')]"
Tarrytown,2344,"[('30470', '2344')]"
Tate,1823,"[('30177', '1823')]"
Taylorsville,669,"[('30178', '669')]"
Temple,1400,"[('30179', '1400')]"
Tennga,2014,"[('30751', '2014')]"
Tennille,2103,"[('31089', '2103')]"
The Rock,1260,"[('30285', '1260')]"
Thomaston,2435,"[('30286', '2435')]"
Thomasville,5967,"[('31757', '675'), ('31758', '2312'), ('31792', '984'), ('31799', '1996')]"
Thomson,504,"[('30824', '504')]"
Tifton,3429,"[('31793', '1559'), ('31794', '1870')]"
Tiger,797,"[('30576', '797')]"
Tignall,2493,"[('30668', '2493')]"
Toccoa Falls,1451,"[('30598', '1451')]"
Toccoa,1223,"[('30577', '1223')]"
Toomsboro,1286,"[('31090', '1286')]"
Townsend,1606,"[('31331', '1606')]"
Trenton,761,"[('30752', '761')]"
Trion,988,"[('30753', '988')]"
Tucker,3785,"[('30084', '2151'), ('30085', '1634')]"
Tunnel Hill,1135,"[('30755', '1135')]"
Turin,1885,"[('30289', '1885')]"
Turnerville,843,"[('30580', '843')]"
Twin City,503,"[('30471', '503')]"
Ty Ty,623,"[('31795', '623')]"
Tybee Island,928,"[('31328', '928')]"
Tyrone,1044,"[('30290', '1044')]"
Unadilla,589,"[('31091', '589')]"
Union City,1470,"[('30291', '1470')]"
Union Point,1965,"[('30669', '1965')]"
Upatoi,1766,"[('31829', '1766')]"
Uvalda,2084,"[('30473', '2084')]"
Valdosta,13370,"[('31601', '2074'), ('31602', '2234'), ('31603', '2354'), ('31604', '1377'), ('31605', '1527'), ('31606', '1881'), ('31698', '1923')]"
Varnell,558,"[('30756', '558')]"
Vidalia,2766,"[('30474', '2112'), ('30475', '654')]"
Vienna,2449,"[('31092', '2449')]"
Villa Rica,1345,"[('30180', '1345')]"
Waco,2136,"[('30182', '2136')]"
Wadley,1788,"[('30477', '1788')]"
Waleska,2229,"[('30183', '2229')]"
Walthourville,2111,"[('31333', '2111')]"
Waresboro,909,"[('31564', '909')]"
Warm Springs,1246,"[('31830', '1246')]"
Warner Robins,6794,"[('31088', '735'), ('31093', '2470'), ('31095', '1437'), ('31098', '1498'), ('31099', '654')]"
Warrenton,883,"[('30828', '883')]"
Warthen,1080,"[('31094', '1080')]"
Warwick,1574,"[('31796', '1574')]"
Washington,612,"[('30673', '612')]"
Watkinsville,2333,"[('30677', '2333')]"
Waverly Hall,1008,"[('31831', '1008')]"
Waverly,1811,"[('31565', '1811')]"
Waycross,6525,"[('31501', '2028'), ('31502', '2179'), ('31503', '2318')]"
Waynesboro,1297,"[('30830', '1297')]"
Waynesville,504,"[('31566', '504')]"
West Green,1348,"[('31567', '1348')]"
West Point,750,"[('31833', '750')]"
Weston,2274,"[('31832', '2274')]"
Whigham,2042,"[('39897', '2042')]"
White Oak,2218,"[('31568', '2218')]"
White Plains,1671,"[('30678', '1671')]"
White,1498,"[('30184', '1498')]"
Whitesburg,1630,"[('30185', '1630')]"
Wildwood,1714,"[('30757', '1714')]"
Wiley,2386,"[('30581', '2386')]"
Willacoochee,2103,"[('31650', '2103')]"
Williamson,641,"[('30292', '641')]"
Winder,1982,"[('30680', '1982')]"
Winston,1344,"[('30187', '1344')]"
Winterville,1716,"[('30683', '1716')]"
Woodbine,1824,"[('31569', '1824')]"
Woodbury,2472,"[('30293', '2472')]"
Woodland,1107,"[('31836', '1107')]"
Woodstock,2579,"[('30188', '1200'), ('30189', '1379')]"
Wray,1371,"[('31798', '1371')]"
Wrens,2253,"[('30833', '2253')]"
Wrightsville,2056,"[('31096', '2056')]"
Yatesville,653,"[('31097', '653')]"
Young Harris,2448,"[('30582', '2448')]"
Zebulon,1229,"[('30295', '1229')]"
