ZipCode,FactorType,FactorValue
30002,Safe Driver,0.552872376
30002,Multi Policy,0.302531811
30002,Low Mileage,0.037793375
30003,Safe Driver,0.781831788
30003,Multi Policy,0.635207468
30003,Low Mileage,0.146443505
30004,Safe Driver,0.601520583
30004,Multi Policy,0.636732115
30004,Low Mileage,0.569149955
30005,Safe Driver,0.644750941
30005,Multi Policy,0.402138089
30005,Low Mileage,0.073772982
30006,Safe Driver,0.846442843
30006,Multi Policy,0.634140394
30006,Low Mileage,0.782909835
30007,Safe Driver,0.313541402
30007,Multi Policy,0.392381607
30007,Low Mileage,0.326835634
30008,Safe Driver,0.292929281
30008,Multi Policy,0.203105729
30008,Low Mileage,0.841138001
30009,Safe Driver,0.483767475
30009,Multi Policy,0.717680734
30009,Low Mileage,0.159462484
30010,Safe Driver,0.50845261
30010,Multi Policy,0.786463843
30010,Low Mileage,0.571884494
30011,Safe Driver,0.272821206
30011,Multi Policy,0.129392164
30011,Low Mileage,0.27494903
30012,Safe Driver,0.568530723
30012,Multi Policy,0.247081012
30012,Low Mileage,0.118302837
30013,Safe Driver,0.777881964
30013,Multi Policy,0.640168768
30013,Low Mileage,0.302487767
30014,Safe Driver,0.598313421
30014,Multi Policy,0.091516229
30014,Low Mileage,0.922709719
30015,Safe Driver,0.692448607
30015,Multi Policy,0.238596782
30015,Low Mileage,0.445076132
30016,Safe Driver,0.7440997
30016,Multi Policy,0.636889398
30016,Low Mileage,0.068555678
30017,Safe Driver,0.348877655
30017,Multi Policy,0.740801745
30017,Low Mileage,0.899938114
30018,Safe Driver,0.662639647
30018,Multi Policy,0.871359477
30018,Low Mileage,0.986513947
30019,Safe Driver,0.983750623
30019,Multi Policy,0.96367606
30019,Low Mileage,0.809779088
30021,Safe Driver,0.235448126
30021,Multi Policy,0.746473688
30021,Low Mileage,0.596122929
30022,Safe Driver,0.617815465
30022,Multi Policy,0.939301903
30022,Low Mileage,0.564338091
30023,Safe Driver,0.806613622
30023,Multi Policy,0.612197188
30023,Low Mileage,0.754550055
30024,Safe Driver,0.897930623
30024,Multi Policy,0.009888648
30024,Low Mileage,0.447825976
30025,Safe Driver,0.950456639
30025,Multi Policy,0.14324566
30025,Low Mileage,0.972110214
30026,Safe Driver,0.149459184
30026,Multi Policy,0.631111821
30026,Low Mileage,0.935156825
30028,Safe Driver,0.828550875
30028,Multi Policy,0.353950594
30028,Low Mileage,0.673116746
30029,Safe Driver,0.794701948
30029,Multi Policy,0.219930696
30029,Low Mileage,0.549570546
30030,Safe Driver,0.116616254
30030,Multi Policy,0.608523957
30030,Low Mileage,1.24E-06
30031,Safe Driver,0.325909103
30031,Multi Policy,0.580701735
30031,Low Mileage,0.494209371
30032,Safe Driver,0.606064461
30032,Multi Policy,0.118808244
30032,Low Mileage,0.099478119
30033,Safe Driver,0.378374728
30033,Multi Policy,0.802974027
30033,Low Mileage,0.991240445
30034,Safe Driver,0.525844015
30034,Multi Policy,0.403038952
30034,Low Mileage,0.541184641
30035,Safe Driver,0.771439096
30035,Multi Policy,0.436053044
30035,Low Mileage,0.302156836
30036,Safe Driver,0.148192142
30036,Multi Policy,0.629309901
30036,Low Mileage,0.132767359
30037,Safe Driver,0.715490126
30037,Multi Policy,0.673760385
30037,Low Mileage,0.885926323
30038,Safe Driver,0.652410057
30038,Multi Policy,0.757490341
30038,Low Mileage,0.632816858
30039,Safe Driver,0.95599314
30039,Multi Policy,0.959623732
30039,Low Mileage,0.869728753
30040,Safe Driver,0.018174464
30040,Multi Policy,0.20468916
30040,Low Mileage,0.638231601
30041,Safe Driver,0.774170579
30041,Multi Policy,0.339213053
30041,Low Mileage,0.144180223
30042,Safe Driver,0.074984075
30042,Multi Policy,0.588873129
30042,Low Mileage,0.183987627
30043,Safe Driver,0.58272161
30043,Multi Policy,0.179322922
30043,Low Mileage,0.102604385
30044,Safe Driver,0.299918745
30044,Multi Policy,0.579757496
30044,Low Mileage,0.011318491
30045,Safe Driver,0.621005856
30045,Multi Policy,0.341568552
30045,Low Mileage,0.554130669
30046,Safe Driver,0.820844127
30046,Multi Policy,0.835621894
30046,Low Mileage,0.407068703
30047,Safe Driver,0.252287504
30047,Multi Policy,0.313899265
30047,Low Mileage,0.43511125
30048,Safe Driver,0.010243619
30048,Multi Policy,0.615910591
30048,Low Mileage,0.911410852
30049,Safe Driver,0.18242468
30049,Multi Policy,0.313194494
30049,Low Mileage,0.038533194
30052,Safe Driver,0.263848072
30052,Multi Policy,0.749903086
30052,Low Mileage,0.674549011
30054,Safe Driver,0.998516175
30054,Multi Policy,0.40348448
30054,Low Mileage,0.51000323
30055,Safe Driver,0.968942538
30055,Multi Policy,0.664974933
30055,Low Mileage,0.472112152
30056,Safe Driver,0.13708472
30056,Multi Policy,0.965467994
30056,Low Mileage,0.86987573
30058,Safe Driver,0.758273481
30058,Multi Policy,0.938731962
30058,Low Mileage,0.821694293
30060,Safe Driver,0.969846969
30060,Multi Policy,0.350719934
30060,Low Mileage,0.014979827
30061,Safe Driver,0.016066667
30061,Multi Policy,0.573162439
30061,Low Mileage,0.426917051
30062,Safe Driver,0.937040662
30062,Multi Policy,0.195126678
30062,Low Mileage,0.130122157
30063,Safe Driver,0.781657563
30063,Multi Policy,0.71129305
30063,Low Mileage,0.809154981
30064,Safe Driver,0.472653124
30064,Multi Policy,0.241868341
30064,Low Mileage,0.194940417
30065,Safe Driver,0.571551418
30065,Multi Policy,0.540769466
30065,Low Mileage,0.457739324
30066,Safe Driver,0.230066285
30066,Multi Policy,0.429833032
30066,Low Mileage,0.827158342
30067,Safe Driver,0.121303704
30067,Multi Policy,0.515932111
30067,Low Mileage,0.592902807
30068,Safe Driver,0.456326519
30068,Multi Policy,0.667866443
30068,Low Mileage,0.206245588
30069,Safe Driver,0.233934665
30069,Multi Policy,0.672898007
30069,Low Mileage,0.796473455
30070,Safe Driver,0.578785819
30070,Multi Policy,0.644424446
30070,Low Mileage,0.15055453
30071,Safe Driver,0.553057834
30071,Multi Policy,0.702189177
30071,Low Mileage,0.888229582
30072,Safe Driver,0.467444481
30072,Multi Policy,0.725567894
30072,Low Mileage,0.458842777
30073,Safe Driver,0.031868484
30073,Multi Policy,0.125334187
30073,Low Mileage,0.78934355
30074,Safe Driver,0.953723683
30074,Multi Policy,0.724770337
30074,Low Mileage,0.655471072
30075,Safe Driver,0.100112455
30075,Multi Policy,0.23288773
30075,Low Mileage,0.03613469
30076,Safe Driver,0.957485985
30076,Multi Policy,0.410861987
30076,Low Mileage,0.857366615
30077,Safe Driver,0.215309371
30077,Multi Policy,0.416228308
30077,Low Mileage,0.473065275
30078,Safe Driver,0.455519911
30078,Multi Policy,0.671498526
30078,Low Mileage,0.883381427
30079,Safe Driver,0.922013379
30079,Multi Policy,0.783552182
30079,Low Mileage,0.399515471
30080,Safe Driver,0.509246777
30080,Multi Policy,0.032170954
30080,Low Mileage,0.892713906
30081,Safe Driver,0.017530595
30081,Multi Policy,0.33687622
30081,Low Mileage,0.578737237
30082,Safe Driver,0.677437946
30082,Multi Policy,0.542065881
30082,Low Mileage,0.903231302
30083,Safe Driver,0.949388281
30083,Multi Policy,0.377368096
30083,Low Mileage,0.548422816
30084,Safe Driver,0.858950906
30084,Multi Policy,0.650655264
30084,Low Mileage,0.587740001
30085,Safe Driver,0.973937673
30085,Multi Policy,0.605455212
30085,Low Mileage,0.777429676
30086,Safe Driver,0.556441027
30086,Multi Policy,0.647027195
30086,Low Mileage,0.646133997
30087,Safe Driver,0.804035642
30087,Multi Policy,0.053435117
30087,Low Mileage,0.450647685
30088,Safe Driver,0.566843863
30088,Multi Policy,0.330431229
30088,Low Mileage,0.969405599
30090,Safe Driver,0.977495079
30090,Multi Policy,0.606181256
30090,Low Mileage,0.709072643
30091,Safe Driver,0.56742039
30091,Multi Policy,0.726902009
30091,Low Mileage,0.500634797
30092,Safe Driver,0.465748502
30092,Multi Policy,0.580524779
30092,Low Mileage,0.290909876
30093,Safe Driver,0.244444765
30093,Multi Policy,0.980138251
30093,Low Mileage,0.924262694
30094,Safe Driver,0.336978607
30094,Multi Policy,0.708210301
30094,Low Mileage,0.147917185
30095,Safe Driver,0.796138755
30095,Multi Policy,0.692680069
30095,Low Mileage,0.277041893
30096,Safe Driver,0.550657911
30096,Multi Policy,0.028839705
30096,Low Mileage,0.490601212
30097,Safe Driver,0.749293239
30097,Multi Policy,0.89263577
30097,Low Mileage,0.453913366
30098,Safe Driver,0.34141648
30098,Multi Policy,0.72674228
30098,Low Mileage,0.310758354
30099,Safe Driver,0.885410156
30099,Multi Policy,0.032320322
30099,Low Mileage,0.255193445
30101,Safe Driver,0.793187288
30101,Multi Policy,0.307139123
30101,Low Mileage,0.730753936
30102,Safe Driver,0.284653073
30102,Multi Policy,0.806460479
30102,Low Mileage,0.52303611
30103,Safe Driver,0.821881653
30103,Multi Policy,0.81195022
30103,Low Mileage,0.936173844
30104,Safe Driver,0.043878069
30104,Multi Policy,0.187248275
30104,Low Mileage,0.006778612
30105,Safe Driver,0.947533375
30105,Multi Policy,0.499179562
30105,Low Mileage,0.319910856
30106,Safe Driver,0.626398104
30106,Multi Policy,0.002390475
30106,Low Mileage,0.030621332
30107,Safe Driver,0.380194721
30107,Multi Policy,0.60442247
30107,Low Mileage,0.005440399
30108,Safe Driver,0.902650264
30108,Multi Policy,0.203356908
30108,Low Mileage,0.155264092
30109,Safe Driver,0.999524255
30109,Multi Policy,0.223089589
30109,Low Mileage,0.646319145
30110,Safe Driver,0.659018745
30110,Multi Policy,0.290738571
30110,Low Mileage,0.069174607
30111,Safe Driver,0.374034898
30111,Multi Policy,0.427226139
30111,Low Mileage,0.53596673
30112,Safe Driver,0.528977722
30112,Multi Policy,0.420028195
30112,Low Mileage,0.584177704
30113,Safe Driver,0.191849425
30113,Multi Policy,0.328351847
30113,Low Mileage,0.71275579
30114,Safe Driver,0.986644958
30114,Multi Policy,0.712462225
30114,Low Mileage,0.354998499
30115,Safe Driver,0.985370696
30115,Multi Policy,0.843560886
30115,Low Mileage,0.250785401
30116,Safe Driver,0.203129596
30116,Multi Policy,0.26901896
30116,Low Mileage,0.027082231
30117,Safe Driver,0.723701856
30117,Multi Policy,0.331098607
30117,Low Mileage,0.884332527
30118,Safe Driver,0.923822137
30118,Multi Policy,0.500238534
30118,Low Mileage,0.602394107
30119,Safe Driver,0.347263379
30119,Multi Policy,0.280209555
30119,Low Mileage,0.406922722
30120,Safe Driver,0.125430677
30120,Multi Policy,0.526969337
30120,Low Mileage,0.705872939
30121,Safe Driver,0.163994617
30121,Multi Policy,0.19684035
30121,Low Mileage,0.811056813
30122,Safe Driver,0.353454311
30122,Multi Policy,0.465518843
30122,Low Mileage,0.048332389
30123,Safe Driver,0.10621443
30123,Multi Policy,0.076376252
30123,Low Mileage,0.347288658
30124,Safe Driver,0.286825937
30124,Multi Policy,0.254233896
30124,Low Mileage,0.632155899
30125,Safe Driver,0.740074939
30125,Multi Policy,0.359964319
30125,Low Mileage,0.477637634
30126,Safe Driver,0.677903606
30126,Multi Policy,0.075522352
30126,Low Mileage,0.745639948
30127,Safe Driver,0.798887835
30127,Multi Policy,0.256663839
30127,Low Mileage,0.70507673
30129,Safe Driver,0.999337789
30129,Multi Policy,0.480001781
30129,Low Mileage,0.095367612
30132,Safe Driver,0.545550546
30132,Multi Policy,0.671338805
30132,Low Mileage,0.815282822
30133,Safe Driver,0.669491625
30133,Multi Policy,0.235235157
30133,Low Mileage,0.116481426
30134,Safe Driver,0.226927304
30134,Multi Policy,0.090226492
30134,Low Mileage,0.053963612
30135,Safe Driver,0.886024344
30135,Multi Policy,0.853085305
30135,Low Mileage,0.347079218
30137,Safe Driver,0.41786567
30137,Multi Policy,0.280779417
30137,Low Mileage,0.742045967
30138,Safe Driver,0.489785943
30138,Multi Policy,0.442305669
30138,Low Mileage,0.474828215
30139,Safe Driver,0.473429912
30139,Multi Policy,0.97720324
30139,Low Mileage,0.068555646
30140,Safe Driver,0.149520807
30140,Multi Policy,0.697013646
30140,Low Mileage,0.263183827
30141,Safe Driver,0.952016859
30141,Multi Policy,0.270990467
30141,Low Mileage,0.141660719
30142,Safe Driver,0.634303617
30142,Multi Policy,0.760349501
30142,Low Mileage,0.449992376
30143,Safe Driver,0.789167929
30143,Multi Policy,0.916128191
30143,Low Mileage,0.550075589
30144,Safe Driver,0.240703389
30144,Multi Policy,0.577807419
30144,Low Mileage,0.814654399
30145,Safe Driver,0.149032471
30145,Multi Policy,0.408069639
30145,Low Mileage,0.656768097
30146,Safe Driver,0.699054928
30146,Multi Policy,0.104232471
30146,Low Mileage,0.038050835
30147,Safe Driver,0.686719626
30147,Multi Policy,0.350703482
30147,Low Mileage,0.46667695
30148,Safe Driver,0.956527527
30148,Multi Policy,0.073359041
30148,Low Mileage,0.559126933
30149,Safe Driver,0.630526545
30149,Multi Policy,0.521200389
30149,Low Mileage,0.284513932
30150,Safe Driver,0.431116917
30150,Multi Policy,0.122939985
30150,Low Mileage,0.441260633
30151,Safe Driver,0.018803841
30151,Multi Policy,0.141947105
30151,Low Mileage,0.898566898
30152,Safe Driver,0.220221613
30152,Multi Policy,0.543573595
30152,Low Mileage,0.700479052
30153,Safe Driver,0.871617938
30153,Multi Policy,0.844639339
30153,Low Mileage,0.291346156
30154,Safe Driver,0.336799446
30154,Multi Policy,0.846052185
30154,Low Mileage,0.796198698
30156,Safe Driver,0.687142651
30156,Multi Policy,0.450961881
30156,Low Mileage,0.846128239
30157,Safe Driver,0.99941829
30157,Multi Policy,0.135363028
30157,Low Mileage,0.324611478
30160,Safe Driver,0.06456388
30160,Multi Policy,0.407239241
30160,Low Mileage,0.419912667
30161,Safe Driver,0.036632651
30161,Multi Policy,0.594357701
30161,Low Mileage,0.530654087
30162,Safe Driver,0.517108111
30162,Multi Policy,0.80434705
30162,Low Mileage,0.685812061
30163,Safe Driver,0.276526214
30163,Multi Policy,0.620999545
30163,Low Mileage,0.149375568
30164,Safe Driver,0.063682244
30164,Multi Policy,0.179903966
30164,Low Mileage,0.056615557
30165,Safe Driver,0.542317428
30165,Multi Policy,0.303870308
30165,Low Mileage,0.804153884
30168,Safe Driver,0.630568626
30168,Multi Policy,0.19257566
30168,Low Mileage,0.517141879
30169,Safe Driver,0.338974807
30169,Multi Policy,0.9524218
30169,Low Mileage,0.724947799
30170,Safe Driver,0.705996925
30170,Multi Policy,0.397853331
30170,Low Mileage,0.663599182
30171,Safe Driver,0.510607302
30171,Multi Policy,0.358219209
30171,Low Mileage,0.209632121
30172,Safe Driver,0.347152303
30172,Multi Policy,0.279755652
30172,Low Mileage,0.35757694
30173,Safe Driver,0.149044441
30173,Multi Policy,0.878494518
30173,Low Mileage,0.739285081
30175,Safe Driver,0.209919522
30175,Multi Policy,0.22536285
30175,Low Mileage,0.569325242
30176,Safe Driver,0.580570193
30176,Multi Policy,0.656788222
30176,Low Mileage,0.508714387
30177,Safe Driver,0.318114911
30177,Multi Policy,0.252805569
30177,Low Mileage,0.589027927
30178,Safe Driver,0.077035257
30178,Multi Policy,0.281060288
30178,Low Mileage,0.818418621
30179,Safe Driver,0.330668238
30179,Multi Policy,0.780609788
30179,Low Mileage,0.95640952
30180,Safe Driver,0.116761704
30180,Multi Policy,0.836511552
30180,Low Mileage,0.579958429
30182,Safe Driver,0.267213194
30182,Multi Policy,0.458433692
30182,Low Mileage,0.548093809
30183,Safe Driver,0.758282403
30183,Multi Policy,0.353098641
30183,Low Mileage,0.785812659
30184,Safe Driver,0.462568721
30184,Multi Policy,0.928286339
30184,Low Mileage,0.835284962
30185,Safe Driver,0.510158827
30185,Multi Policy,0.055336828
30185,Low Mileage,0.731784321
30187,Safe Driver,0.501372403
30187,Multi Policy,0.998231969
30187,Low Mileage,0.174733817
30188,Safe Driver,0.582025611
30188,Multi Policy,0.209559758
30188,Low Mileage,0.424822356
30189,Safe Driver,0.040149861
30189,Multi Policy,0.138571152
30189,Low Mileage,0.906196309
30204,Safe Driver,0.28824682
30204,Multi Policy,0.233726471
30204,Low Mileage,0.980854659
30205,Safe Driver,0.146350331
30205,Multi Policy,0.409013788
30205,Low Mileage,0.801782958
30206,Safe Driver,0.168017256
30206,Multi Policy,0.091592187
30206,Low Mileage,0.028852015
30212,Safe Driver,0.93246468
30212,Multi Policy,0.485209126
30212,Low Mileage,0.72952596
30213,Safe Driver,0.445719531
30213,Multi Policy,0.918172762
30213,Low Mileage,0.104210097
30214,Safe Driver,0.249670519
30214,Multi Policy,0.968683826
30214,Low Mileage,0.93414212
30215,Safe Driver,0.176871686
30215,Multi Policy,0.288077396
30215,Low Mileage,0.971119036
30216,Safe Driver,0.397099678
30216,Multi Policy,0.340137433
30216,Low Mileage,0.748501068
30217,Safe Driver,0.597891017
30217,Multi Policy,0.453775835
30217,Low Mileage,0.820561912
30218,Safe Driver,0.606759559
30218,Multi Policy,0.878257399
30218,Low Mileage,0.153332965
30219,Safe Driver,0.038435235
30219,Multi Policy,0.037204033
30219,Low Mileage,0.465598965
30220,Safe Driver,0.799902569
30220,Multi Policy,0.633908335
30220,Low Mileage,0.171451959
30222,Safe Driver,0.400382791
30222,Multi Policy,0.888973889
30222,Low Mileage,0.236716786
30223,Safe Driver,0.308279343
30223,Multi Policy,0.350350995
30223,Low Mileage,0.193152211
30224,Safe Driver,0.662115867
30224,Multi Policy,0.390973167
30224,Low Mileage,0.058060073
30228,Safe Driver,0.458081156
30228,Multi Policy,0.298896899
30228,Low Mileage,0.202317343
30229,Safe Driver,0.250816778
30229,Multi Policy,0.086945681
30229,Low Mileage,0.489146736
30230,Safe Driver,0.778275493
30230,Multi Policy,0.652184881
30230,Low Mileage,0.685024613
30233,Safe Driver,0.487958803
30233,Multi Policy,0.585804623
30233,Low Mileage,0.398136982
30234,Safe Driver,0.026066677
30234,Multi Policy,0.198190188
30234,Low Mileage,0.085792441
30236,Safe Driver,0.851729819
30236,Multi Policy,0.661273403
30236,Low Mileage,0.27315649
30237,Safe Driver,0.454132581
30237,Multi Policy,0.088974185
30237,Low Mileage,0.389750744
30238,Safe Driver,0.596343266
30238,Multi Policy,0.218629681
30238,Low Mileage,0.521989555
30240,Safe Driver,0.48887336
30240,Multi Policy,0.376947991
30240,Low Mileage,0.20940081
30241,Safe Driver,0.71145624
30241,Multi Policy,0.68252091
30241,Low Mileage,0.505190341
30248,Safe Driver,0.396105967
30248,Multi Policy,0.156330399
30248,Low Mileage,0.765815424
30250,Safe Driver,0.291208335
30250,Multi Policy,0.157287011
30250,Low Mileage,0.499194597
30251,Safe Driver,0.668368683
30251,Multi Policy,0.882925342
30251,Low Mileage,0.221288191
30252,Safe Driver,0.045254137
30252,Multi Policy,0.768694262
30252,Low Mileage,0.752837836
30253,Safe Driver,0.319274568
30253,Multi Policy,0.437501174
30253,Low Mileage,0.326893312
30256,Safe Driver,0.432165852
30256,Multi Policy,0.606199936
30256,Low Mileage,0.013116368
30257,Safe Driver,0.088034659
30257,Multi Policy,0.126961261
30257,Low Mileage,0.387493103
30258,Safe Driver,0.75235627
30258,Multi Policy,0.336103835
30258,Low Mileage,0.59889314
30259,Safe Driver,0.721477665
30259,Multi Policy,0.23862199
30259,Low Mileage,0.812580102
30260,Safe Driver,0.118933321
30260,Multi Policy,0.712360803
30260,Low Mileage,0.010766846
30261,Safe Driver,0.776808902
30261,Multi Policy,0.907977154
30261,Low Mileage,0.0629038
30263,Safe Driver,0.924986314
30263,Multi Policy,0.429285991
30263,Low Mileage,0.492777699
30264,Safe Driver,0.08039277
30264,Multi Policy,0.687909728
30264,Low Mileage,0.535917222
30265,Safe Driver,0.76046871
30265,Multi Policy,0.783243528
30265,Low Mileage,0.34789125
30266,Safe Driver,0.287412357
30266,Multi Policy,0.570700068
30266,Low Mileage,0.954362376
30268,Safe Driver,0.191215465
30268,Multi Policy,0.650842367
30268,Low Mileage,0.966164826
30269,Safe Driver,0.750166469
30269,Multi Policy,0.590515659
30269,Low Mileage,0.419513173
30270,Safe Driver,0.360911438
30270,Multi Policy,0.064765817
30270,Low Mileage,0.519827654
30271,Safe Driver,0.524389049
30271,Multi Policy,0.683073554
30271,Low Mileage,0.696724405
30272,Safe Driver,0.340215398
30272,Multi Policy,0.968350369
30272,Low Mileage,0.157949897
30273,Safe Driver,0.710121347
30273,Multi Policy,0.256006956
30273,Low Mileage,0.324013455
30274,Safe Driver,0.365507529
30274,Multi Policy,0.692585737
30274,Low Mileage,0.0070553
30275,Safe Driver,0.738398233
30275,Multi Policy,0.224572322
30275,Low Mileage,0.168543307
30276,Safe Driver,0.396920551
30276,Multi Policy,0.125186373
30276,Low Mileage,0.793747703
30277,Safe Driver,0.486508213
30277,Multi Policy,0.722484887
30277,Low Mileage,0.292789853
30281,Safe Driver,0.023902438
30281,Multi Policy,0.377694427
30281,Low Mileage,0.5329386
30284,Safe Driver,0.226189081
30284,Multi Policy,0.535932039
30284,Low Mileage,0.864573852
30285,Safe Driver,0.143683517
30285,Multi Policy,0.548161252
30285,Low Mileage,0.690907403
30286,Safe Driver,0.618629159
30286,Multi Policy,0.678093985
30286,Low Mileage,0.196071127
30287,Safe Driver,0.527778445
30287,Multi Policy,0.58196077
30287,Low Mileage,0.108645087
30288,Safe Driver,0.250735332
30288,Multi Policy,0.66353107
30288,Low Mileage,0.617928639
30289,Safe Driver,0.952341392
30289,Multi Policy,0.703953359
30289,Low Mileage,0.165624027
30290,Safe Driver,0.023466536
30290,Multi Policy,0.569771015
30290,Low Mileage,0.558556061
30291,Safe Driver,0.365101559
30291,Multi Policy,0.169695524
30291,Low Mileage,0.22237262
30292,Safe Driver,0.155155811
30292,Multi Policy,0.948273179
30292,Low Mileage,0.232506739
30293,Safe Driver,0.501661471
30293,Multi Policy,0.412708022
30293,Low Mileage,0.711982054
30294,Safe Driver,0.974094665
30294,Multi Policy,0.196152428
30294,Low Mileage,0.820207157
30295,Safe Driver,0.402201507
30295,Multi Policy,0.478427389
30295,Low Mileage,0.404659
30296,Safe Driver,0.726665791
30296,Multi Policy,0.757283113
30296,Low Mileage,0.771135606
30297,Safe Driver,0.429037024
30297,Multi Policy,0.022891382
30297,Low Mileage,0.470215631
30298,Safe Driver,0.842635082
30298,Multi Policy,0.661348167
30298,Low Mileage,0.501854332
30301,Safe Driver,0.624592926
30301,Multi Policy,0.221335775
30301,Low Mileage,0.473090093
30302,Safe Driver,0.649539476
30302,Multi Policy,0.590518709
30302,Low Mileage,0.021167591
30303,Safe Driver,0.399773603
30303,Multi Policy,0.837687757
30303,Low Mileage,0.309274908
30304,Safe Driver,0.852035109
30304,Multi Policy,0.212634158
30304,Low Mileage,0.507628152
30305,Safe Driver,0.481172407
30305,Multi Policy,0.110204889
30305,Low Mileage,0.35472409
30306,Safe Driver,0.559976675
30306,Multi Policy,0.297758257
30306,Low Mileage,0.057769932
30307,Safe Driver,0.43354882
30307,Multi Policy,0.991411095
30307,Low Mileage,0.494633014
30308,Safe Driver,0.108304779
30308,Multi Policy,0.395389423
30308,Low Mileage,0.008454694
30309,Safe Driver,0.402501106
30309,Multi Policy,0.919155105
30309,Low Mileage,0.243985734
30310,Safe Driver,0.745753467
30310,Multi Policy,0.220833542
30310,Low Mileage,0.64753737
30311,Safe Driver,0.880634978
30311,Multi Policy,0.810467673
30311,Low Mileage,0.259458277
30312,Safe Driver,0.987629239
30312,Multi Policy,0.390758125
30312,Low Mileage,0.496937368
30313,Safe Driver,0.85509375
30313,Multi Policy,0.263959733
30313,Low Mileage,0.586372432
30314,Safe Driver,0.820834871
30314,Multi Policy,0.811787858
30314,Low Mileage,0.980907043
30315,Safe Driver,0.378161443
30315,Multi Policy,0.498448197
30315,Low Mileage,0.845134618
30316,Safe Driver,0.447514906
30316,Multi Policy,0.399916044
30316,Low Mileage,0.550448894
30317,Safe Driver,0.256818939
30317,Multi Policy,0.410176973
30317,Low Mileage,0.665035875
30318,Safe Driver,0.797692521
30318,Multi Policy,0.176892109
30318,Low Mileage,0.301518854
30319,Safe Driver,0.562361634
30319,Multi Policy,0.226942831
30319,Low Mileage,0.533292149
30320,Safe Driver,0.967974199
30320,Multi Policy,0.738919347
30320,Low Mileage,0.765657355
30321,Safe Driver,0.692557444
30321,Multi Policy,0.584459378
30321,Low Mileage,0.902865692
30322,Safe Driver,0.374260778
30322,Multi Policy,0.285981111
30322,Low Mileage,0.454083622
30324,Safe Driver,0.333235012
30324,Multi Policy,0.261855437
30324,Low Mileage,0.073002119
30325,Safe Driver,0.973312433
30325,Multi Policy,0.960000207
30325,Low Mileage,0.792654063
30326,Safe Driver,0.292662171
30326,Multi Policy,0.575766808
30326,Low Mileage,0.67581238
30327,Safe Driver,0.964026206
30327,Multi Policy,0.371456329
30327,Low Mileage,0.40378548
30328,Safe Driver,0.642327295
30328,Multi Policy,0.186181195
30328,Low Mileage,0.002765063
30329,Safe Driver,0.724100275
30329,Multi Policy,0.395375154
30329,Low Mileage,0.071328918
30330,Safe Driver,0.709188941
30330,Multi Policy,0.020311919
30330,Low Mileage,0.721826169
30331,Safe Driver,0.419655337
30331,Multi Policy,0.716705296
30331,Low Mileage,0.59108618
30332,Safe Driver,0.239266185
30332,Multi Policy,0.596754697
30332,Low Mileage,0.653208179
30333,Safe Driver,0.292780359
30333,Multi Policy,0.158903765
30333,Low Mileage,0.966995305
30334,Safe Driver,0.995812338
30334,Multi Policy,0.638723856
30334,Low Mileage,0.361310426
30336,Safe Driver,0.83174907
30336,Multi Policy,0.110006824
30336,Low Mileage,0.638505602
30337,Safe Driver,0.155334459
30337,Multi Policy,0.985140795
30337,Low Mileage,0.842655544
30338,Safe Driver,0.525261978
30338,Multi Policy,0.076560101
30338,Low Mileage,0.729845758
30339,Safe Driver,0.323261776
30339,Multi Policy,0.087334592
30339,Low Mileage,0.609897049
30340,Safe Driver,0.267039882
30340,Multi Policy,0.395511745
30340,Low Mileage,0.4861837
30341,Safe Driver,0.363763751
30341,Multi Policy,0.767585149
30341,Low Mileage,0.760501752
30342,Safe Driver,0.618113028
30342,Multi Policy,0.002546104
30342,Low Mileage,0.939627217
30343,Safe Driver,0.377187648
30343,Multi Policy,0.667417449
30343,Low Mileage,0.28094006
30344,Safe Driver,0.056969191
30344,Multi Policy,0.01064743
30344,Low Mileage,0.890214413
30345,Safe Driver,0.035864918
30345,Multi Policy,0.444764976
30345,Low Mileage,0.116264622
30346,Safe Driver,0.522851122
30346,Multi Policy,0.670839962
30346,Low Mileage,0.220028798
30347,Safe Driver,0.750709761
30347,Multi Policy,0.412295758
30347,Low Mileage,0.306862538
30348,Safe Driver,0.300133261
30348,Multi Policy,0.342660061
30348,Low Mileage,0.518165819
30349,Safe Driver,0.904836564
30349,Multi Policy,0.837458898
30349,Low Mileage,0.77103693
30350,Safe Driver,0.453068732
30350,Multi Policy,0.546240561
30350,Low Mileage,0.507637048
30353,Safe Driver,0.436153056
30353,Multi Policy,0.501734661
30353,Low Mileage,0.064025599
30354,Safe Driver,0.318013308
30354,Multi Policy,0.432991488
30354,Low Mileage,0.985241597
30355,Safe Driver,0.796531289
30355,Multi Policy,0.914551641
30355,Low Mileage,0.964994522
30356,Safe Driver,0.456322914
30356,Multi Policy,0.928274085
30356,Low Mileage,0.10302466
30357,Safe Driver,0.59108116
30357,Multi Policy,0.901351542
30357,Low Mileage,0.319267617
30358,Safe Driver,0.649822868
30358,Multi Policy,0.225571671
30358,Low Mileage,0.660096062
30359,Safe Driver,0.326533712
30359,Multi Policy,0.679868888
30359,Low Mileage,0.909441649
30360,Safe Driver,0.101084315
30360,Multi Policy,0.222739549
30360,Low Mileage,0.395936915
30361,Safe Driver,0.659457597
30361,Multi Policy,0.370596684
30361,Low Mileage,0.718750799
30362,Safe Driver,0.180248172
30362,Multi Policy,0.088102247
30362,Low Mileage,0.876071217
30363,Safe Driver,0.855886204
30363,Multi Policy,0.168729636
30363,Low Mileage,0.627614404
30364,Safe Driver,0.147032844
30364,Multi Policy,0.024618029
30364,Low Mileage,0.590380278
30366,Safe Driver,0.944571376
30366,Multi Policy,0.605350537
30366,Low Mileage,0.1344932
30368,Safe Driver,0.590332828
30368,Multi Policy,0.670622868
30368,Low Mileage,0.251220188
30369,Safe Driver,0.874099058
30369,Multi Policy,0.824253316
30369,Low Mileage,0.908478268
30370,Safe Driver,0.92998655
30370,Multi Policy,0.255160819
30370,Low Mileage,0.957783362
30371,Safe Driver,0.003229515
30371,Multi Policy,0.318354017
30371,Low Mileage,0.761971978
30374,Safe Driver,0.333478747
30374,Multi Policy,0.441018973
30374,Low Mileage,0.519204377
30375,Safe Driver,0.274193182
30375,Multi Policy,0.387412105
30375,Low Mileage,0.707128395
30376,Safe Driver,0.509510588
30376,Multi Policy,0.550323935
30376,Low Mileage,0.259112091
30377,Safe Driver,0.317756887
30377,Multi Policy,0.560233148
30377,Low Mileage,0.418284287
30378,Safe Driver,0.36907534
30378,Multi Policy,0.192293403
30378,Low Mileage,0.977508037
30379,Safe Driver,0.854650191
30379,Multi Policy,0.447743505
30379,Low Mileage,0.180479484
30380,Safe Driver,0.414411673
30380,Multi Policy,0.686622058
30380,Low Mileage,0.139830454
30384,Safe Driver,0.905296881
30384,Multi Policy,0.25890505
30384,Low Mileage,0.167455795
30385,Safe Driver,0.625414835
30385,Multi Policy,0.684610481
30385,Low Mileage,0.537197307
30386,Safe Driver,0.667867183
30386,Multi Policy,0.569056417
30386,Low Mileage,0.07884922
30387,Safe Driver,0.720689517
30387,Multi Policy,0.101093241
30387,Low Mileage,0.27946671
30388,Safe Driver,0.437165925
30388,Multi Policy,0.520791012
30388,Low Mileage,0.142761249
30389,Safe Driver,0.286853906
30389,Multi Policy,0.883668481
30389,Low Mileage,0.685691779
30390,Safe Driver,0.859998267
30390,Multi Policy,0.659556423
30390,Low Mileage,0.089208209
30392,Safe Driver,0.048005245
30392,Multi Policy,0.469985386
30392,Low Mileage,0.516557647
30394,Safe Driver,0.433238726
30394,Multi Policy,0.138645684
30394,Low Mileage,0.951086419
30396,Safe Driver,0.250746706
30396,Multi Policy,0.175429856
30396,Low Mileage,0.426052152
30398,Safe Driver,0.865109522
30398,Multi Policy,0.85969739
30398,Low Mileage,0.525276901
30399,Safe Driver,0.837136967
30399,Multi Policy,0.609902587
30399,Low Mileage,0.32870737
30401,Safe Driver,0.529779289
30401,Multi Policy,0.803175945
30401,Low Mileage,0.143330548
30410,Safe Driver,0.814232989
30410,Multi Policy,0.544847635
30410,Low Mileage,0.160793938
30411,Safe Driver,0.768677284
30411,Multi Policy,0.326857582
30411,Low Mileage,0.657713829
30412,Safe Driver,0.425367532
30412,Multi Policy,0.223362905
30412,Low Mileage,0.296751189
30413,Safe Driver,0.333686507
30413,Multi Policy,0.63553749
30413,Low Mileage,0.58365055
30414,Safe Driver,0.82063613
30414,Multi Policy,0.633939295
30414,Low Mileage,0.848941881
30415,Safe Driver,0.785530664
30415,Multi Policy,0.815883774
30415,Low Mileage,0.902203826
30417,Safe Driver,0.321656286
30417,Multi Policy,0.660210653
30417,Low Mileage,0.449164341
30420,Safe Driver,0.056683545
30420,Multi Policy,0.964420203
30420,Low Mileage,0.856334995
30421,Safe Driver,0.517583429
30421,Multi Policy,0.099773567
30421,Low Mileage,0.736938124
30423,Safe Driver,0.927437766
30423,Multi Policy,0.474875521
30423,Low Mileage,0.892814329
30424,Safe Driver,0.574267624
30424,Multi Policy,0.839568238
30424,Low Mileage,0.836359253
30425,Safe Driver,0.977736169
30425,Multi Policy,0.291463071
30425,Low Mileage,0.221889808
30426,Safe Driver,0.616722902
30426,Multi Policy,0.959040983
30426,Low Mileage,0.771455329
30427,Safe Driver,0.389120084
30427,Multi Policy,0.32245467
30427,Low Mileage,0.85555156
30428,Safe Driver,0.153555377
30428,Multi Policy,0.757732813
30428,Low Mileage,0.345057647
30429,Safe Driver,0.233087446
30429,Multi Policy,0.170670297
30429,Low Mileage,0.867391994
30434,Safe Driver,0.594879091
30434,Multi Policy,0.190005111
30434,Low Mileage,0.318350567
30436,Safe Driver,0.338762057
30436,Multi Policy,0.833436668
30436,Low Mileage,0.130286998
30438,Safe Driver,0.426506976
30438,Multi Policy,0.625452684
30438,Low Mileage,0.45887855
30439,Safe Driver,0.890934775
30439,Multi Policy,0.771095366
30439,Low Mileage,0.317358531
30441,Safe Driver,0.116302259
30441,Multi Policy,0.788628625
30441,Low Mileage,0.067213828
30442,Safe Driver,0.944818438
30442,Multi Policy,0.896195984
30442,Low Mileage,0.909179904
30445,Safe Driver,0.878384852
30445,Multi Policy,0.294076086
30445,Low Mileage,0.543810418
30446,Safe Driver,0.313488046
30446,Multi Policy,0.34592603
30446,Low Mileage,0.413590092
30447,Safe Driver,0.212217223
30447,Multi Policy,0.291569234
30447,Low Mileage,0.222038946
30448,Safe Driver,0.624217898
30448,Multi Policy,0.060779695
30448,Low Mileage,0.910598509
30449,Safe Driver,0.350617407
30449,Multi Policy,0.272517522
30449,Low Mileage,0.658134387
30450,Safe Driver,0.359271499
30450,Multi Policy,0.52096822
30450,Low Mileage,0.125568395
30451,Safe Driver,0.108234885
30451,Multi Policy,0.933226974
30451,Low Mileage,0.286209444
30452,Safe Driver,0.842784001
30452,Multi Policy,0.728699992
30452,Low Mileage,0.532898675
30453,Safe Driver,0.729947377
30453,Multi Policy,0.285702058
30453,Low Mileage,0.135018601
30454,Safe Driver,0.941679384
30454,Multi Policy,0.636861213
30454,Low Mileage,0.853628411
30455,Safe Driver,0.922710612
30455,Multi Policy,0.85711486
30455,Low Mileage,0.77966981
30456,Safe Driver,0.273628079
30456,Multi Policy,0.732920215
30456,Low Mileage,0.088573228
30457,Safe Driver,0.438154219
30457,Multi Policy,0.68203279
30457,Low Mileage,0.678514715
30458,Safe Driver,0.356648472
30458,Multi Policy,0.142845278
30458,Low Mileage,0.682332977
30459,Safe Driver,0.326849281
30459,Multi Policy,0.517463998
30459,Low Mileage,0.9617789
30460,Safe Driver,0.11949748
30460,Multi Policy,0.945270873
30460,Low Mileage,0.408007883
30461,Safe Driver,0.642591719
30461,Multi Policy,0.664568879
30461,Low Mileage,0.668515137
30464,Safe Driver,0.974571907
30464,Multi Policy,0.609328927
30464,Low Mileage,0.903776788
30467,Safe Driver,0.677324859
30467,Multi Policy,0.09960626
30467,Low Mileage,0.848704055
30470,Safe Driver,0.153720668
30470,Multi Policy,0.25186466
30470,Low Mileage,0.088214729
30471,Safe Driver,0.105054958
30471,Multi Policy,0.007084588
30471,Low Mileage,0.399726527
30473,Safe Driver,0.740656949
30473,Multi Policy,0.064462721
30473,Low Mileage,0.045812556
30474,Safe Driver,0.361302831
30474,Multi Policy,0.492467956
30474,Low Mileage,0.640045377
30475,Safe Driver,0.566047304
30475,Multi Policy,0.093978147
30475,Low Mileage,0.469733566
30477,Safe Driver,0.512012603
30477,Multi Policy,0.335640255
30477,Low Mileage,0.659604927
30499,Safe Driver,0.346382712
30499,Multi Policy,0.081420085
30499,Low Mileage,0.616419008
30501,Safe Driver,0.597926904
30501,Multi Policy,0.619201427
30501,Low Mileage,0.793872276
30502,Safe Driver,0.525378112
30502,Multi Policy,0.836643403
30502,Low Mileage,0.522723246
30503,Safe Driver,0.017453536
30503,Multi Policy,0.166032581
30503,Low Mileage,0.264587682
30504,Safe Driver,0.937628757
30504,Multi Policy,0.258537588
30504,Low Mileage,0.114822189
30506,Safe Driver,0.734394136
30506,Multi Policy,0.903634158
30506,Low Mileage,0.571726223
30507,Safe Driver,0.892436821
30507,Multi Policy,0.933207898
30507,Low Mileage,0.892162293
30510,Safe Driver,0.437150488
30510,Multi Policy,0.530209168
30510,Low Mileage,0.324543315
30511,Safe Driver,0.497431929
30511,Multi Policy,0.696453849
30511,Low Mileage,0.303048981
30512,Safe Driver,0.756755895
30512,Multi Policy,0.613753845
30512,Low Mileage,0.95041788
30513,Safe Driver,0.485342888
30513,Multi Policy,0.391540059
30513,Low Mileage,0.913082473
30514,Safe Driver,0.457313463
30514,Multi Policy,0.7833394
30514,Low Mileage,0.325381636
30515,Safe Driver,0.157135867
30515,Multi Policy,0.799769073
30515,Low Mileage,0.104630941
30516,Safe Driver,0.061393953
30516,Multi Policy,0.417728373
30516,Low Mileage,0.973977251
30517,Safe Driver,0.648255371
30517,Multi Policy,0.055378697
30517,Low Mileage,0.060267428
30518,Safe Driver,0.428461025
30518,Multi Policy,0.839585979
30518,Low Mileage,0.392299769
30519,Safe Driver,0.320632777
30519,Multi Policy,0.969901165
30519,Low Mileage,0.055623586
30520,Safe Driver,0.790165685
30520,Multi Policy,0.466492164
30520,Low Mileage,0.238216502
30521,Safe Driver,0.124563863
30521,Multi Policy,0.450027416
30521,Low Mileage,0.590252198
30522,Safe Driver,0.358787776
30522,Multi Policy,0.181398107
30522,Low Mileage,0.225601681
30523,Safe Driver,0.082019863
30523,Multi Policy,0.682999761
30523,Low Mileage,0.073043073
30525,Safe Driver,0.173717569
30525,Multi Policy,0.664480901
30525,Low Mileage,0.467720307
30527,Safe Driver,0.749641193
30527,Multi Policy,0.159283082
30527,Low Mileage,0.510785102
30528,Safe Driver,0.649652549
30528,Multi Policy,0.596036086
30528,Low Mileage,0.303860091
30529,Safe Driver,0.014958683
30529,Multi Policy,0.905184249
30529,Low Mileage,0.064137025
30530,Safe Driver,0.822915017
30530,Multi Policy,0.366404395
30530,Low Mileage,0.558492439
30531,Safe Driver,0.21617026
30531,Multi Policy,0.274893672
30531,Low Mileage,0.01957251
30533,Safe Driver,0.103711241
30533,Multi Policy,0.794001155
30533,Low Mileage,0.743323612
30534,Safe Driver,0.134037727
30534,Multi Policy,0.920268266
30534,Low Mileage,0.811302134
30535,Safe Driver,0.801814795
30535,Multi Policy,0.446228375
30535,Low Mileage,0.02484778
30536,Safe Driver,0.632255672
30536,Multi Policy,0.529678902
30536,Low Mileage,0.070686919
30537,Safe Driver,0.241930121
30537,Multi Policy,0.027833988
30537,Low Mileage,0.949184909
30538,Safe Driver,0.422198954
30538,Multi Policy,0.232034925
30538,Low Mileage,0.24859727
30539,Safe Driver,0.342204479
30539,Multi Policy,0.424851678
30539,Low Mileage,0.536878013
30540,Safe Driver,0.21141137
30540,Multi Policy,0.661560955
30540,Low Mileage,0.636757986
30541,Safe Driver,0.753899246
30541,Multi Policy,0.307913389
30541,Low Mileage,0.73695122
30542,Safe Driver,0.923565058
30542,Multi Policy,0.782726318
30542,Low Mileage,0.669236633
30543,Safe Driver,0.208261425
30543,Multi Policy,0.431987644
30543,Low Mileage,0.953435483
30544,Safe Driver,0.156641354
30544,Multi Policy,0.571247831
30544,Low Mileage,0.781851114
30545,Safe Driver,0.223181555
30545,Multi Policy,0.541629615
30545,Low Mileage,0.814110665
30546,Safe Driver,0.826853836
30546,Multi Policy,0.9217201
30546,Low Mileage,0.069830933
30547,Safe Driver,0.624616924
30547,Multi Policy,0.351847945
30547,Low Mileage,0.280375882
30548,Safe Driver,0.483738791
30548,Multi Policy,0.592924132
30548,Low Mileage,0.48122023
30549,Safe Driver,0.34754391
30549,Multi Policy,0.908026099
30549,Low Mileage,0.551165223
30552,Safe Driver,0.899961915
30552,Multi Policy,0.631295428
30552,Low Mileage,0.959763462
30553,Safe Driver,0.082305943
30553,Multi Policy,0.32926111
30553,Low Mileage,0.758122373
30554,Safe Driver,0.30166657
30554,Multi Policy,0.708485413
30554,Low Mileage,0.047823739
30555,Safe Driver,0.85479772
30555,Multi Policy,0.700950449
30555,Low Mileage,0.578506304
30557,Safe Driver,0.178824103
30557,Multi Policy,0.799985466
30557,Low Mileage,0.584702714
30558,Safe Driver,0.860824451
30558,Multi Policy,0.55469216
30558,Low Mileage,0.792164538
30559,Safe Driver,0.526175375
30559,Multi Policy,0.411843102
30559,Low Mileage,0.177937426
30560,Safe Driver,0.667201543
30560,Multi Policy,0.812377765
30560,Low Mileage,0.312061553
30562,Safe Driver,0.052974166
30562,Multi Policy,0.665271889
30562,Low Mileage,0.93526392
30563,Safe Driver,0.220496758
30563,Multi Policy,0.833528429
30563,Low Mileage,0.414106676
30564,Safe Driver,0.881032213
30564,Multi Policy,0.116748487
30564,Low Mileage,0.281213202
30565,Safe Driver,0.314160754
30565,Multi Policy,0.848499995
30565,Low Mileage,0.916237046
30566,Safe Driver,0.495154208
30566,Multi Policy,0.83893883
30566,Low Mileage,0.988135674
30567,Safe Driver,0.010503125
30567,Multi Policy,0.373924294
30567,Low Mileage,0.5473203
30568,Safe Driver,0.569474119
30568,Multi Policy,0.108761773
30568,Low Mileage,0.47723264
30571,Safe Driver,0.980400936
30571,Multi Policy,0.215418949
30571,Low Mileage,0.819363195
30572,Safe Driver,0.84680242
30572,Multi Policy,0.362444142
30572,Low Mileage,0.288559888
30573,Safe Driver,0.918498576
30573,Multi Policy,0.944063247
30573,Low Mileage,0.042129743
30575,Safe Driver,0.161337042
30575,Multi Policy,0.461540044
30575,Low Mileage,0.376890487
30576,Safe Driver,0.838951866
30576,Multi Policy,0.278595137
30576,Low Mileage,0.383973478
30577,Safe Driver,0.140111806
30577,Multi Policy,0.412282176
30577,Low Mileage,0.594375094
30580,Safe Driver,0.33735025
30580,Multi Policy,0.857768902
30580,Low Mileage,0.488516213
30581,Safe Driver,0.002992682
30581,Multi Policy,0.376560434
30581,Low Mileage,0.989133011
30582,Safe Driver,0.0138606
30582,Multi Policy,0.85548361
30582,Low Mileage,0.035680681
30596,Safe Driver,0.578202892
30596,Multi Policy,0.743045677
30596,Low Mileage,0.434828259
30597,Safe Driver,0.441875723
30597,Multi Policy,0.793337394
30597,Low Mileage,0.392642995
30598,Safe Driver,0.047075845
30598,Multi Policy,0.795877073
30598,Low Mileage,0.155407146
30599,Safe Driver,0.514087523
30599,Multi Policy,0.846731916
30599,Low Mileage,0.964012892
30601,Safe Driver,0.749631005
30601,Multi Policy,0.135190072
30601,Low Mileage,0.66672146
30602,Safe Driver,0.381643473
30602,Multi Policy,0.585496101
30602,Low Mileage,0.406650586
30603,Safe Driver,0.163024869
30603,Multi Policy,0.514409366
30603,Low Mileage,0.671556252
30604,Safe Driver,0.234307763
30604,Multi Policy,0.354538312
30604,Low Mileage,0.449127591
30605,Safe Driver,0.227626364
30605,Multi Policy,0.076856898
30605,Low Mileage,0.456193616
30606,Safe Driver,0.503801456
30606,Multi Policy,0.736894814
30606,Low Mileage,0.128216548
30607,Safe Driver,0.521657388
30607,Multi Policy,0.114280656
30607,Low Mileage,0.135829608
30608,Safe Driver,0.872480122
30608,Multi Policy,0.318546551
30608,Low Mileage,0.616622325
30609,Safe Driver,0.608826784
30609,Multi Policy,0.36757457
30609,Low Mileage,0.188511345
30612,Safe Driver,0.668688533
30612,Multi Policy,0.500950765
30612,Low Mileage,0.530106902
30619,Safe Driver,0.756917027
30619,Multi Policy,0.512950115
30619,Low Mileage,0.976400462
30620,Safe Driver,0.785987606
30620,Multi Policy,0.127633479
30620,Low Mileage,0.408395902
30621,Safe Driver,0.67134686
30621,Multi Policy,0.811237182
30621,Low Mileage,0.919600974
30622,Safe Driver,0.844599725
30622,Multi Policy,0.769777714
30622,Low Mileage,0.054484855
30623,Safe Driver,0.399959918
30623,Multi Policy,0.131787213
30623,Low Mileage,0.125701828
30624,Safe Driver,0.157843136
30624,Multi Policy,0.571419403
30624,Low Mileage,0.319781421
30625,Safe Driver,0.248930322
30625,Multi Policy,0.113990293
30625,Low Mileage,0.94544535
30627,Safe Driver,0.493117052
30627,Multi Policy,0.72744148
30627,Low Mileage,0.653311391
30628,Safe Driver,0.820922314
30628,Multi Policy,0.25090123
30628,Low Mileage,0.20426388
30629,Safe Driver,0.215576987
30629,Multi Policy,0.662284391
30629,Low Mileage,0.899936502
30630,Safe Driver,0.24603921
30630,Multi Policy,0.529494252
30630,Low Mileage,0.250131139
30631,Safe Driver,0.281349559
30631,Multi Policy,0.401434734
30631,Low Mileage,0.067085998
30633,Safe Driver,0.170043168
30633,Multi Policy,0.248671247
30633,Low Mileage,0.856258734
30634,Safe Driver,0.440216882
30634,Multi Policy,0.703128903
30634,Low Mileage,0.891657938
30635,Safe Driver,0.879969164
30635,Multi Policy,0.331434873
30635,Low Mileage,0.666765618
30638,Safe Driver,0.212819146
30638,Multi Policy,0.903280624
30638,Low Mileage,0.118092012
30639,Safe Driver,0.035138583
30639,Multi Policy,0.368024698
30639,Low Mileage,0.360190089
30641,Safe Driver,0.723583751
30641,Multi Policy,0.815971769
30641,Low Mileage,0.190403975
30642,Safe Driver,0.619262428
30642,Multi Policy,0.374642181
30642,Low Mileage,0.778915808
30643,Safe Driver,0.371846848
30643,Multi Policy,0.349875018
30643,Low Mileage,0.988413762
30645,Safe Driver,0.143846582
30645,Multi Policy,0.728134662
30645,Low Mileage,0.368615817
30646,Safe Driver,0.326539408
30646,Multi Policy,0.850527598
30646,Low Mileage,0.215833195
30647,Safe Driver,0.215420416
30647,Multi Policy,0.676990528
30647,Low Mileage,0.321106615
30648,Safe Driver,0.682692879
30648,Multi Policy,0.649658475
30648,Low Mileage,0.178852979
30650,Safe Driver,0.297488533
30650,Multi Policy,0.818080506
30650,Low Mileage,0.913702958
30655,Safe Driver,0.735690669
30655,Multi Policy,0.577157302
30655,Low Mileage,0.584813144
30656,Safe Driver,0.954037315
30656,Multi Policy,0.985940553
30656,Low Mileage,0.551886403
30660,Safe Driver,0.472564493
30660,Multi Policy,0.019774005
30660,Low Mileage,0.690273623
30662,Safe Driver,0.063474874
30662,Multi Policy,0.231020713
30662,Low Mileage,0.357260831
30663,Safe Driver,0.403314239
30663,Multi Policy,0.569147789
30663,Low Mileage,0.067591512
30664,Safe Driver,0.393863506
30664,Multi Policy,0.278487432
30664,Low Mileage,0.954535866
30665,Safe Driver,0.395213437
30665,Multi Policy,0.900995835
30665,Low Mileage,0.124243644
30666,Safe Driver,0.622928975
30666,Multi Policy,0.270981536
30666,Low Mileage,0.314122689
30667,Safe Driver,0.769905683
30667,Multi Policy,0.980099823
30667,Low Mileage,0.294020191
30668,Safe Driver,0.206782354
30668,Multi Policy,0.710414529
30668,Low Mileage,0.495020402
30669,Safe Driver,0.788352469
30669,Multi Policy,0.316006966
30669,Low Mileage,0.114862081
30671,Safe Driver,0.823016428
30671,Multi Policy,0.752841708
30671,Low Mileage,0.161848913
30673,Safe Driver,0.203292378
30673,Multi Policy,0.82165623
30673,Low Mileage,0.140033275
30677,Safe Driver,0.856501826
30677,Multi Policy,0.347512461
30677,Low Mileage,0.708387935
30678,Safe Driver,0.913341702
30678,Multi Policy,0.189306121
30678,Low Mileage,0.039406071
30680,Safe Driver,0.706729742
30680,Multi Policy,0.268064324
30680,Low Mileage,0.153465472
30683,Safe Driver,0.248728523
30683,Multi Policy,0.095736179
30683,Low Mileage,0.338157509
30701,Safe Driver,0.49934668
30701,Multi Policy,0.434655749
30701,Low Mileage,0.953410422
30703,Safe Driver,0.491604802
30703,Multi Policy,0.741401427
30703,Low Mileage,0.61496843
30705,Safe Driver,0.323082602
30705,Multi Policy,0.263062616
30705,Low Mileage,0.25491323
30707,Safe Driver,0.80715043
30707,Multi Policy,0.404425034
30707,Low Mileage,0.052523086
30708,Safe Driver,0.111291417
30708,Multi Policy,0.793242834
30708,Low Mileage,0.16504254
30710,Safe Driver,0.953291262
30710,Multi Policy,0.342610699
30710,Low Mileage,0.815211785
30711,Safe Driver,0.870045994
30711,Multi Policy,0.788961378
30711,Low Mileage,0.659089569
30719,Safe Driver,0.93803139
30719,Multi Policy,0.032442494
30719,Low Mileage,0.628094574
30720,Safe Driver,0.386130254
30720,Multi Policy,0.849533147
30720,Low Mileage,0.966104738
30721,Safe Driver,0.51271194
30721,Multi Policy,0.798324414
30721,Low Mileage,0.462406651
30722,Safe Driver,0.004371668
30722,Multi Policy,0.590697492
30722,Low Mileage,0.405619225
30724,Safe Driver,0.646700057
30724,Multi Policy,0.960302872
30724,Low Mileage,0.791696249
30725,Safe Driver,0.276165335
30725,Multi Policy,0.875180862
30725,Low Mileage,0.120190939
30726,Safe Driver,0.694321316
30726,Multi Policy,0.348426251
30726,Low Mileage,0.805737093
30728,Safe Driver,0.607192973
30728,Multi Policy,0.468659493
30728,Low Mileage,0.988405539
30730,Safe Driver,0.970214274
30730,Multi Policy,0.809380791
30730,Low Mileage,0.193941415
30731,Safe Driver,0.610488159
30731,Multi Policy,0.700307241
30731,Low Mileage,0.366746553
30732,Safe Driver,0.161599847
30732,Multi Policy,0.389835621
30732,Low Mileage,0.201388765
30733,Safe Driver,0.734512106
30733,Multi Policy,0.194721978
30733,Low Mileage,0.715444355
30734,Safe Driver,0.24104239
30734,Multi Policy,0.374064861
30734,Low Mileage,0.09938656
30735,Safe Driver,0.257332683
30735,Multi Policy,0.585145948
30735,Low Mileage,0.550291142
30736,Safe Driver,0.712123315
30736,Multi Policy,0.20787587
30736,Low Mileage,0.533519954
30738,Safe Driver,0.468984133
30738,Multi Policy,0.096160714
30738,Low Mileage,0.757232372
30739,Safe Driver,0.480495095
30739,Multi Policy,0.843547896
30739,Low Mileage,0.418590566
30740,Safe Driver,0.103433139
30740,Multi Policy,0.014921355
30740,Low Mileage,0.948172898
30741,Safe Driver,0.651776292
30741,Multi Policy,0.743485986
30741,Low Mileage,0.111118301
30742,Safe Driver,0.49981849
30742,Multi Policy,0.952918098
30742,Low Mileage,0.153257633
30746,Safe Driver,0.6142372
30746,Multi Policy,0.407007823
30746,Low Mileage,0.535807805
30747,Safe Driver,0.554753459
30747,Multi Policy,0.207332642
30747,Low Mileage,0.345791075
30750,Safe Driver,0.941119683
30750,Multi Policy,0.434966016
30750,Low Mileage,0.834962252
30751,Safe Driver,0.363895299
30751,Multi Policy,0.34118292
30751,Low Mileage,0.301718745
30752,Safe Driver,0.954452818
30752,Multi Policy,0.300270462
30752,Low Mileage,0.532222543
30753,Safe Driver,0.793608659
30753,Multi Policy,0.448527904
30753,Low Mileage,0.925399901
30755,Safe Driver,0.922644212
30755,Multi Policy,0.154983407
30755,Low Mileage,0.875363841
30756,Safe Driver,0.951509347
30756,Multi Policy,0.590347529
30756,Low Mileage,0.182302998
30757,Safe Driver,0.083281175
30757,Multi Policy,0.923977956
30757,Low Mileage,0.141468899
30802,Safe Driver,0.289600266
30802,Multi Policy,0.953846244
30802,Low Mileage,0.251916296
30803,Safe Driver,0.601096288
30803,Multi Policy,0.347834415
30803,Low Mileage,0.472681394
30805,Safe Driver,0.997809646
30805,Multi Policy,0.609382365
30805,Low Mileage,0.174542403
30806,Safe Driver,0.705177507
30806,Multi Policy,0.478982076
30806,Low Mileage,0.010359457
30807,Safe Driver,0.560812202
30807,Multi Policy,0.425617483
30807,Low Mileage,0.926280007
30808,Safe Driver,0.809860485
30808,Multi Policy,0.919211845
30808,Low Mileage,0.974442828
30809,Safe Driver,0.795684994
30809,Multi Policy,0.195186243
30809,Low Mileage,0.410235288
30810,Safe Driver,0.892009413
30810,Multi Policy,0.108849691
30810,Low Mileage,0.105752962
30811,Safe Driver,0.830010504
30811,Multi Policy,0.875133067
30811,Low Mileage,0.067490252
30812,Safe Driver,0.76922183
30812,Multi Policy,0.705397172
30812,Low Mileage,0.563131581
30813,Safe Driver,0.581602243
30813,Multi Policy,0.00774181
30813,Low Mileage,0.554075584
30814,Safe Driver,0.039225491
30814,Multi Policy,0.558346851
30814,Low Mileage,0.835536897
30815,Safe Driver,0.041329123
30815,Multi Policy,0.278567658
30815,Low Mileage,0.016026468
30816,Safe Driver,0.885863095
30816,Multi Policy,0.141580087
30816,Low Mileage,0.019420999
30817,Safe Driver,0.837965441
30817,Multi Policy,0.933296079
30817,Low Mileage,0.17269021
30818,Safe Driver,0.242015828
30818,Multi Policy,0.110849171
30818,Low Mileage,0.153393385
30819,Safe Driver,0.057108616
30819,Multi Policy,0.548662497
30819,Low Mileage,0.219331858
30820,Safe Driver,0.31818183
30820,Multi Policy,0.384109849
30820,Low Mileage,0.529252784
30821,Safe Driver,0.905060759
30821,Multi Policy,0.974373616
30821,Low Mileage,0.838479293
30822,Safe Driver,0.879117385
30822,Multi Policy,0.29717367
30822,Low Mileage,0.160892851
30823,Safe Driver,0.342369135
30823,Multi Policy,0.086607695
30823,Low Mileage,0.898132804
30824,Safe Driver,0.421669476
30824,Multi Policy,0.94459557
30824,Low Mileage,0.257645289
30828,Safe Driver,0.808530485
30828,Multi Policy,0.089249865
30828,Low Mileage,0.0299164
30830,Safe Driver,0.20812487
30830,Multi Policy,0.662437823
30830,Low Mileage,0.0840561
30833,Safe Driver,0.788080758
30833,Multi Policy,0.991922231
30833,Low Mileage,0.06477548
30901,Safe Driver,0.310247699
30901,Multi Policy,0.545176417
30901,Low Mileage,0.267470349
30903,Safe Driver,0.374367787
30903,Multi Policy,0.518468661
30903,Low Mileage,0.838137525
30904,Safe Driver,0.711817294
30904,Multi Policy,0.963297435
30904,Low Mileage,0.686766212
30905,Safe Driver,0.366898166
30905,Multi Policy,0.628456009
30905,Low Mileage,0.129787661
30906,Safe Driver,0.178955131
30906,Multi Policy,0.111585356
30906,Low Mileage,0.302709043
30907,Safe Driver,0.411371805
30907,Multi Policy,0.96017975
30907,Low Mileage,0.607339367
30909,Safe Driver,0.982353913
30909,Multi Policy,0.09852344
30909,Low Mileage,0.679105721
30911,Safe Driver,0.615153198
30911,Multi Policy,0.061976307
30911,Low Mileage,0.967541009
30912,Safe Driver,0.480269644
30912,Multi Policy,0.384015074
30912,Low Mileage,0.222397112
30913,Safe Driver,0.29041856
30913,Multi Policy,0.996736213
30913,Low Mileage,0.614596894
30914,Safe Driver,0.368811882
30914,Multi Policy,0.60212075
30914,Low Mileage,0.327078178
30916,Safe Driver,0.540482455
30916,Multi Policy,0.775280475
30916,Low Mileage,0.364847938
30917,Safe Driver,0.541636956
30917,Multi Policy,0.880344716
30917,Low Mileage,0.694594939
30919,Safe Driver,0.643994818
30919,Multi Policy,0.316301126
30919,Low Mileage,0.158920354
30999,Safe Driver,0.956079309
30999,Multi Policy,0.0584806
30999,Low Mileage,0.258839268
31001,Safe Driver,0.774528292
31001,Multi Policy,0.880820074
31001,Low Mileage,0.157766666
31002,Safe Driver,0.337873329
31002,Multi Policy,0.906677258
31002,Low Mileage,0.499604157
31003,Safe Driver,0.63354314
31003,Multi Policy,0.024806418
31003,Low Mileage,0.948508964
31004,Safe Driver,0.406102108
31004,Multi Policy,0.148802144
31004,Low Mileage,0.55682051
31005,Safe Driver,0.284520626
31005,Multi Policy,0.252036497
31005,Low Mileage,0.512075086
31006,Safe Driver,0.348321468
31006,Multi Policy,0.943264145
31006,Low Mileage,0.125005635
31007,Safe Driver,0.788385924
31007,Multi Policy,0.884701834
31007,Low Mileage,0.847835867
31008,Safe Driver,0.536118052
31008,Multi Policy,0.267472238
31008,Low Mileage,0.936106629
31009,Safe Driver,0.878262615
31009,Multi Policy,0.598368299
31009,Low Mileage,0.973895426
31010,Safe Driver,0.038664148
31010,Multi Policy,0.176286489
31010,Low Mileage,0.037692802
31011,Safe Driver,0.847330028
31011,Multi Policy,0.75170741
31011,Low Mileage,0.098527313
31012,Safe Driver,0.80412954
31012,Multi Policy,0.49964366
31012,Low Mileage,0.246886502
31013,Safe Driver,0.629244245
31013,Multi Policy,0.423211821
31013,Low Mileage,0.944563278
31014,Safe Driver,0.105623724
31014,Multi Policy,0.889018258
31014,Low Mileage,0.094688601
31015,Safe Driver,0.643235133
31015,Multi Policy,0.722070753
31015,Low Mileage,0.209620228
31016,Safe Driver,0.896663121
31016,Multi Policy,0.525426269
31016,Low Mileage,0.929095532
31017,Safe Driver,0.261477077
31017,Multi Policy,0.380674547
31017,Low Mileage,0.126119194
31018,Safe Driver,0.881750656
31018,Multi Policy,0.411504229
31018,Low Mileage,0.237937898
31019,Safe Driver,0.75670534
31019,Multi Policy,0.761646496
31019,Low Mileage,0.611967782
31020,Safe Driver,0.764965092
31020,Multi Policy,0.53969626
31020,Low Mileage,0.401847882
31021,Safe Driver,0.481981219
31021,Multi Policy,0.477600228
31021,Low Mileage,0.118431032
31022,Safe Driver,0.18188307
31022,Multi Policy,0.726055913
31022,Low Mileage,0.936480023
31023,Safe Driver,0.238437388
31023,Multi Policy,0.2325082
31023,Low Mileage,0.468072718
31024,Safe Driver,0.48573037
31024,Multi Policy,0.012650029
31024,Low Mileage,0.077390524
31025,Safe Driver,0.245050901
31025,Multi Policy,0.114416684
31025,Low Mileage,0.367053214
31026,Safe Driver,0.350947522
31026,Multi Policy,0.386410917
31026,Low Mileage,0.896715623
31027,Safe Driver,0.977010178
31027,Multi Policy,0.684288878
31027,Low Mileage,0.890209957
31028,Safe Driver,0.650475481
31028,Multi Policy,0.208587666
31028,Low Mileage,0.436905815
31029,Safe Driver,0.996612837
31029,Multi Policy,0.658695742
31029,Low Mileage,0.605037275
31030,Safe Driver,0.882639443
31030,Multi Policy,0.769501367
31030,Low Mileage,0.90372225
31031,Safe Driver,0.242717871
31031,Multi Policy,0.76589736
31031,Low Mileage,0.687679325
31032,Safe Driver,0.42142498
31032,Multi Policy,0.998850497
31032,Low Mileage,0.322771475
31033,Safe Driver,0.640004029
31033,Multi Policy,0.621872951
31033,Low Mileage,0.899781346
31034,Safe Driver,0.545932079
31034,Multi Policy,0.619888135
31034,Low Mileage,0.551204135
31035,Safe Driver,0.497377414
31035,Multi Policy,0.027909397
31035,Low Mileage,0.183179364
31036,Safe Driver,0.54940502
31036,Multi Policy,0.954526606
31036,Low Mileage,0.90200369
31037,Safe Driver,0.98068928
31037,Multi Policy,0.612538111
31037,Low Mileage,0.820688483
31038,Safe Driver,0.745437221
31038,Multi Policy,0.013089674
31038,Low Mileage,0.125414916
31039,Safe Driver,0.951070505
31039,Multi Policy,0.970759039
31039,Low Mileage,0.23836993
31040,Safe Driver,0.707735109
31040,Multi Policy,0.859276251
31040,Low Mileage,0.032075957
31041,Safe Driver,0.56514104
31041,Multi Policy,0.882357947
31041,Low Mileage,0.476965404
31042,Safe Driver,0.576189526
31042,Multi Policy,0.659518348
31042,Low Mileage,0.713603798
31044,Safe Driver,0.064439741
31044,Multi Policy,0.981788281
31044,Low Mileage,0.164101186
31045,Safe Driver,0.671433592
31045,Multi Policy,0.537854237
31045,Low Mileage,0.765997011
31046,Safe Driver,0.746805894
31046,Multi Policy,0.327249393
31046,Low Mileage,0.952525237
31047,Safe Driver,0.690206895
31047,Multi Policy,0.490057749
31047,Low Mileage,0.064613066
31049,Safe Driver,0.08899422
31049,Multi Policy,0.331829566
31049,Low Mileage,0.307993116
31050,Safe Driver,0.641021534
31050,Multi Policy,0.74481825
31050,Low Mileage,0.708540687
31051,Safe Driver,0.374971579
31051,Multi Policy,0.568899398
31051,Low Mileage,0.895072144
31052,Safe Driver,0.672820184
31052,Multi Policy,0.959994474
31052,Low Mileage,0.46966462
31054,Safe Driver,0.9772774
31054,Multi Policy,0.043224211
31054,Low Mileage,0.322031809
31055,Safe Driver,0.647631024
31055,Multi Policy,0.864639099
31055,Low Mileage,0.741022692
31057,Safe Driver,0.221713246
31057,Multi Policy,0.659300448
31057,Low Mileage,0.927433233
31058,Safe Driver,0.810645113
31058,Multi Policy,0.264251162
31058,Low Mileage,0.970652948
31059,Safe Driver,0.769260268
31059,Multi Policy,0.951394442
31059,Low Mileage,0.106503386
31060,Safe Driver,0.860103221
31060,Multi Policy,0.700217601
31060,Low Mileage,0.408288283
31061,Safe Driver,0.853059242
31061,Multi Policy,0.923491732
31061,Low Mileage,0.88208786
31062,Safe Driver,0.897480732
31062,Multi Policy,0.731936654
31062,Low Mileage,0.976124453
31063,Safe Driver,0.121779587
31063,Multi Policy,0.193006247
31063,Low Mileage,0.39378642
31064,Safe Driver,0.308170977
31064,Multi Policy,0.215363554
31064,Low Mileage,0.216973996
31065,Safe Driver,0.20485535
31065,Multi Policy,0.332784474
31065,Low Mileage,0.148970836
31066,Safe Driver,0.601256396
31066,Multi Policy,0.408198875
31066,Low Mileage,0.609579673
31067,Safe Driver,0.146342758
31067,Multi Policy,0.86412146
31067,Low Mileage,0.431143973
31068,Safe Driver,0.793750877
31068,Multi Policy,0.642841253
31068,Low Mileage,0.728426986
31069,Safe Driver,0.184456315
31069,Multi Policy,0.689842711
31069,Low Mileage,0.797226848
31070,Safe Driver,0.137782865
31070,Multi Policy,0.159144088
31070,Low Mileage,0.305679525
31071,Safe Driver,0.150543034
31071,Multi Policy,0.283714057
31071,Low Mileage,0.912427365
31072,Safe Driver,0.874250825
31072,Multi Policy,0.212467372
31072,Low Mileage,0.881682752
31075,Safe Driver,0.441915523
31075,Multi Policy,0.26636449
31075,Low Mileage,0.694180687
31076,Safe Driver,0.766148108
31076,Multi Policy,0.186447234
31076,Low Mileage,0.443450863
31077,Safe Driver,0.579207907
31077,Multi Policy,0.751349589
31077,Low Mileage,0.534331876
31078,Safe Driver,0.674107404
31078,Multi Policy,0.291244885
31078,Low Mileage,0.344767367
31079,Safe Driver,0.137723982
31079,Multi Policy,0.445577141
31079,Low Mileage,0.126162985
31081,Safe Driver,0.461327189
31081,Multi Policy,0.929562346
31081,Low Mileage,0.225850171
31082,Safe Driver,0.27820121
31082,Multi Policy,0.36683974
31082,Low Mileage,0.4530229
31083,Safe Driver,0.199547568
31083,Multi Policy,0.653070163
31083,Low Mileage,0.360263869
31084,Safe Driver,0.335550477
31084,Multi Policy,0.17809574
31084,Low Mileage,0.113681544
31085,Safe Driver,0.554807263
31085,Multi Policy,0.759020839
31085,Low Mileage,0.516603176
31086,Safe Driver,0.512080484
31086,Multi Policy,0.121989019
31086,Low Mileage,0.393088218
31087,Safe Driver,0.879132873
31087,Multi Policy,0.83166764
31087,Low Mileage,0.667265225
31088,Safe Driver,0.012349062
31088,Multi Policy,0.096511077
31088,Low Mileage,0.327756895
31089,Safe Driver,0.534246842
31089,Multi Policy,0.418628628
31089,Low Mileage,0.037073639
31090,Safe Driver,0.557612967
31090,Multi Policy,0.139528741
31090,Low Mileage,0.266258374
31091,Safe Driver,0.920862055
31091,Multi Policy,0.482892807
31091,Low Mileage,0.67305912
31092,Safe Driver,0.968213365
31092,Multi Policy,0.635352285
31092,Low Mileage,0.106425732
31093,Safe Driver,0.249825332
31093,Multi Policy,0.65227285
31093,Low Mileage,0.094545482
31094,Safe Driver,0.125744518
31094,Multi Policy,0.446859553
31094,Low Mileage,0.344834283
31095,Safe Driver,0.669591411
31095,Multi Policy,0.723089999
31095,Low Mileage,0.255266818
31096,Safe Driver,0.839346569
31096,Multi Policy,0.441973268
31096,Low Mileage,0.060544096
31097,Safe Driver,0.968380178
31097,Multi Policy,0.302606777
31097,Low Mileage,0.922592512
31098,Safe Driver,0.556208166
31098,Multi Policy,0.051962893
31098,Low Mileage,0.840499699
31099,Safe Driver,0.177182105
31099,Multi Policy,0.50001271
31099,Low Mileage,0.829068529
31106,Safe Driver,0.237772767
31106,Multi Policy,0.215526581
31106,Low Mileage,0.033931107
31107,Safe Driver,0.631531236
31107,Multi Policy,0.634132819
31107,Low Mileage,0.178107909
31119,Safe Driver,0.164767196
31119,Multi Policy,0.369266225
31119,Low Mileage,0.46659624
31120,Safe Driver,0.389716088
31120,Multi Policy,0.80355721
31120,Low Mileage,0.016485549
31126,Safe Driver,0.026095834
31126,Multi Policy,0.701422773
31126,Low Mileage,0.611997444
31131,Safe Driver,0.96158119
31131,Multi Policy,0.31769771
31131,Low Mileage,0.98951324
31136,Safe Driver,0.331806651
31136,Multi Policy,0.04396856
31136,Low Mileage,0.480560537
31139,Safe Driver,0.212734667
31139,Multi Policy,0.942789828
31139,Low Mileage,0.960904564
31141,Safe Driver,0.64684739
31141,Multi Policy,0.745920986
31141,Low Mileage,0.05583501
31145,Safe Driver,0.540071953
31145,Multi Policy,0.825816912
31145,Low Mileage,0.081482226
31146,Safe Driver,0.224516418
31146,Multi Policy,0.876843511
31146,Low Mileage,0.901726359
31150,Safe Driver,0.785710672
31150,Multi Policy,0.263243985
31150,Low Mileage,0.486816614
31156,Safe Driver,0.417546177
31156,Multi Policy,0.572027513
31156,Low Mileage,0.955238021
31191,Safe Driver,0.711460797
31191,Multi Policy,0.29842025
31191,Low Mileage,0.053993549
31192,Safe Driver,0.981962207
31192,Multi Policy,0.371422072
31192,Low Mileage,0.150476057
31193,Safe Driver,0.534555182
31193,Multi Policy,0.414223081
31193,Low Mileage,0.107369399
31195,Safe Driver,0.53083
31195,Multi Policy,0.439206682
31195,Low Mileage,0.103840611
31196,Safe Driver,0.875610507
31196,Multi Policy,0.895219728
31196,Low Mileage,0.977495574
31197,Safe Driver,0.111681088
31197,Multi Policy,0.968909097
31197,Low Mileage,0.706170098
31198,Safe Driver,0.961682854
31198,Multi Policy,0.418040512
31198,Low Mileage,0.810254143
31199,Safe Driver,0.114165508
31199,Multi Policy,0.042694587
31199,Low Mileage,0.737250373
31201,Safe Driver,0.334471031
31201,Multi Policy,0.259940047
31201,Low Mileage,0.846939577
31202,Safe Driver,0.413005853
31202,Multi Policy,0.571606632
31202,Low Mileage,0.766555954
31203,Safe Driver,0.160043369
31203,Multi Policy,0.335972473
31203,Low Mileage,0.866505002
31204,Safe Driver,0.781162521
31204,Multi Policy,0.715499042
31204,Low Mileage,0.447795836
31205,Safe Driver,0.907649853
31205,Multi Policy,0.782648006
31205,Low Mileage,0.339478457
31206,Safe Driver,0.798310238
31206,Multi Policy,0.32904634
31206,Low Mileage,0.562420743
31207,Safe Driver,0.38905195
31207,Multi Policy,0.301737633
31207,Low Mileage,0.707473021
31208,Safe Driver,0.06090012
31208,Multi Policy,0.395682658
31208,Low Mileage,0.959819482
31209,Safe Driver,0.582979649
31209,Multi Policy,0.037076399
31209,Low Mileage,0.255216863
31210,Safe Driver,0.372643221
31210,Multi Policy,0.015084228
31210,Low Mileage,0.378487858
31211,Safe Driver,0.491393635
31211,Multi Policy,0.734404818
31211,Low Mileage,0.909728595
31212,Safe Driver,0.823249813
31212,Multi Policy,0.696492489
31212,Low Mileage,0.778108331
31213,Safe Driver,0.432973615
31213,Multi Policy,0.658263289
31213,Low Mileage,0.838644343
31216,Safe Driver,0.633832025
31216,Multi Policy,0.557074053
31216,Low Mileage,0.89497168
31217,Safe Driver,0.896790557
31217,Multi Policy,0.684834536
31217,Low Mileage,0.115160432
31220,Safe Driver,0.231598926
31220,Multi Policy,0.073173722
31220,Low Mileage,0.434381593
31221,Safe Driver,0.276578921
31221,Multi Policy,0.002097853
31221,Low Mileage,0.766951044
31294,Safe Driver,0.301424912
31294,Multi Policy,0.211338969
31294,Low Mileage,0.500721349
31295,Safe Driver,0.716686054
31295,Multi Policy,0.213513172
31295,Low Mileage,0.032897452
31296,Safe Driver,0.274717083
31296,Multi Policy,0.933325759
31296,Low Mileage,0.772088466
31297,Safe Driver,0.220132934
31297,Multi Policy,0.532329744
31297,Low Mileage,0.147692461
31301,Safe Driver,0.819214753
31301,Multi Policy,0.141338259
31301,Low Mileage,0.469218723
31302,Safe Driver,0.290761456
31302,Multi Policy,0.845127671
31302,Low Mileage,0.830241311
31303,Safe Driver,0.811376524
31303,Multi Policy,0.432599313
31303,Low Mileage,0.841017533
31304,Safe Driver,0.861643161
31304,Multi Policy,0.342065039
31304,Low Mileage,0.416809121
31305,Safe Driver,0.489784763
31305,Multi Policy,0.516304816
31305,Low Mileage,0.761448854
31307,Safe Driver,0.989654993
31307,Multi Policy,0.848217514
31307,Low Mileage,0.980827218
31308,Safe Driver,0.096706186
31308,Multi Policy,0.074550761
31308,Low Mileage,0.124202174
31309,Safe Driver,0.289790786
31309,Multi Policy,0.387794621
31309,Low Mileage,0.174622605
31310,Safe Driver,0.042573669
31310,Multi Policy,0.732676083
31310,Low Mileage,0.869118041
31312,Safe Driver,0.204987551
31312,Multi Policy,0.385917073
31312,Low Mileage,0.610842862
31313,Safe Driver,0.808860111
31313,Multi Policy,0.397568738
31313,Low Mileage,0.677240568
31314,Safe Driver,0.434647858
31314,Multi Policy,0.982318906
31314,Low Mileage,0.585740036
31315,Safe Driver,0.059259526
31315,Multi Policy,0.423383044
31315,Low Mileage,0.265635465
31316,Safe Driver,0.742489721
31316,Multi Policy,0.82473896
31316,Low Mileage,0.788123507
31318,Safe Driver,0.047808885
31318,Multi Policy,0.727260075
31318,Low Mileage,0.111412609
31319,Safe Driver,0.825279481
31319,Multi Policy,0.981411862
31319,Low Mileage,0.700371837
31320,Safe Driver,0.397686144
31320,Multi Policy,0.070917015
31320,Low Mileage,0.243440388
31321,Safe Driver,0.781629882
31321,Multi Policy,0.656378139
31321,Low Mileage,0.41922258
31322,Safe Driver,0.183127646
31322,Multi Policy,0.967923477
31322,Low Mileage,0.460847461
31323,Safe Driver,0.340913334
31323,Multi Policy,0.282681443
31323,Low Mileage,0.938828846
31324,Safe Driver,0.721008613
31324,Multi Policy,0.518592465
31324,Low Mileage,0.176091224
31326,Safe Driver,0.247326571
31326,Multi Policy,0.880632409
31326,Low Mileage,0.068094226
31327,Safe Driver,0.004151238
31327,Multi Policy,0.291275233
31327,Low Mileage,0.476700542
31328,Safe Driver,0.214247006
31328,Multi Policy,0.07848617
31328,Low Mileage,0.371353345
31329,Safe Driver,0.474500102
31329,Multi Policy,0.201239361
31329,Low Mileage,0.844162979
31331,Safe Driver,0.780711539
31331,Multi Policy,0.869054777
31331,Low Mileage,0.036760722
31333,Safe Driver,0.473074298
31333,Multi Policy,0.764557957
31333,Low Mileage,0.504131829
31401,Safe Driver,0.240314997
31401,Multi Policy,0.100476539
31401,Low Mileage,0.944676052
31402,Safe Driver,0.680053999
31402,Multi Policy,0.661607855
31402,Low Mileage,0.496380076
31403,Safe Driver,0.063960786
31403,Multi Policy,0.348494245
31403,Low Mileage,0.815383663
31404,Safe Driver,0.500037525
31404,Multi Policy,0.937997308
31404,Low Mileage,0.377240501
31405,Safe Driver,0.752097167
31405,Multi Policy,0.756359432
31405,Low Mileage,0.28933356
31406,Safe Driver,0.221885436
31406,Multi Policy,0.31502033
31406,Low Mileage,0.490632549
31407,Safe Driver,0.671887373
31407,Multi Policy,0.949331472
31407,Low Mileage,0.240162995
31408,Safe Driver,0.658086504
31408,Multi Policy,0.696612904
31408,Low Mileage,0.290242503
31409,Safe Driver,0.411940322
31409,Multi Policy,0.938773551
31409,Low Mileage,0.935639381
31410,Safe Driver,0.348223372
31410,Multi Policy,0.690021527
31410,Low Mileage,0.370422835
31411,Safe Driver,0.206347012
31411,Multi Policy,0.97242952
31411,Low Mileage,0.15066492
31412,Safe Driver,0.776867527
31412,Multi Policy,0.76201182
31412,Low Mileage,0.989926328
31414,Safe Driver,0.087484726
31414,Multi Policy,0.731966865
31414,Low Mileage,0.58681098
31415,Safe Driver,0.393127729
31415,Multi Policy,0.043338496
31415,Low Mileage,0.097045866
31416,Safe Driver,0.092476851
31416,Multi Policy,0.476211027
31416,Low Mileage,0.089280354
31418,Safe Driver,0.836825362
31418,Multi Policy,0.748829518
31418,Low Mileage,0.971802341
31419,Safe Driver,0.22857421
31419,Multi Policy,0.415739063
31419,Low Mileage,0.629212107
31420,Safe Driver,0.509443797
31420,Multi Policy,0.928258848
31420,Low Mileage,0.921946829
31421,Safe Driver,0.327024456
31421,Multi Policy,0.75999652
31421,Low Mileage,0.713714578
31501,Safe Driver,0.255727629
31501,Multi Policy,0.244697344
31501,Low Mileage,0.166471392
31502,Safe Driver,0.951828064
31502,Multi Policy,0.897247892
31502,Low Mileage,0.075875539
31503,Safe Driver,0.831376424
31503,Multi Policy,0.678324576
31503,Low Mileage,0.942579943
31510,Safe Driver,0.259291203
31510,Multi Policy,0.801741685
31510,Low Mileage,0.024697525
31512,Safe Driver,0.85651807
31512,Multi Policy,0.913493215
31512,Low Mileage,0.006081991
31513,Safe Driver,0.599719428
31513,Multi Policy,0.016277367
31513,Low Mileage,0.141952571
31515,Safe Driver,0.182494898
31515,Multi Policy,0.124968488
31515,Low Mileage,0.555360619
31516,Safe Driver,0.707113333
31516,Multi Policy,0.817570287
31516,Low Mileage,0.730908643
31518,Safe Driver,0.625501184
31518,Multi Policy,0.066201428
31518,Low Mileage,0.886349802
31519,Safe Driver,0.255102315
31519,Multi Policy,0.398911993
31519,Low Mileage,0.246871645
31520,Safe Driver,0.926885909
31520,Multi Policy,0.31478304
31520,Low Mileage,0.851551519
31521,Safe Driver,0.846982872
31521,Multi Policy,0.488972405
31521,Low Mileage,0.437822097
31522,Safe Driver,0.549019306
31522,Multi Policy,0.794008438
31522,Low Mileage,0.588195952
31523,Safe Driver,0.390967128
31523,Multi Policy,0.90422116
31523,Low Mileage,0.222733727
31524,Safe Driver,0.136206917
31524,Multi Policy,0.547133461
31524,Low Mileage,0.740656731
31525,Safe Driver,0.163492839
31525,Multi Policy,0.37396399
31525,Low Mileage,0.70414246
31527,Safe Driver,0.060527119
31527,Multi Policy,0.346337635
31527,Low Mileage,0.072822065
31532,Safe Driver,0.166548629
31532,Multi Policy,0.91598783
31532,Low Mileage,0.95265908
31533,Safe Driver,0.852702499
31533,Multi Policy,0.525844457
31533,Low Mileage,0.230486663
31534,Safe Driver,0.824352588
31534,Multi Policy,0.092814868
31534,Low Mileage,0.643952199
31535,Safe Driver,0.988656567
31535,Multi Policy,0.513288692
31535,Low Mileage,0.248816496
31537,Safe Driver,0.044720463
31537,Multi Policy,0.315321941
31537,Low Mileage,0.306332869
31539,Safe Driver,0.042584247
31539,Multi Policy,0.363638482
31539,Low Mileage,0.337990646
31542,Safe Driver,0.365369977
31542,Multi Policy,0.744109885
31542,Low Mileage,0.460880542
31543,Safe Driver,0.44843645
31543,Multi Policy,0.902437586
31543,Low Mileage,0.48749276
31544,Safe Driver,0.984795638
31544,Multi Policy,0.917981511
31544,Low Mileage,0.836001315
31545,Safe Driver,0.330213304
31545,Multi Policy,0.007666137
31545,Low Mileage,0.026922189
31546,Safe Driver,0.945241498
31546,Multi Policy,0.57859654
31546,Low Mileage,0.940287404
31547,Safe Driver,0.125357707
31547,Multi Policy,0.305815312
31547,Low Mileage,0.161071529
31548,Safe Driver,0.624525618
31548,Multi Policy,0.598338764
31548,Low Mileage,0.836653014
31549,Safe Driver,0.96542384
31549,Multi Policy,0.177302966
31549,Low Mileage,0.556066965
31550,Safe Driver,0.9456336
31550,Multi Policy,0.372334453
31550,Low Mileage,0.298304741
31551,Safe Driver,0.81189776
31551,Multi Policy,0.969053473
31551,Low Mileage,0.269563808
31552,Safe Driver,0.402916084
31552,Multi Policy,0.978323758
31552,Low Mileage,0.22562272
31553,Safe Driver,0.677669671
31553,Multi Policy,0.11624751
31553,Low Mileage,0.125998248
31554,Safe Driver,0.188831914
31554,Multi Policy,0.19867372
31554,Low Mileage,0.015923865
31555,Safe Driver,0.085642903
31555,Multi Policy,0.081009798
31555,Low Mileage,0.814697909
31556,Safe Driver,0.618348628
31556,Multi Policy,0.211528973
31556,Low Mileage,0.933810868
31557,Safe Driver,0.479468255
31557,Multi Policy,0.867175403
31557,Low Mileage,0.643077064
31558,Safe Driver,0.920003762
31558,Multi Policy,0.092810521
31558,Low Mileage,0.473289861
31560,Safe Driver,0.263369648
31560,Multi Policy,0.2178145
31560,Low Mileage,0.849342852
31561,Safe Driver,0.53513308
31561,Multi Policy,0.115545633
31561,Low Mileage,0.265594971
31562,Safe Driver,0.183952662
31562,Multi Policy,0.465100668
31562,Low Mileage,0.062029216
31563,Safe Driver,0.978676424
31563,Multi Policy,0.316113183
31563,Low Mileage,0.60454495
31564,Safe Driver,0.942540225
31564,Multi Policy,0.956576311
31564,Low Mileage,0.248104139
31565,Safe Driver,0.653616193
31565,Multi Policy,0.051280908
31565,Low Mileage,0.206553534
31566,Safe Driver,0.502815032
31566,Multi Policy,0.790911596
31566,Low Mileage,0.962071143
31567,Safe Driver,0.026146628
31567,Multi Policy,0.002431722
31567,Low Mileage,0.813719027
31568,Safe Driver,0.762877435
31568,Multi Policy,0.32638182
31568,Low Mileage,0.466315305
31569,Safe Driver,0.275080951
31569,Multi Policy,0.912808426
31569,Low Mileage,0.418817021
31598,Safe Driver,0.960247253
31598,Multi Policy,0.808995842
31598,Low Mileage,0.48297202
31599,Safe Driver,0.4382582
31599,Multi Policy,0.453347114
31599,Low Mileage,0.720797224
31601,Safe Driver,0.270594511
31601,Multi Policy,0.26311826
31601,Low Mileage,0.711703486
31602,Safe Driver,0.711405209
31602,Multi Policy,0.710300173
31602,Low Mileage,0.244625471
31603,Safe Driver,0.767201361
31603,Multi Policy,0.079515828
31603,Low Mileage,0.879897029
31604,Safe Driver,0.218605839
31604,Multi Policy,0.075821317
31604,Low Mileage,0.359417704
31605,Safe Driver,0.827507794
31605,Multi Policy,0.213097551
31605,Low Mileage,0.27661236
31606,Safe Driver,0.538800252
31606,Multi Policy,0.158421887
31606,Low Mileage,0.732744354
31620,Safe Driver,0.026848507
31620,Multi Policy,0.475038049
31620,Low Mileage,0.219467591
31622,Safe Driver,0.569696315
31622,Multi Policy,0.542260124
31622,Low Mileage,0.611197073
31623,Safe Driver,0.169785326
31623,Multi Policy,0.887489845
31623,Low Mileage,0.109686678
31624,Safe Driver,0.196370397
31624,Multi Policy,0.536250867
31624,Low Mileage,0.455946744
31625,Safe Driver,0.866028973
31625,Multi Policy,0.953100391
31625,Low Mileage,0.064282226
31626,Safe Driver,0.66987709
31626,Multi Policy,0.456217846
31626,Low Mileage,0.842761712
31627,Safe Driver,0.1870657
31627,Multi Policy,0.301517769
31627,Low Mileage,0.77194045
31629,Safe Driver,0.568325559
31629,Multi Policy,0.522741629
31629,Low Mileage,0.229911344
31630,Safe Driver,0.384707582
31630,Multi Policy,0.504758688
31630,Low Mileage,0.739101543
31631,Safe Driver,0.481922955
31631,Multi Policy,0.894341399
31631,Low Mileage,0.72524967
31632,Safe Driver,0.119976735
31632,Multi Policy,0.289060408
31632,Low Mileage,0.532029701
31634,Safe Driver,0.788414593
31634,Multi Policy,0.467278172
31634,Low Mileage,0.338284245
31635,Safe Driver,0.771665044
31635,Multi Policy,0.144995081
31635,Low Mileage,0.092945129
31636,Safe Driver,0.074858576
31636,Multi Policy,0.711755895
31636,Low Mileage,0.920836236
31637,Safe Driver,0.793270886
31637,Multi Policy,0.850853875
31637,Low Mileage,0.997397544
31638,Safe Driver,0.76650109
31638,Multi Policy,0.287938662
31638,Low Mileage,0.372784213
31639,Safe Driver,0.468143152
31639,Multi Policy,0.552852805
31639,Low Mileage,0.67162718
31641,Safe Driver,0.319114819
31641,Multi Policy,0.363345329
31641,Low Mileage,0.701186741
31642,Safe Driver,0.4453808
31642,Multi Policy,0.661806131
31642,Low Mileage,0.541061232
31643,Safe Driver,0.163701327
31643,Multi Policy,0.390878228
31643,Low Mileage,0.07324266
31645,Safe Driver,0.252522161
31645,Multi Policy,0.629709877
31645,Low Mileage,0.786013041
31647,Safe Driver,0.554142706
31647,Multi Policy,0.543637734
31647,Low Mileage,0.46559447
31648,Safe Driver,0.848167237
31648,Multi Policy,0.522787931
31648,Low Mileage,0.820299753
31649,Safe Driver,0.328341124
31649,Multi Policy,0.628250981
31649,Low Mileage,0.624344719
31650,Safe Driver,0.573335904
31650,Multi Policy,0.826806164
31650,Low Mileage,0.853444222
31698,Safe Driver,0.083392618
31698,Multi Policy,0.567789227
31698,Low Mileage,0.287768673
31699,Safe Driver,0.862939138
31699,Multi Policy,0.704704824
31699,Low Mileage,0.686417916
31701,Safe Driver,0.164686138
31701,Multi Policy,0.967506138
31701,Low Mileage,0.059362848
31702,Safe Driver,0.9881841
31702,Multi Policy,0.223551138
31702,Low Mileage,0.999940746
31703,Safe Driver,0.906929939
31703,Multi Policy,0.126115145
31703,Low Mileage,0.493250735
31704,Safe Driver,0.264762917
31704,Multi Policy,0.793694605
31704,Low Mileage,0.695586684
31705,Safe Driver,0.991900849
31705,Multi Policy,0.894788643
31705,Low Mileage,0.247897557
31706,Safe Driver,0.624989579
31706,Multi Policy,0.694553554
31706,Low Mileage,0.360934729
31707,Safe Driver,0.794152315
31707,Multi Policy,0.985892359
31707,Low Mileage,0.534895109
31708,Safe Driver,0.064056785
31708,Multi Policy,0.859457273
31708,Low Mileage,0.879549447
31709,Safe Driver,0.227621018
31709,Multi Policy,0.133138818
31709,Low Mileage,0.102308653
31710,Safe Driver,0.04839498
31710,Multi Policy,0.45454876
31710,Low Mileage,0.226545448
31711,Safe Driver,0.425103924
31711,Multi Policy,0.851181938
31711,Low Mileage,0.064770084
31712,Safe Driver,0.447084397
31712,Multi Policy,0.042422913
31712,Low Mileage,0.536834116
31714,Safe Driver,0.605006456
31714,Multi Policy,0.156058341
31714,Low Mileage,0.289083743
31716,Safe Driver,0.9920806
31716,Multi Policy,0.820684077
31716,Low Mileage,0.507209525
31719,Safe Driver,0.591919633
31719,Multi Policy,0.353035107
31719,Low Mileage,0.758668444
31720,Safe Driver,0.433519073
31720,Multi Policy,0.253860116
31720,Low Mileage,0.553359714
31721,Safe Driver,0.176375728
31721,Multi Policy,0.692221725
31721,Low Mileage,0.753159259
31722,Safe Driver,0.439898019
31722,Multi Policy,0.962773488
31722,Low Mileage,0.4196209
31727,Safe Driver,0.526479193
31727,Multi Policy,0.375311087
31727,Low Mileage,0.476898973
31730,Safe Driver,0.238172443
31730,Multi Policy,0.472480889
31730,Low Mileage,0.057933312
31733,Safe Driver,0.986306169
31733,Multi Policy,0.242950637
31733,Low Mileage,0.069356723
31735,Safe Driver,0.815061695
31735,Multi Policy,0.45362758
31735,Low Mileage,0.124249474
31738,Safe Driver,0.65459386
31738,Multi Policy,0.349027411
31738,Low Mileage,0.769132703
31739,Safe Driver,0.398743896
31739,Multi Policy,0.892829256
31739,Low Mileage,0.976865501
31743,Safe Driver,0.093742287
31743,Multi Policy,0.416356213
31743,Low Mileage,0.172824562
31744,Safe Driver,0.596284929
31744,Multi Policy,0.680173595
31744,Low Mileage,0.340247598
31747,Safe Driver,0.536574402
31747,Multi Policy,0.681444512
31747,Low Mileage,0.110531499
31749,Safe Driver,0.69123763
31749,Multi Policy,0.989059567
31749,Low Mileage,0.762643424
31750,Safe Driver,0.387436619
31750,Multi Policy,0.009853058
31750,Low Mileage,0.860589503
31753,Safe Driver,0.330872876
31753,Multi Policy,0.360034525
31753,Low Mileage,0.081160548
31756,Safe Driver,0.305711188
31756,Multi Policy,0.285596537
31756,Low Mileage,0.804882724
31757,Safe Driver,0.466736149
31757,Multi Policy,0.655364959
31757,Low Mileage,0.654558899
31758,Safe Driver,0.702212548
31758,Multi Policy,0.090739398
31758,Low Mileage,0.766544663
31760,Safe Driver,0.280388906
31760,Multi Policy,0.088703516
31760,Low Mileage,0.20565743
31763,Safe Driver,0.049780118
31763,Multi Policy,0.397191347
31763,Low Mileage,0.885952379
31764,Safe Driver,0.27196902
31764,Multi Policy,0.300947987
31764,Low Mileage,0.565457918
31765,Safe Driver,0.542970824
31765,Multi Policy,0.905643458
31765,Low Mileage,0.04927232
31768,Safe Driver,0.307739712
31768,Multi Policy,0.416262723
31768,Low Mileage,0.78807645
31769,Safe Driver,0.78775702
31769,Multi Policy,0.91545037
31769,Low Mileage,0.956856227
31771,Safe Driver,0.844478169
31771,Multi Policy,0.071220916
31771,Low Mileage,0.288735626
31772,Safe Driver,0.8806293
31772,Multi Policy,0.7839533
31772,Low Mileage,0.207081189
31773,Safe Driver,0.986904615
31773,Multi Policy,0.78119705
31773,Low Mileage,0.712007255
31774,Safe Driver,0.26684688
31774,Multi Policy,0.699997957
31774,Low Mileage,0.819832158
31775,Safe Driver,0.858409169
31775,Multi Policy,0.252653728
31775,Low Mileage,0.741779212
31776,Safe Driver,0.997831713
31776,Multi Policy,0.618623917
31776,Low Mileage,0.071404649
31778,Safe Driver,0.967611493
31778,Multi Policy,0.990398149
31778,Low Mileage,0.444188925
31779,Safe Driver,0.479546759
31779,Multi Policy,0.292339357
31779,Low Mileage,0.489468871
31780,Safe Driver,0.308198172
31780,Multi Policy,0.609513136
31780,Low Mileage,0.643906708
31781,Safe Driver,0.270414706
31781,Multi Policy,0.020703103
31781,Low Mileage,0.933068843
31782,Safe Driver,0.923975157
31782,Multi Policy,0.366371368
31782,Low Mileage,0.788518585
31783,Safe Driver,0.945154617
31783,Multi Policy,0.317176772
31783,Low Mileage,0.08800433
31784,Safe Driver,0.714726629
31784,Multi Policy,0.079466568
31784,Low Mileage,0.940961913
31787,Safe Driver,0.914427949
31787,Multi Policy,0.116850009
31787,Low Mileage,0.90695082
31788,Safe Driver,0.637838028
31788,Multi Policy,0.900714307
31788,Low Mileage,0.479221496
31789,Safe Driver,0.301685857
31789,Multi Policy,0.194238555
31789,Low Mileage,0.161662015
31790,Safe Driver,0.803717421
31790,Multi Policy,0.549016089
31790,Low Mileage,0.86215249
31791,Safe Driver,0.643458927
31791,Multi Policy,0.36290174
31791,Low Mileage,0.839913777
31792,Safe Driver,0.989394675
31792,Multi Policy,0.435590793
31792,Low Mileage,0.511822985
31793,Safe Driver,0.216927451
31793,Multi Policy,0.500223509
31793,Low Mileage,0.068254839
31794,Safe Driver,0.976612635
31794,Multi Policy,0.969472808
31794,Low Mileage,0.907602449
31795,Safe Driver,0.738092927
31795,Multi Policy,0.48762
31795,Low Mileage,0.883992918
31796,Safe Driver,0.052613192
31796,Multi Policy,0.324528288
31796,Low Mileage,0.315736286
31798,Safe Driver,0.217031326
31798,Multi Policy,0.646696338
31798,Low Mileage,0.440316543
31799,Safe Driver,0.186158797
31799,Multi Policy,0.948341291
31799,Low Mileage,0.097907959
31801,Safe Driver,0.767715694
31801,Multi Policy,0.170211676
31801,Low Mileage,0.678144439
31803,Safe Driver,0.107980032
31803,Multi Policy,0.631745355
31803,Low Mileage,0.708821011
31804,Safe Driver,0.937084825
31804,Multi Policy,0.469295722
31804,Low Mileage,0.624358556
31805,Safe Driver,0.727080967
31805,Multi Policy,0.049302155
31805,Low Mileage,0.553105327
31806,Safe Driver,0.500055166
31806,Multi Policy,0.840401219
31806,Low Mileage,0.675137215
31807,Safe Driver,0.784935986
31807,Multi Policy,0.118334564
31807,Low Mileage,0.848016896
31808,Safe Driver,0.752485193
31808,Multi Policy,0.204501966
31808,Low Mileage,0.750074851
31810,Safe Driver,0.446039907
31810,Multi Policy,0.759129662
31810,Low Mileage,0.677932788
31811,Safe Driver,0.959657913
31811,Multi Policy,0.650312549
31811,Low Mileage,0.567200279
31812,Safe Driver,0.418667166
31812,Multi Policy,0.316857309
31812,Low Mileage,0.807590906
31814,Safe Driver,0.303514242
31814,Multi Policy,0.621191827
31814,Low Mileage,0.317748804
31815,Safe Driver,0.86633655
31815,Multi Policy,0.426378926
31815,Low Mileage,0.190983794
31816,Safe Driver,0.376104832
31816,Multi Policy,0.262654761
31816,Low Mileage,0.358823294
31820,Safe Driver,0.271412526
31820,Multi Policy,0.963590787
31820,Low Mileage,0.734124366
31821,Safe Driver,0.850775695
31821,Multi Policy,0.603743387
31821,Low Mileage,0.903888573
31822,Safe Driver,0.677804738
31822,Multi Policy,0.980841452
31822,Low Mileage,0.59938369
31823,Safe Driver,0.099376415
31823,Multi Policy,0.017976704
31823,Low Mileage,0.27732397
31824,Safe Driver,0.817337971
31824,Multi Policy,0.270967342
31824,Low Mileage,0.577379891
31825,Safe Driver,0.496498736
31825,Multi Policy,0.166902387
31825,Low Mileage,0.312168643
31826,Safe Driver,0.978119474
31826,Multi Policy,0.274049334
31826,Low Mileage,0.516408003
31827,Safe Driver,0.584503798
31827,Multi Policy,0.317000124
31827,Low Mileage,0.084525194
31829,Safe Driver,0.784920957
31829,Multi Policy,0.583610539
31829,Low Mileage,0.708051493
31830,Safe Driver,0.479181031
31830,Multi Policy,0.67118864
31830,Low Mileage,0.070588919
31831,Safe Driver,0.503271203
31831,Multi Policy,0.067548603
31831,Low Mileage,0.370557366
31832,Safe Driver,0.077512875
31832,Multi Policy,0.461800654
31832,Low Mileage,0.886402326
31833,Safe Driver,0.233834895
31833,Multi Policy,0.937333379
31833,Low Mileage,0.552831711
31836,Safe Driver,0.071122364
31836,Multi Policy,0.252264228
31836,Low Mileage,0.167071571
31901,Safe Driver,0.605848878
31901,Multi Policy,0.940329431
31901,Low Mileage,0.064458649
31902,Safe Driver,0.191139341
31902,Multi Policy,0.182994848
31902,Low Mileage,0.871721429
31903,Safe Driver,0.782786063
31903,Multi Policy,0.4038045
31903,Low Mileage,0.502934086
31904,Safe Driver,0.60001935
31904,Multi Policy,0.903572436
31904,Low Mileage,0.160525155
31905,Safe Driver,0.16728206
31905,Multi Policy,0.29176902
31905,Low Mileage,0.803938782
31906,Safe Driver,0.28285669
31906,Multi Policy,0.008536451
31906,Low Mileage,0.102460938
31907,Safe Driver,0.411740853
31907,Multi Policy,0.823218172
31907,Low Mileage,0.583078256
31908,Safe Driver,0.832487554
31908,Multi Policy,0.349799469
31908,Low Mileage,0.701049138
31909,Safe Driver,0.725104622
31909,Multi Policy,0.756519757
31909,Low Mileage,0.045954015
31914,Safe Driver,0.813258771
31914,Multi Policy,0.815631519
31914,Low Mileage,0.59454471
31917,Safe Driver,0.307308123
31917,Multi Policy,0.875904507
31917,Low Mileage,0.073571309
31993,Safe Driver,0.215079661
31993,Multi Policy,0.47602971
31993,Low Mileage,0.788107826
31995,Safe Driver,0.126701902
31995,Multi Policy,0.991476922
31995,Low Mileage,0.413663772
31997,Safe Driver,0.900141154
31997,Multi Policy,0.881877934
31997,Low Mileage,0.715849564
31998,Safe Driver,0.538439377
31998,Multi Policy,0.871305438
31998,Low Mileage,0.158653931
31999,Safe Driver,0.472118075
31999,Multi Policy,0.414719335
31999,Low Mileage,0.796411092
39813,Safe Driver,0.711249567
39813,Multi Policy,0.689707848
39813,Low Mileage,0.351851592
39815,Safe Driver,0.59570301
39815,Multi Policy,0.495104307
39815,Low Mileage,0.307392611
39817,Safe Driver,0.359878108
39817,Multi Policy,0.304389058
39817,Low Mileage,0.253053407
39818,Safe Driver,0.04863033
39818,Multi Policy,0.46878588
39818,Low Mileage,0.294326335
39819,Safe Driver,0.228957056
39819,Multi Policy,0.471122437
39819,Low Mileage,0.100714524
39823,Safe Driver,0.742159562
39823,Multi Policy,0.211694344
39823,Low Mileage,0.53208179
39824,Safe Driver,0.293496066
39824,Multi Policy,0.545420559
39824,Low Mileage,0.012826099
39825,Safe Driver,0.607369731
39825,Multi Policy,0.215019605
39825,Low Mileage,0.528720676
39826,Safe Driver,0.101494366
39826,Multi Policy,0.177262967
39826,Low Mileage,0.886276157
39827,Safe Driver,0.952065378
39827,Multi Policy,0.723861818
39827,Low Mileage,0.281651672
39828,Safe Driver,0.231047753
39828,Multi Policy,0.337041077
39828,Low Mileage,0.034299522
39829,Safe Driver,0.562768416
39829,Multi Policy,0.593389678
39829,Low Mileage,0.233571014
39832,Safe Driver,0.980383512
39832,Multi Policy,0.150750419
39832,Low Mileage,0.045682599
39834,Safe Driver,0.308405817
39834,Multi Policy,0.513249978
39834,Low Mileage,0.121212761
39836,Safe Driver,0.711536186
39836,Multi Policy,0.243295825
39836,Low Mileage,0.927166215
39837,Safe Driver,0.141748127
39837,Multi Policy,0.882796418
39837,Low Mileage,0.667847991
39840,Safe Driver,0.954260135
39840,Multi Policy,0.467855668
39840,Low Mileage,0.4118453
39841,Safe Driver,0.098773482
39841,Multi Policy,0.795629523
39841,Low Mileage,0.127457289
39842,Safe Driver,0.178128171
39842,Multi Policy,0.953231203
39842,Low Mileage,0.407269119
39845,Safe Driver,0.497841885
39845,Multi Policy,0.794149735
39845,Low Mileage,0.167104091
39846,Safe Driver,0.843361003
39846,Multi Policy,0.012733215
39846,Low Mileage,0.265455633
39851,Safe Driver,0.605931791
39851,Multi Policy,0.783315668
39851,Low Mileage,0.62569241
39852,Safe Driver,0.370101748
39852,Multi Policy,0.789315243
39852,Low Mileage,0.031837453
39854,Safe Driver,0.452156789
39854,Multi Policy,0.192102716
39854,Low Mileage,0.433198093
39859,Safe Driver,0.434268388
39859,Multi Policy,0.694570305
39859,Low Mileage,0.907657307
39861,Safe Driver,0.447083059
39861,Multi Policy,0.362062709
39861,Low Mileage,0.423826216
39862,Safe Driver,0.726053405
39862,Multi Policy,0.018680506
39862,Low Mileage,0.601780248
39866,Safe Driver,0.737894917
39866,Multi Policy,0.92660053
39866,Low Mileage,0.673654285
39867,Safe Driver,0.213405229
39867,Multi Policy,0.604153637
39867,Low Mileage,0.367019686
39870,Safe Driver,0.80035288
39870,Multi Policy,0.818846882
39870,Low Mileage,0.432686534
39877,Safe Driver,0.26114998
39877,Multi Policy,0.186527925
39877,Low Mileage,0.062918506
39885,Safe Driver,0.164346486
39885,Multi Policy,0.260138968
39885,Low Mileage,0.995301839
39886,Safe Driver,0.291617722
39886,Multi Policy,0.403991322
39886,Low Mileage,0.711656755
39897,Safe Driver,0.000591
39897,Multi Policy,0.546961089
39897,Low Mileage,0.262288368
39901,Safe Driver,0.681543997
39901,Multi Policy,0.889021412
39901,Low Mileage,0.69512785
