ZipCode,City,Population
30002,Avondale Estates,507
30003,Norcross,776
30004,Alpharetta,588
30005,Alpharetta,2365
30006,Marietta,1029
30007,Marietta,1013
30008,Marietta,796
30009,Alpharetta,1324
30010,Norcross,1559
30011,Auburn,1497
30012,Conyers,584
30013,Conyers,2415
30014,Covington,1562
30015,Covington,697
30016,Covington,1574
30017,Grayson,2449
30018,Jersey,1288
30019,Dacula,857
30021,Clarkston,1217
30022,Alpharetta,2155
30023,Alpharetta,1052
30024,Suwanee,637
30025,Social Circle,829
30026,North Metro,576
30028,Cumming,1307
30029,North Metro,1201
30030,Decatur,1865
30031,Decatur,692
30032,Decatur,1529
30033,Decatur,1248
30034,Decatur,1221
30035,Decatur,1546
30036,Decatur,887
30037,Decatur,2419
30038,Lithonia,1006
30039,Snellville,1777
30040,Cumming,1411
30041,Cumming,1016
30042,Lawrenceville,1357
30043,Lawrenceville,2012
30044,Lawrenceville,2416
30045,Lawrenceville,2031
30046,Lawrenceville,1209
30047,Lilburn,2319
30048,Lilburn,885
30049,Lawrenceville,811
30052,Loganville,1801
30054,Oxford,2225
30055,Mansfield,868
30056,Newborn,1608
30058,Lithonia,853
30060,Marietta,2377
30061,Marietta,1086
30062,Marietta,1523
30063,Marietta,1176
30064,Marietta,1885
30065,Marietta,865
30066,Marietta,727
30067,Marietta,623
30068,Marietta,2228
30069,Marietta,1265
30070,Porterdale,1053
30071,Norcross,1942
30072,Pine Lake,618
30073,Decatur,2008
30074,Redan,984
30075,Roswell,536
30076,Roswell,1955
30077,Roswell,1993
30078,Snellville,1802
30079,Scottdale,565
30080,Smyrna,1471
30081,Smyrna,530
30082,Smyrna,515
30083,Stone Mountain,2401
30084,Tucker,2151
30085,Tucker,1634
30086,Stone Mountain,1627
30087,Stone Mountain,1668
30088,Stone Mountain,2433
30090,Marietta,1725
30091,Norcross,1227
30092,Norcross,1066
30093,Norcross,643
30094,Conyers,698
30095,Duluth,2081
30096,Duluth,1400
30097,Duluth,1510
30098,Duluth,2455
30099,Duluth,737
30101,Acworth,621
30102,Acworth,1496
30103,Adairsville,1563
30104,Aragon,1484
30105,Armuchee,1081
30106,Austell,1586
30107,Ball Ground,2302
30108,Bowdon,1172
30109,Bowdon Junction,2144
30110,Bremen,1810
30111,Clarkdale,1173
30112,Carrollton,1547
30113,Buchanan,534
30114,Canton,1347
30115,Canton,2306
30116,Carrollton,1076
30117,Carrollton,1130
30118,Carrollton,1003
30119,Carrollton,2475
30120,Cartersville,1183
30121,Cartersville,1350
30122,Lithia Springs,626
30123,Cassville,680
30124,Cave Spring,904
30125,Cedartown,1979
30126,Mableton,1811
30127,Powder Springs,2394
30129,Coosa,538
30132,Dallas,1818
30133,Douglasville,2130
30134,Douglasville,2090
30135,Douglasville,2176
30137,Emerson,1019
30138,Esom Hill,1772
30139,Fairmount,726
30140,Felton,1490
30141,Hiram,749
30142,Holly Springs,2058
30143,Jasper,695
30144,Kennesaw,1963
30145,Kingston,1810
30146,Lebanon,1025
30147,Lindale,1369
30148,Marble Hill,1931
30149,Mount Berry,1059
30150,Mount Zion,663
30151,Nelson,2437
30152,Kennesaw,1944
30153,Rockmart,945
30154,Douglasville,1356
30156,Kennesaw,2054
30157,Dallas,1521
30160,Kennesaw,2342
30161,Rome,1243
30162,Rome,2438
30163,Rome,764
30164,Rome,1461
30165,Rome,1167
30168,Austell,1988
30169,Canton,1278
30170,Roopville,986
30171,Rydal,1057
30172,Shannon,1285
30173,Silver Creek,716
30175,Talking Rock,2449
30176,Tallapoosa,1653
30177,Tate,1823
30178,Taylorsville,669
30179,Temple,1400
30180,Villa Rica,1345
30182,Waco,2136
30183,Waleska,2229
30184,White,1498
30185,Whitesburg,1630
30187,Winston,1344
30188,Woodstock,1200
30189,Woodstock,1379
30204,Barnesville,1494
30205,Brooks,2068
30206,Concord,1548
30212,Experiment,1607
30213,Fairburn,2471
30214,Fayetteville,1410
30215,Fayetteville,1935
30216,Flovilla,1677
30217,Franklin,614
30218,Gay,1537
30219,Glenn,2087
30220,Grantville,1847
30222,Greenville,2446
30223,Griffin,1160
30224,Griffin,2383
30228,Hampton,2197
30229,Haralson,2315
30230,Hogansville,911
30233,Jackson,1049
30234,Jenkinsburg,1724
30236,Jonesboro,1430
30237,Jonesboro,2313
30238,Jonesboro,1362
30240,Lagrange,1755
30241,Lagrange,1978
30248,Locust Grove,2242
30250,Lovejoy,871
30251,Luthersville,644
30252,Mcdonough,2366
30253,Mcdonough,697
30256,Meansville,2115
30257,Milner,683
30258,Molena,1766
30259,Moreland,1748
30260,Morrow,862
30261,Lagrange,2410
30263,Newnan,2429
30264,Newnan,1357
30265,Newnan,1948
30266,Orchard Hill,1221
30268,Palmetto,1041
30269,Peachtree City,1534
30270,Peachtree City,1443
30271,Newnan,1070
30272,Red Oak,794
30273,Rex,913
30274,Riverdale,729
30275,Sargent,1982
30276,Senoia,1743
30277,Sharpsburg,514
30281,Stockbridge,1944
30284,Sunny Side,1791
30285,The Rock,1260
30286,Thomaston,2435
30287,Morrow,1267
30288,Conley,1118
30289,Turin,1885
30290,Tyrone,1044
30291,Union City,1470
30292,Williamson,641
30293,Woodbury,2472
30294,Ellenwood,1494
30295,Zebulon,1229
30296,Riverdale,854
30297,Forest Park,1929
30298,Forest Park,1863
30301,Atlanta,2405
30302,Atlanta,2486
30303,Atlanta,1120
30304,Atlanta,1494
30305,Atlanta,1989
30306,Atlanta,704
30307,Atlanta,1687
30308,Atlanta,2392
30309,Atlanta,1410
30310,Atlanta,1965
30311,Atlanta,1784
30312,Atlanta,970
30313,Atlanta,1072
30314,Atlanta,1126
30315,Atlanta,1151
30316,Atlanta,777
30317,Atlanta,1112
30318,Atlanta,1190
30319,Atlanta,545
30320,Atlanta,827
30321,Atlanta,2148
30322,Atlanta,2400
30324,Atlanta,2005
30325,Atlanta,2413
30326,Atlanta,1902
30327,Atlanta,882
30328,Atlanta,1200
30329,Atlanta,967
30330,Atlanta,1577
30331,Atlanta,622
30332,Atlanta,570
30333,Atlanta,526
30334,Atlanta,1474
30336,Atlanta,872
30337,Atlanta,2322
30338,Atlanta,1656
30339,Atlanta,551
30340,Atlanta,566
30341,Atlanta,845
30342,Atlanta,1692
30343,Atlanta,2283
30344,Atlanta,2318
30345,Atlanta,633
30346,Atlanta,2430
30347,Atlanta,1221
30348,Atlanta,2421
30349,Atlanta,2057
30350,Atlanta,1211
30353,Atlanta,1570
30354,Atlanta,1092
30355,Atlanta,645
30356,Atlanta,1940
30357,Atlanta,2494
30358,Atlanta,1133
30359,Atlanta,1262
30360,Atlanta,994
30361,Atlanta,2124
30362,Atlanta,1546
30363,Atlanta,1479
30364,Atlanta,1429
30366,Atlanta,649
30368,Atlanta,2173
30369,Atlanta,1336
30370,Atlanta,1636
30371,Atlanta,608
30374,Atlanta,854
30375,Atlanta,1203
30376,Atlanta,2098
30377,Atlanta,1602
30378,Atlanta,1601
30379,Atlanta,1330
30380,Atlanta,1905
30384,Atlanta,2180
30385,Atlanta,1581
30386,Atlanta,1344
30387,Atlanta,1686
30388,Atlanta,2194
30389,Atlanta,701
30390,Atlanta,1573
30392,Atlanta,1897
30394,Atlanta,1671
30396,Atlanta,1100
30398,Atlanta,2346
30399,Atlanta,2035
30401,Swainsboro,1709
30410,Ailey,2226
30411,Alamo,947
30412,Alston,1589
30413,Bartow,551
30414,Bellville,602
30415,Brooklet,1040
30417,Claxton,687
30420,Cobbtown,2247
30421,Collins,2427
30423,Daisy,824
30424,Dover,1058
30425,Garfield,2110
30426,Girard,1923
30427,Glennville,551
30428,Glenwood,844
30429,Hagan,2425
30434,Louisville,1928
30436,Lyons,1227
30438,Manassas,756
30439,Metter,1312
30441,Midville,1566
30442,Millen,608
30445,Mount Vernon,2421
30446,Newington,1099
30447,Norristown,1332
30448,Nunez,1132
30449,Oliver,2150
30450,Portal,1670
30451,Pulaski,1895
30452,Register,2058
30453,Reidsville,2226
30454,Rockledge,1503
30455,Rocky Ford,1986
30456,Sardis,1832
30457,Soperton,560
30458,Statesboro,1206
30459,Statesboro,507
30460,Statesboro,2070
30461,Statesboro,923
30464,Stillmore,1785
30467,Sylvania,512
30470,Tarrytown,2344
30471,Twin City,503
30473,Uvalda,2084
30474,Vidalia,2112
30475,Vidalia,654
30477,Wadley,1788
30499,Reidsville,715
30501,Gainesville,792
30502,Chestnut Mountain,1691
30503,Gainesville,1957
30504,Gainesville,1169
30506,Gainesville,1096
30507,Gainesville,2377
30510,Alto,1952
30511,Baldwin,980
30512,Blairsville,742
30513,Blue Ridge,764
30514,Blairsville,810
30515,Buford,2007
30516,Bowersville,931
30517,Braselton,2319
30518,Buford,1085
30519,Buford,1226
30520,Canon,1074
30521,Carnesville,1809
30522,Cherrylog,737
30523,Clarkesville,2270
30525,Clayton,784
30527,Clermont,1284
30528,Cleveland,2135
30529,Commerce,926
30530,Commerce,1787
30531,Cornelia,1141
30533,Dahlonega,860
30534,Dawsonville,1967
30535,Demorest,2112
30536,Ellijay,2360
30537,Dillard,1667
30538,Eastanollee,1921
30539,East Ellijay,1485
30540,Ellijay,1818
30541,Epworth,1266
30542,Flowery Branch,1186
30543,Gillsville,1136
30544,Demorest,971
30545,Helen,940
30546,Hiawassee,2233
30547,Homer,2110
30548,Hoschton,997
30549,Jefferson,1084
30552,Lakemont,2123
30553,Lavonia,1674
30554,Lula,1872
30555,Mc Caysville,2035
30557,Martin,618
30558,Maysville,1559
30559,Mineral Bluff,1103
30560,Morganton,1160
30562,Mountain City,1279
30563,Mount Airy,1939
30564,Murrayville,1110
30565,Nicholson,2348
30566,Oakwood,1251
30567,Pendergrass,742
30568,Rabun Gap,827
30571,Sautee Nacoochee,874
30572,Suches,2282
30573,Tallulah Falls,1317
30575,Talmo,595
30576,Tiger,797
30577,Toccoa,1223
30580,Turnerville,843
30581,Wiley,2386
30582,Young Harris,2448
30596,Alto,1144
30597,Dahlonega,2150
30598,Toccoa Falls,1451
30599,Commerce,1294
30601,Athens,2060
30602,Athens,1043
30603,Athens,1101
30604,Athens,741
30605,Athens,884
30606,Athens,2175
30607,Athens,1401
30608,Athens,1174
30609,Athens,1513
30612,Athens,1142
30619,Arnoldsville,1976
30620,Bethlehem,2099
30621,Bishop,1255
30622,Bogart,2158
30623,Bostwick,1041
30624,Bowman,1004
30625,Buckhead,2010
30627,Carlton,852
30628,Colbert,2290
30629,Comer,551
30630,Crawford,509
30631,Crawfordville,2490
30633,Danielsville,1182
30634,Dewy Rose,758
30635,Elberton,1932
30638,Farmington,1093
30639,Franklin Springs,880
30641,Good Hope,2373
30642,Greensboro,2250
30643,Hartwell,1745
30645,High Shoals,1498
30646,Hull,1710
30647,Ila,2015
30648,Lexington,2145
30650,Madison,1609
30655,Monroe,1305
30656,Monroe,1599
30660,Rayle,2249
30662,Royston,1697
30663,Rutledge,1618
30664,Sharon,957
30665,Siloam,1519
30666,Statham,1041
30667,Stephens,2404
30668,Tignall,2493
30669,Union Point,1965
30671,Maxeys,1467
30673,Washington,612
30677,Watkinsville,2333
30678,White Plains,1671
30680,Winder,1982
30683,Winterville,1716
30701,Calhoun,685
30703,Calhoun,1283
30705,Chatsworth,668
30707,Chickamauga,584
30708,Cisco,1505
30710,Cohutta,1630
30711,Crandall,2345
30719,Dalton,1269
30720,Dalton,638
30721,Dalton,2490
30722,Dalton,544
30724,Eton,866
30725,Flintstone,1031
30726,Graysville,1409
30728,La Fayette,1050
30730,Lyerly,2302
30731,Menlo,682
30732,Oakman,1975
30733,Plainville,2161
30734,Ranger,1801
30735,Resaca,1876
30736,Ringgold,1500
30738,Rising Fawn,1247
30739,Rock Spring,751
30740,Rocky Face,1454
30741,Rossville,973
30742,Fort Oglethorpe,2329
30746,Sugar Valley,2264
30747,Summerville,1813
30750,Lookout Mountain,2186
30751,Tennga,2014
30752,Trenton,761
30753,Trion,988
30755,Tunnel Hill,1135
30756,Varnell,558
30757,Wildwood,1714
30802,Appling,1912
30803,Avera,666
30805,Blythe,928
30806,Boneville,1602
30807,Camak,1224
30808,Dearing,1096
30809,Evans,995
30810,Gibson,1488
30811,Gough,1696
30812,Gracewood,1190
30813,Grovetown,2239
30814,Harlem,1174
30815,Hephzibah,1624
30816,Keysville,790
30817,Lincolnton,1241
30818,Matthews,1481
30819,Mesena,1170
30820,Mitchell,1019
30821,Norwood,1500
30822,Perkins,1339
30823,Stapleton,2044
30824,Thomson,504
30828,Warrenton,883
30830,Waynesboro,1297
30833,Wrens,2253
30901,Augusta,2034
30903,Augusta,2383
30904,Augusta,1960
30905,Augusta,649
30906,Augusta,2277
30907,Augusta,1975
30909,Augusta,1619
30911,Augusta,567
30912,Augusta,2491
30913,Augusta,1457
30914,Augusta,2297
30916,Augusta,798
30917,Augusta,1714
30919,Augusta,2075
30999,Augusta,908
31001,Abbeville,1547
31002,Adrian,2452
31003,Allentown,1627
31004,Bolingbroke,2317
31005,Bonaire,2154
31006,Butler,1643
31007,Byromville,1839
31008,Byron,2361
31009,Cadwell,1879
31010,Cordele,2372
31011,Chauncey,846
31012,Chester,672
31013,Clinchfield,2215
31014,Cochran,1048
31015,Cordele,1104
31016,Culloden,647
31017,Danville,500
31018,Davisboro,1238
31019,Dexter,2375
31020,Dry Branch,1542
31021,Dublin,1832
31022,Dudley,1525
31023,Eastman,1328
31024,Eatonton,1764
31025,Elko,2326
31026,Eatonton,634
31027,East Dublin,621
31028,Centerville,1166
31029,Forsyth,1827
31030,Fort Valley,1290
31031,Gordon,1745
31032,Gray,571
31033,Haddock,932
31034,Hardwick,972
31035,Harrison,934
31036,Hawkinsville,2218
31037,Helena,2468
31038,Hillsboro,2452
31039,Howard,1423
31040,Dublin,1290
31041,Ideal,1889
31042,Irwinton,1747
31044,Jeffersonville,1224
31045,Jewell,2400
31046,Juliette,1762
31047,Kathleen,1591
31049,Kite,1364
31050,Knoxville,1913
31051,Lilly,914
31052,Lizella,645
31054,Mc Intyre,1489
31055,Mc Rae,903
31057,Marshallville,2038
31058,Mauk,1445
31059,Milledgeville,652
31060,Milan,1394
31061,Milledgeville,2442
31062,Milledgeville,1250
31063,Montezuma,1831
31064,Monticello,872
31065,Montrose,1878
31066,Musella,1893
31067,Oconee,2320
31068,Oglethorpe,1272
31069,Perry,2498
31070,Pinehurst,634
31071,Pineview,924
31072,Pitts,1764
31075,Rentz,1950
31076,Reynolds,1611
31077,Rhine,2489
31078,Roberta,849
31079,Rochelle,1378
31081,Rupert,1400
31082,Sandersville,1691
31083,Scotland,2380
31084,Seville,642
31085,Shady Dale,877
31086,Smarr,1607
31087,Sparta,2025
31088,Warner Robins,735
31089,Tennille,2103
31090,Toomsboro,1286
31091,Unadilla,589
31092,Vienna,2449
31093,Warner Robins,2470
31094,Warthen,1080
31095,Warner Robins,1437
31096,Wrightsville,2056
31097,Yatesville,653
31098,Warner Robins,1498
31099,Warner Robins,654
31106,Atlanta,993
31107,Atlanta,582
31119,Atlanta,1000
31120,Atlanta,943
31126,Atlanta,2173
31131,Atlanta,1453
31136,Atlanta,541
31139,Atlanta,1412
31141,Atlanta,1099
31145,Atlanta,1642
31146,Atlanta,1539
31150,Atlanta,2323
31156,Atlanta,1613
31191,Atlanta,930
31192,Atlanta,1923
31193,Atlanta,820
31195,Atlanta,2122
31196,Atlanta,1096
31197,Atlanta,2422
31198,Atlanta,2478
31199,Atlanta,969
31201,Macon,1725
31202,Macon,2352
31203,Macon,1606
31204,Macon,949
31205,Macon,1903
31206,Macon,833
31207,Macon,1661
31208,Macon,2404
31209,Macon,680
31210,Macon,808
31211,Macon,2206
31212,Macon,836
31213,Macon,924
31216,Macon,1115
31217,Macon,1080
31220,Macon,2400
31221,Macon,1063
31294,Macon,2428
31295,Macon,1034
31296,Macon,1914
31297,Macon,1517
31301,Allenhurst,1982
31302,Bloomingdale,1738
31303,Clyo,1860
31304,Crescent,973
31305,Darien,2077
31307,Eden,2162
31308,Ellabell,1839
31309,Fleming,1527
31310,Hinesville,1642
31312,Guyton,1573
31313,Hinesville,866
31314,Fort Stewart,2030
31315,Fort Stewart,1321
31316,Ludowici,1663
31318,Meldrim,2287
31319,Meridian,1679
31320,Midway,1171
31321,Pembroke,1900
31322,Pooler,2104
31323,Riceboro,768
31324,Richmond Hill,1329
31326,Rincon,503
31327,Sapelo Island,2455
31328,Tybee Island,928
31329,Springfield,1318
31331,Townsend,1606
31333,Walthourville,2111
31401,Savannah,1345
31402,Savannah,2300
31403,Savannah,517
31404,Savannah,655
31405,Savannah,793
31406,Savannah,699
31407,Savannah,773
31408,Savannah,2099
31409,Savannah,1158
31410,Savannah,2107
31411,Savannah,2426
31412,Savannah,785
31414,Savannah,2477
31415,Savannah,2000
31416,Savannah,1617
31418,Savannah,2131
31419,Savannah,1653
31420,Savannah,811
31421,Savannah,2199
31501,Waycross,2028
31502,Waycross,2179
31503,Waycross,2318
31510,Alma,1261
31512,Ambrose,1994
31513,Baxley,1123
31515,Baxley,885
31516,Blackshear,2092
31518,Bristol,1079
31519,Broxton,530
31520,Brunswick,823
31521,Brunswick,1867
31522,Saint Simons Island,1260
31523,Brunswick,1867
31524,Brunswick,2291
31525,Brunswick,846
31527,Jekyll Island,1982
31532,Denton,1883
31533,Douglas,2036
31534,Douglas,1997
31535,Douglas,883
31537,Folkston,1858
31539,Hazlehurst,1850
31542,Hoboken,2331
31543,Hortense,2231
31544,Jacksonville,582
31545,Jesup,1216
31546,Jesup,2382
31547,Kings Bay,1222
31548,Kingsland,1509
31549,Lumber City,2039
31550,Manor,1453
31551,Mershon,773
31552,Millwood,2276
31553,Nahunta,1743
31554,Nicholls,2411
31555,Odum,2454
31556,Offerman,1434
31557,Patterson,1666
31558,Saint Marys,776
31560,Screven,1444
31561,Sea Island,1844
31562,Saint George,1744
31563,Surrency,823
31564,Waresboro,909
31565,Waverly,1811
31566,Waynesville,504
31567,West Green,1348
31568,White Oak,2218
31569,Woodbine,1824
31598,Jesup,740
31599,Jesup,1853
31601,Valdosta,2074
31602,Valdosta,2234
31603,Valdosta,2354
31604,Valdosta,1377
31605,Valdosta,1527
31606,Valdosta,1881
31620,Adel,1240
31622,Alapaha,2498
31623,Argyle,2237
31624,Axson,2324
31625,Barney,1669
31626,Boston,563
31627,Cecil,813
31629,Dixie,1019
31630,Du Pont,2397
31631,Fargo,2185
31632,Hahira,2456
31634,Homerville,563
31635,Lakeland,856
31636,Lake Park,1988
31637,Lenox,2163
31638,Morven,1023
31639,Nashville,1860
31641,Naylor,1109
31642,Pearson,705
31643,Quitman,511
31645,Ray City,1408
31647,Sparks,2306
31648,Statenville,2126
31649,Stockton,598
31650,Willacoochee,2103
31698,Valdosta,1923
31699,Moody A F B,992
31701,Albany,2349
31702,Albany,2445
31703,Albany,1611
31704,Albany,560
31705,Albany,1315
31706,Albany,2272
31707,Albany,1175
31708,Albany,2234
31709,Americus,2038
31710,Americus,1383
31711,Andersonville,2381
31712,Arabi,1750
31714,Ashburn,599
31716,Baconton,2124
31719,Americus,2124
31720,Barwick,1247
31721,Albany,1040
31722,Berlin,1288
31727,Brookfield,1975
31730,Camilla,1735
31733,Chula,1640
31735,Cobb,682
31738,Coolidge,1991
31739,Cotton,1864
31743,De Soto,842
31744,Doerun,1772
31747,Ellenton,1428
31749,Enigma,797
31750,Fitzgerald,2071
31753,Funston,1822
31756,Hartsfield,1921
31757,Thomasville,675
31758,Thomasville,2312
31760,Irwinville,1001
31763,Leesburg,1711
31764,Leslie,1787
31765,Meigs,536
31768,Moultrie,1370
31769,Mystic,1803
31771,Norman Park,2263
31772,Oakfield,710
31773,Ochlocknee,1560
31774,Ocilla,1117
31775,Omega,1220
31776,Moultrie,2043
31778,Pavo,2160
31779,Pelham,1732
31780,Plains,1623
31781,Poulan,2094
31782,Putney,2034
31783,Rebecca,1828
31784,Sale City,1054
31787,Smithville,1307
31788,Moultrie,2213
31789,Sumner,1484
31790,Sycamore,1537
31791,Sylvester,935
31792,Thomasville,984
31793,Tifton,1559
31794,Tifton,1870
31795,Ty Ty,623
31796,Warwick,1574
31798,Wray,1371
31799,Thomasville,1996
31801,Box Springs,1225
31803,Buena Vista,1917
31804,Cataula,1621
31805,Cusseta,884
31806,Ellaville,1324
31807,Ellerslie,940
31808,Fortson,602
31810,Geneva,1538
31811,Hamilton,674
31812,Junction City,2379
31814,Louvale,711
31815,Lumpkin,2165
31816,Manchester,1496
31820,Midland,1338
31821,Omaha,1969
31822,Pine Mountain,1359
31823,Pine Mountain Valley,1736
31824,Preston,1829
31825,Richland,572
31826,Shiloh,1285
31827,Talbotton,2143
31829,Upatoi,1766
31830,Warm Springs,1246
31831,Waverly Hall,1008
31832,Weston,2274
31833,West Point,750
31836,Woodland,1107
31901,Columbus,2406
31902,Columbus,2255
31903,Columbus,1823
31904,Columbus,963
31905,Fort Benning,1603
31906,Columbus,702
31907,Columbus,644
31908,Columbus,2282
31909,Columbus,2326
31914,Columbus,637
31917,Columbus,1478
31993,Columbus,1332
31995,Fort Benning,1105
31997,Columbus,904
31998,Columbus,1710
31999,Columbus,1547
39813,Arlington,1534
39815,Attapulgus,2039
39817,Bainbridge,1276
39818,Bainbridge,1963
39819,Bainbridge,583
39823,Blakely,2372
39824,Bluffton,2141
39825,Brinson,1499
39826,Bronwood,1575
39827,Cairo,1762
39828,Cairo,630
39829,Calvary,1600
39832,Cedar Springs,1070
39834,Climax,2000
39836,Coleman,1217
39837,Colquitt,1480
39840,Cuthbert,1066
39841,Damascus,1585
39842,Dawson,1076
39845,Donalsonville,1149
39846,Edison,2041
39851,Fort Gaines,836
39852,Fowlstown,1000
39854,Georgetown,1558
39859,Iron City,647
39861,Jakin,744
39862,Leary,704
39866,Morgan,645
39867,Morris,2045
39870,Newton,1998
39877,Parrott,1484
39885,Sasser,1650
39886,Shellman,1236
39897,Whigham,2042
39901,Atlanta,2382
