table_name,drop_statement,create_statement
tbl_CharacterInfo,DROP TABLE tbl_CharacterInfo,"CREATE TABLE tbl_CharacterInfo (first_name VARCHAR(50), last_name VARCHAR(50), date_of_birth DATETIME, country_id SHORT, race_id SHORT, char_currency CURRENCY, gender VARCHAR(2), class_id SHORT, class_level SHORT)"
tbl_ClassInfo,DROP TABLE tbl_ClassInfo,"CREATE TABLE tbl_ClassInfo (class_id SHORT, class_name VARCHAR(25))"
tbl_CountryInfo,DROP TABLE tbl_CountryInfo,"CREATE TABLE tbl_CountryInfo (country_id SHORT, country_name VARCHAR(25))"
tbl_RaceInfo,DROP TABLE tbl_RaceInfo,"CREATE TABLE tbl_RaceInfo (race_id SHORT, race_name VARCHAR(25))"
