ZipCode,County
31513,Appling
31515,Appling
31563,Appling
31624,Atkinson
31642,Atkinson
31650,Atkinson
31510,Bacon
39870,Baker
31034,Baldwin
31059,Baldwin
31061,Baldwin
31062,Baldwin
30511,Banks
30530,Banks
30547,Banks
30558,Banks
30011,Barrow
30620,Barrow
30666,Barrow
30680,Barrow
30103,Bartow
30120,Bartow
30121,Bartow
30123,Bartow
30137,Bartow
30145,Bartow
30171,Bartow
30178,Bartow
30184,Bartow
31750,Ben Hill
31622,Berrien
31639,Berrien
31645,Berrien
31749,Berrien
31201,Bibb
31202,Bibb
31203,Bibb
31204,Bibb
31205,Bibb
31206,Bibb
31207,Bibb
31208,Bibb
31209,Bibb
31210,Bibb
31211,Bibb
31212,Bibb
31213,Bibb
31216,Bibb
31217,Bibb
31220,Bibb
31221,Bibb
31294,Bibb
31295,Bibb
31296,Bibb
31297,Bibb
31014,Bleckley
31542,Brantley
31543,Brantley
31553,Brantley
31566,Brantley
31625,Brooks
31629,Brooks
31638,Brooks
31643,Brooks
31720,Brooks
31308,Bryan
31321,Bryan
31324,Bryan
30415,Bulloch
30450,Bulloch
30452,Bulloch
30458,Bulloch
30459,Bulloch
30460,Bulloch
30461,Bulloch
30426,Burke
30441,Burke
30456,Burke
30811,Burke
30816,Burke
30830,Burke
30216,Butts
30233,Butts
30234,Butts
39813,Calhoun
39846,Calhoun
39862,Calhoun
39866,Calhoun
31547,Camden
31548,Camden
31558,Camden
31565,Camden
31568,Camden
31569,Camden
30439,Candler
30451,Candler
30108,Carroll
30109,Carroll
30112,Carroll
30116,Carroll
30117,Carroll
30118,Carroll
30119,Carroll
30150,Carroll
30170,Carroll
30179,Carroll
30180,Carroll
30185,Carroll
30726,Catoosa
30736,Catoosa
30742,Catoosa
31537,Charlton
31562,Charlton
31302,Chatham
31322,Chatham
31328,Chatham
31401,Chatham
31402,Chatham
31403,Chatham
31404,Chatham
31405,Chatham
31406,Chatham
31407,Chatham
31408,Chatham
31409,Chatham
31410,Chatham
31411,Chatham
31412,Chatham
31414,Chatham
31415,Chatham
31416,Chatham
31418,Chatham
31419,Chatham
31420,Chatham
31421,Chatham
31805,Chattahoochee
30730,Chattooga
30731,Chattooga
30747,Chattooga
30753,Chattooga
30102,Cherokee
30107,Cherokee
30114,Cherokee
30115,Cherokee
30142,Cherokee
30146,Cherokee
30151,Cherokee
30169,Cherokee
30183,Cherokee
30188,Cherokee
30189,Cherokee
30601,Clarke
30602,Clarke
30603,Clarke
30604,Clarke
30605,Clarke
30606,Clarke
30607,Clarke
30608,Clarke
30609,Clarke
30612,Clarke
30683,Clarke
39824,Clay
39851,Clay
30236,Clayton
30237,Clayton
30238,Clayton
30250,Clayton
30260,Clayton
30273,Clayton
30274,Clayton
30287,Clayton
30288,Clayton
30296,Clayton
30297,Clayton
30298,Clayton
31623,Clinch
31630,Clinch
31631,Clinch
31634,Clinch
30006,Cobb
30007,Cobb
30008,Cobb
30060,Cobb
30061,Cobb
30062,Cobb
30063,Cobb
30064,Cobb
30065,Cobb
30066,Cobb
30067,Cobb
30068,Cobb
30069,Cobb
30080,Cobb
30081,Cobb
30082,Cobb
30090,Cobb
30101,Cobb
30106,Cobb
30111,Cobb
30126,Cobb
30127,Cobb
30144,Cobb
30152,Cobb
30156,Cobb
30160,Cobb
30168,Cobb
31512,Coffee
31519,Coffee
31533,Coffee
31534,Coffee
31535,Coffee
31554,Coffee
31567,Coffee
31722,Colquitt
31744,Colquitt
31747,Colquitt
31753,Colquitt
31756,Colquitt
31768,Colquitt
31771,Colquitt
31776,Colquitt
31788,Colquitt
30802,Columbia
30809,Columbia
30813,Columbia
30814,Columbia
30907,Columbia
30917,Columbia
31620,Cook
31627,Cook
31637,Cook
31647,Cook
30220,Coweta
30229,Coweta
30259,Coweta
30263,Coweta
30264,Coweta
30265,Coweta
30271,Coweta
30275,Coweta
30276,Coweta
30277,Coweta
30284,Coweta
30289,Coweta
31050,Crawford
31052,Crawford
31066,Crawford
31078,Crawford
31010,Crisp
31015,Crisp
31712,Crisp
30738,Dade
30752,Dade
30757,Dade
30534,Dawson
39815,Decatur
39817,Decatur
39818,Decatur
39819,Decatur
39825,Decatur
39834,Decatur
39852,Decatur
30002,Dekalb
30021,Dekalb
30030,Dekalb
30031,Dekalb
30032,Dekalb
30033,Dekalb
30034,Dekalb
30035,Dekalb
30036,Dekalb
30037,Dekalb
30038,Dekalb
30058,Dekalb
30072,Dekalb
30073,Dekalb
30074,Dekalb
30079,Dekalb
30083,Dekalb
30084,Dekalb
30085,Dekalb
30086,Dekalb
30087,Dekalb
30088,Dekalb
30294,Dekalb
30317,Dekalb
30319,Dekalb
30322,Dekalb
30329,Dekalb
30333,Dekalb
30338,Dekalb
30340,Dekalb
30341,Dekalb
30345,Dekalb
30346,Dekalb
30356,Dekalb
30359,Dekalb
30360,Dekalb
30362,Dekalb
30366,Dekalb
31119,Dekalb
31120,Dekalb
31141,Dekalb
31145,Dekalb
31146,Dekalb
39901,Dekalb
31011,Dodge
31012,Dodge
31023,Dodge
31077,Dodge
31007,Dooly
31051,Dooly
31070,Dooly
31091,Dooly
31092,Dooly
31701,Dougherty
31702,Dougherty
31703,Dougherty
31704,Dougherty
31705,Dougherty
31706,Dougherty
31707,Dougherty
31708,Dougherty
31721,Dougherty
31782,Dougherty
30122,Douglas
30133,Douglas
30134,Douglas
30135,Douglas
30154,Douglas
30187,Douglas
39823,Early
39832,Early
39841,Early
39861,Early
31648,Echols
31303,Effingham
31307,Effingham
31312,Effingham
31318,Effingham
31326,Effingham
31329,Effingham
30624,Elbert
30634,Elbert
30635,Elbert
30401,Emanuel
30425,Emanuel
30447,Emanuel
30448,Emanuel
30464,Emanuel
30471,Emanuel
31002,Emanuel
30414,Evans
30417,Evans
30423,Evans
30429,Evans
30513,Fannin
30541,Fannin
30555,Fannin
30559,Fannin
30560,Fannin
30205,Fayette
30214,Fayette
30215,Fayette
30269,Fayette
30270,Fayette
30290,Fayette
30105,Floyd
30124,Floyd
30129,Floyd
30147,Floyd
30149,Floyd
30161,Floyd
30162,Floyd
30163,Floyd
30164,Floyd
30165,Floyd
30172,Floyd
30173,Floyd
30028,Forsyth
30040,Forsyth
30041,Forsyth
30520,Franklin
30521,Franklin
30553,Franklin
30639,Franklin
30662,Franklin
30004,Fulton
30005,Fulton
30009,Fulton
30022,Fulton
30023,Fulton
30075,Fulton
30076,Fulton
30077,Fulton
30097,Fulton
30213,Fulton
30268,Fulton
30272,Fulton
30291,Fulton
30301,Fulton
30302,Fulton
30303,Fulton
30304,Fulton
30305,Fulton
30306,Fulton
30307,Fulton
30308,Fulton
30309,Fulton
30310,Fulton
30311,Fulton
30312,Fulton
30313,Fulton
30314,Fulton
30315,Fulton
30316,Fulton
30318,Fulton
30320,Fulton
30321,Fulton
30324,Fulton
30325,Fulton
30326,Fulton
30327,Fulton
30328,Fulton
30330,Fulton
30331,Fulton
30332,Fulton
30334,Fulton
30336,Fulton
30337,Fulton
30339,Fulton
30342,Fulton
30343,Fulton
30344,Fulton
30347,Fulton
30348,Fulton
30349,Fulton
30350,Fulton
30353,Fulton
30354,Fulton
30355,Fulton
30357,Fulton
30358,Fulton
30361,Fulton
30363,Fulton
30364,Fulton
30368,Fulton
30369,Fulton
30370,Fulton
30371,Fulton
30374,Fulton
30375,Fulton
30376,Fulton
30377,Fulton
30378,Fulton
30379,Fulton
30380,Fulton
30384,Fulton
30385,Fulton
30386,Fulton
30387,Fulton
30388,Fulton
30389,Fulton
30390,Fulton
30392,Fulton
30394,Fulton
30396,Fulton
30398,Fulton
30399,Fulton
31106,Fulton
31107,Fulton
31126,Fulton
31131,Fulton
31136,Fulton
31139,Fulton
31150,Fulton
31156,Fulton
31191,Fulton
31192,Fulton
31193,Fulton
31195,Fulton
31196,Fulton
31197,Fulton
31198,Fulton
31199,Fulton
30522,Gilmer
30536,Gilmer
30539,Gilmer
30540,Gilmer
30810,Glascock
30820,Glascock
31520,Glynn
31521,Glynn
31522,Glynn
31523,Glynn
31524,Glynn
31525,Glynn
31527,Glynn
31561,Glynn
30139,Gordon
30701,Gordon
30703,Gordon
30732,Gordon
30733,Gordon
30734,Gordon
30735,Gordon
30746,Gordon
39827,Grady
39828,Grady
39829,Grady
39897,Grady
30642,Greene
30665,Greene
30669,Greene
30678,Greene
30003,Gwinnett
30010,Gwinnett
30017,Gwinnett
30019,Gwinnett
30024,Gwinnett
30026,Gwinnett
30029,Gwinnett
30039,Gwinnett
30042,Gwinnett
30043,Gwinnett
30044,Gwinnett
30045,Gwinnett
30046,Gwinnett
30047,Gwinnett
30048,Gwinnett
30049,Gwinnett
30071,Gwinnett
30078,Gwinnett
30091,Gwinnett
30092,Gwinnett
30093,Gwinnett
30095,Gwinnett
30096,Gwinnett
30098,Gwinnett
30099,Gwinnett
30515,Gwinnett
30518,Gwinnett
30519,Gwinnett
30510,Habersham
30523,Habersham
30531,Habersham
30535,Habersham
30544,Habersham
30563,Habersham
30580,Habersham
30596,Habersham
30501,Hall
30502,Hall
30503,Hall
30504,Hall
30506,Hall
30507,Hall
30527,Hall
30542,Hall
30543,Hall
30554,Hall
30564,Hall
30566,Hall
31087,Hancock
30110,Haralson
30113,Haralson
30140,Haralson
30176,Haralson
30182,Haralson
31804,Harris
31807,Harris
31811,Harris
31822,Harris
31823,Harris
31826,Harris
31831,Harris
30516,Hart
30643,Hart
30217,Heard
30219,Heard
30228,Henry
30248,Henry
30252,Henry
30253,Henry
30281,Henry
31005,Houston
31013,Houston
31025,Houston
31028,Houston
31047,Houston
31069,Houston
31088,Houston
31093,Houston
31095,Houston
31098,Houston
31099,Houston
31760,Irwin
31769,Irwin
31774,Irwin
31798,Irwin
30517,Jackson
30529,Jackson
30548,Jackson
30549,Jackson
30565,Jackson
30567,Jackson
30575,Jackson
30599,Jackson
31038,Jasper
31064,Jasper
31085,Jasper
31532,Jeff Davis
31539,Jeff Davis
30413,Jefferson
30434,Jefferson
30477,Jefferson
30803,Jefferson
30818,Jefferson
30823,Jefferson
30833,Jefferson
30442,Jenkins
30822,Jenkins
31049,Johnson
31096,Johnson
31032,Jones
31033,Jones
30204,Lamar
30257,Lamar
31635,Lanier
31649,Lanier
30454,Laurens
31009,Laurens
31019,Laurens
31021,Laurens
31022,Laurens
31027,Laurens
31040,Laurens
31065,Laurens
31075,Laurens
31763,Lee
31787,Lee
31301,Liberty
31309,Liberty
31310,Liberty
31313,Liberty
31314,Liberty
31315,Liberty
31320,Liberty
31323,Liberty
31333,Liberty
30817,Lincoln
31316,Long
31601,Lowndes
31602,Lowndes
31603,Lowndes
31604,Lowndes
31605,Lowndes
31606,Lowndes
31632,Lowndes
31636,Lowndes
31641,Lowndes
31698,Lowndes
31699,Lowndes
30533,Lumpkin
30597,Lumpkin
31041,Macon
31057,Macon
31063,Macon
31068,Macon
30627,Madison
30628,Madison
30629,Madison
30633,Madison
30646,Madison
30647,Madison
31058,Marion
31803,Marion
30806,Mcduffie
30808,Mcduffie
30824,Mcduffie
31304,Mcintosh
31305,Mcintosh
31319,Mcintosh
31327,Mcintosh
31331,Mcintosh
30218,Meriwether
30222,Meriwether
30251,Meriwether
30293,Meriwether
31816,Meriwether
31830,Meriwether
39837,Miller
31716,Mitchell
31730,Mitchell
31739,Mitchell
31779,Mitchell
31784,Mitchell
31004,Monroe
31016,Monroe
31029,Monroe
31046,Monroe
31086,Monroe
30410,Montgomery
30412,Montgomery
30445,Montgomery
30470,Montgomery
30473,Montgomery
30623,Morgan
30625,Morgan
30645,Morgan
30650,Morgan
30663,Morgan
30705,Murray
30708,Murray
30711,Murray
30724,Murray
30751,Murray
31808,Muscogee
31820,Muscogee
31829,Muscogee
31901,Muscogee
31902,Muscogee
31903,Muscogee
31904,Muscogee
31905,Muscogee
31906,Muscogee
31907,Muscogee
31908,Muscogee
31909,Muscogee
31914,Muscogee
31917,Muscogee
31993,Muscogee
31995,Muscogee
31997,Muscogee
31998,Muscogee
31999,Muscogee
30014,Newton
30015,Newton
30016,Newton
30054,Newton
30055,Newton
30056,Newton
30070,Newton
30621,Oconee
30622,Oconee
30638,Oconee
30677,Oconee
30619,Oglethorpe
30630,Oglethorpe
30648,Oglethorpe
30667,Oglethorpe
30671,Oglethorpe
30132,Paulding
30141,Paulding
30157,Paulding
31008,Peach
31030,Peach
30143,Pickens
30148,Pickens
30175,Pickens
30177,Pickens
31516,Pierce
31518,Pierce
31551,Pierce
31556,Pierce
31557,Pierce
30206,Pike
30256,Pike
30258,Pike
30292,Pike
30295,Pike
30104,Polk
30125,Polk
30138,Polk
30153,Polk
31036,Pulaski
31024,Putnam
31026,Putnam
39854,Quitman
39867,Quitman
30525,Rabun
30537,Rabun
30552,Rabun
30562,Rabun
30568,Rabun
30573,Rabun
30576,Rabun
30581,Rabun
39836,Randolph
39840,Randolph
39886,Randolph
30805,Richmond
30812,Richmond
30815,Richmond
30901,Richmond
30903,Richmond
30904,Richmond
30905,Richmond
30906,Richmond
30909,Richmond
30911,Richmond
30912,Richmond
30913,Richmond
30914,Richmond
30916,Richmond
30919,Richmond
30999,Richmond
30012,Rockdale
30013,Rockdale
30094,Rockdale
31806,Schley
30424,Screven
30446,Screven
30449,Screven
30455,Screven
30467,Screven
39845,Seminole
39859,Seminole
30212,Spalding
30223,Spalding
30224,Spalding
30266,Spalding
30538,Stephens
30557,Stephens
30577,Stephens
30598,Stephens
31814,Stewart
31815,Stewart
31821,Stewart
31825,Stewart
31709,Sumter
31710,Sumter
31711,Sumter
31719,Sumter
31735,Sumter
31743,Sumter
31764,Sumter
31780,Sumter
31801,Talbot
31810,Talbot
31812,Talbot
31827,Talbot
31836,Talbot
30631,Taliaferro
30664,Taliaferro
30420,Tattnall
30421,Tattnall
30427,Tattnall
30438,Tattnall
30453,Tattnall
30499,Tattnall
31006,Taylor
31039,Taylor
31076,Taylor
31081,Taylor
31037,Telfair
31055,Telfair
31060,Telfair
31083,Telfair
31544,Telfair
31549,Telfair
39826,Terrell
39842,Terrell
39877,Terrell
39885,Terrell
31626,Thomas
31738,Thomas
31757,Thomas
31758,Thomas
31765,Thomas
31773,Thomas
31778,Thomas
31792,Thomas
31799,Thomas
31727,Tift
31733,Tift
31775,Tift
31793,Tift
31794,Tift
31795,Tift
30436,Toombs
30474,Toombs
30475,Toombs
30546,Towns
30582,Towns
30457,Treutlen
30230,Troup
30240,Troup
30241,Troup
30261,Troup
31833,Troup
31714,Turner
31783,Turner
31790,Turner
31017,Twiggs
31020,Twiggs
31044,Twiggs
30512,Union
30514,Union
30572,Union
30285,Upson
30286,Upson
31097,Upson
30707,Walker
30725,Walker
30728,Walker
30739,Walker
30741,Walker
30750,Walker
30018,Walton
30025,Walton
30052,Walton
30641,Walton
30655,Walton
30656,Walton
31501,Ware
31502,Ware
31503,Ware
31550,Ware
31552,Ware
31564,Ware
30807,Warren
30819,Warren
30821,Warren
30828,Warren
31045,Warren
31018,Washington
31035,Washington
31067,Washington
31082,Washington
31089,Washington
31094,Washington
31545,Wayne
31546,Wayne
31555,Wayne
31560,Wayne
31598,Wayne
31599,Wayne
31824,Webster
31832,Webster
30411,Wheeler
30428,Wheeler
30528,White
30545,White
30571,White
30710,Whitfield
30719,Whitfield
30720,Whitfield
30721,Whitfield
30722,Whitfield
30740,Whitfield
30755,Whitfield
30756,Whitfield
31001,Wilcox
31071,Wilcox
31072,Wilcox
31079,Wilcox
31084,Wilcox
30660,Wilkes
30668,Wilkes
30673,Wilkes
31003,Wilkinson
31031,Wilkinson
31042,Wilkinson
31054,Wilkinson
31090,Wilkinson
31772,Worth
31781,Worth
31789,Worth
31791,Worth
31796,Worth
