City,Safe Driver Low,Safe Driver High,Safe Driver Avg,Good Student Low,Good Student High,Good Student Avg,Low Mileage Low,Low Mileage High,Low Mileage Avg,Multi Policy Low,Multi Policy High,Multi Policy Avg
Manassas,0.426506976,0.426506976,0.426506976,0.0,0.0,0.0,0.45887855,0.45887855,0.45887855,0.625452684,0.625452684,0.625452684
Trion,0.793608659,0.793608659,0.793608659,0.0,0.0,0.0,0.925399901,0.925399901,0.925399901,0.448527904,0.448527904,0.448527904
Boneville,0.705177507,0.705177507,0.705177507,0.0,0.0,0.0,0.010359457,0.010359457,0.010359457,0.478982076,0.478982076,0.478982076
Hephzibah,0.041329123,0.041329123,0.041329123,0.0,0.0,0.0,0.016026468,0.016026468,0.016026468,0.278567658,0.278567658,0.278567658
Tyrone,0.023466536,0.023466536,0.023466536,0.0,0.0,0.0,0.558556061,0.558556061,0.558556061,0.569771015,0.569771015,0.569771015
Surrency,0.978676424,0.978676424,0.978676424,0.0,0.0,0.0,0.60454495,0.60454495,0.60454495,0.316113183,0.316113183,0.316113183
Waresboro,0.942540225,0.942540225,0.942540225,0.0,0.0,0.0,0.248104139,0.248104139,0.248104139,0.956576311,0.956576311,0.956576311
Talbotton,0.584503798,0.584503798,0.584503798,0.0,0.0,0.0,0.084525194,0.084525194,0.084525194,0.317000124,0.317000124,0.317000124
Fargo,0.481922955,0.481922955,0.481922955,0.0,0.0,0.0,0.72524967,0.72524967,0.72524967,0.894341399,0.894341399,0.894341399
Warm Springs,0.479181031,0.479181031,0.479181031,0.0,0.0,0.0,0.070588919,0.070588919,0.070588919,0.67118864,0.67118864,0.67118864
Ringgold,0.712123315,0.712123315,0.712123315,0.0,0.0,0.0,0.533519954,0.533519954,0.533519954,0.20787587,0.20787587,0.20787587
Bowman,0.157843136,0.157843136,0.157843136,0.0,0.0,0.0,0.319781421,0.319781421,0.319781421,0.571419403,0.571419403,0.571419403
Blue Ridge,0.485342888,0.485342888,0.485342888,0.0,0.0,0.0,0.913082473,0.913082473,0.913082473,0.391540059,0.391540059,0.391540059
Mansfield,0.968942538,0.968942538,0.968942538,0.0,0.0,0.0,0.472112152,0.472112152,0.472112152,0.664974933,0.664974933,0.664974933
Dawson,0.178128171,0.178128171,0.178128171,0.0,0.0,0.0,0.407269119,0.407269119,0.407269119,0.953231203,0.953231203,0.953231203
Senoia,0.396920551,0.396920551,0.396920551,0.0,0.0,0.0,0.793747703,0.793747703,0.793747703,0.125186373,0.125186373,0.125186373
Augusta,0.178955131,0.982353913,0.5181905744666666,0.0,0.0,0.0,0.129787661,0.967541009,0.47467543799999995,0.0584806,0.996736213,0.5267294885999999
Lenox,0.793270886,0.793270886,0.793270886,0.0,0.0,0.0,0.997397544,0.997397544,0.997397544,0.850853875,0.850853875,0.850853875
Sumner,0.301685857,0.301685857,0.301685857,0.0,0.0,0.0,0.161662015,0.161662015,0.161662015,0.194238555,0.194238555,0.194238555
Rockmart,0.871617938,0.871617938,0.871617938,0.0,0.0,0.0,0.291346156,0.291346156,0.291346156,0.844639339,0.844639339,0.844639339
Axson,0.196370397,0.196370397,0.196370397,0.0,0.0,0.0,0.455946744,0.455946744,0.455946744,0.536250867,0.536250867,0.536250867
Cairo,0.231047753,0.952065378,0.5915565655,0.0,0.0,0.0,0.034299522,0.281651672,0.15797559700000002,0.337041077,0.723861818,0.5304514475000001
Gay,0.606759559,0.606759559,0.606759559,0.0,0.0,0.0,0.153332965,0.153332965,0.153332965,0.878257399,0.878257399,0.878257399
Fortson,0.752485193,0.752485193,0.752485193,0.0,0.0,0.0,0.750074851,0.750074851,0.750074851,0.204501966,0.204501966,0.204501966
Waynesboro,0.20812487,0.20812487,0.20812487,0.0,0.0,0.0,0.0840561,0.0840561,0.0840561,0.662437823,0.662437823,0.662437823
Jasper,0.789167929,0.789167929,0.789167929,0.0,0.0,0.0,0.550075589,0.550075589,0.550075589,0.916128191,0.916128191,0.916128191
Toccoa,0.140111806,0.140111806,0.140111806,0.0,0.0,0.0,0.594375094,0.594375094,0.594375094,0.412282176,0.412282176,0.412282176
Allentown,0.63354314,0.63354314,0.63354314,0.0,0.0,0.0,0.948508964,0.948508964,0.948508964,0.024806418,0.024806418,0.024806418
Fort Benning,0.126701902,0.16728206,0.146991981,0.0,0.0,0.0,0.413663772,0.803938782,0.608801277,0.29176902,0.991476922,0.641622971
Glenwood,0.153555377,0.153555377,0.153555377,0.0,0.0,0.0,0.345057647,0.345057647,0.345057647,0.757732813,0.757732813,0.757732813
Redan,0.953723683,0.953723683,0.953723683,0.0,0.0,0.0,0.655471072,0.655471072,0.655471072,0.724770337,0.724770337,0.724770337
Rochelle,0.137723982,0.137723982,0.137723982,0.0,0.0,0.0,0.126162985,0.126162985,0.126162985,0.445577141,0.445577141,0.445577141
Smarr,0.512080484,0.512080484,0.512080484,0.0,0.0,0.0,0.393088218,0.393088218,0.393088218,0.121989019,0.121989019,0.121989019
Cartersville,0.125430677,0.163994617,0.144712647,0.0,0.0,0.0,0.705872939,0.811056813,0.758464876,0.19684035,0.526969337,0.3619048435
Newborn,0.13708472,0.13708472,0.13708472,0.0,0.0,0.0,0.86987573,0.86987573,0.86987573,0.965467994,0.965467994,0.965467994
Whitesburg,0.510158827,0.510158827,0.510158827,0.0,0.0,0.0,0.731784321,0.731784321,0.731784321,0.055336828,0.055336828,0.055336828
Resaca,0.257332683,0.257332683,0.257332683,0.0,0.0,0.0,0.550291142,0.550291142,0.550291142,0.585145948,0.585145948,0.585145948
Plains,0.308198172,0.308198172,0.308198172,0.0,0.0,0.0,0.643906708,0.643906708,0.643906708,0.609513136,0.609513136,0.609513136
Millwood,0.402916084,0.402916084,0.402916084,0.0,0.0,0.0,0.22562272,0.22562272,0.22562272,0.978323758,0.978323758,0.978323758
Chester,0.80412954,0.80412954,0.80412954,0.0,0.0,0.0,0.246886502,0.246886502,0.246886502,0.49964366,0.49964366,0.49964366
Waverly Hall,0.503271203,0.503271203,0.503271203,0.0,0.0,0.0,0.370557366,0.370557366,0.370557366,0.067548603,0.067548603,0.067548603
Statesboro,0.11949748,0.642591719,0.361396738,0.0,0.0,0.0,0.408007883,0.9617789,0.68015872425,0.142845278,0.945270873,0.567537257
Winder,0.706729742,0.706729742,0.706729742,0.0,0.0,0.0,0.153465472,0.153465472,0.153465472,0.268064324,0.268064324,0.268064324
Douglasville,0.226927304,0.886024344,0.52981067975,0.0,0.0,0.0,0.053963612,0.796198698,0.3284307385,0.090226492,0.853085305,0.50614978475
Waycross,0.255727629,0.951828064,0.6796440389999999,0.0,0.0,0.0,0.075875539,0.942579943,0.3949756246666667,0.244697344,0.897247892,0.606756604
Americus,0.04839498,0.591919633,0.289311877,0.0,0.0,0.0,0.102308653,0.758668444,0.36250751500000006,0.133138818,0.45454876,0.3135742283333333
Enigma,0.69123763,0.69123763,0.69123763,0.0,0.0,0.0,0.762643424,0.762643424,0.762643424,0.989059567,0.989059567,0.989059567
Columbus,0.191139341,0.900141154,0.5484520365714286,0.0,0.0,0.0,0.045954015,0.871721429,0.4399514355714286,0.008536451,0.940329431,0.6217316790714287
Rossville,0.651776292,0.651776292,0.651776292,0.0,0.0,0.0,0.111118301,0.111118301,0.111118301,0.743485986,0.743485986,0.743485986
Bronwood,0.101494366,0.101494366,0.101494366,0.0,0.0,0.0,0.886276157,0.886276157,0.886276157,0.177262967,0.177262967,0.177262967
Tallulah Falls,0.918498576,0.918498576,0.918498576,0.0,0.0,0.0,0.042129743,0.042129743,0.042129743,0.944063247,0.944063247,0.944063247
Bloomingdale,0.290761456,0.290761456,0.290761456,0.0,0.0,0.0,0.830241311,0.830241311,0.830241311,0.845127671,0.845127671,0.845127671
Lagrange,0.48887336,0.776808902,0.6590461673333333,0.0,0.0,0.0,0.0629038,0.505190341,0.2591649836666667,0.376947991,0.907977154,0.6558153516666666
Lyons,0.338762057,0.338762057,0.338762057,0.0,0.0,0.0,0.130286998,0.130286998,0.130286998,0.833436668,0.833436668,0.833436668
Alapaha,0.569696315,0.569696315,0.569696315,0.0,0.0,0.0,0.611197073,0.611197073,0.611197073,0.542260124,0.542260124,0.542260124
Ray City,0.252522161,0.252522161,0.252522161,0.0,0.0,0.0,0.786013041,0.786013041,0.786013041,0.629709877,0.629709877,0.629709877
Milner,0.088034659,0.088034659,0.088034659,0.0,0.0,0.0,0.387493103,0.387493103,0.387493103,0.126961261,0.126961261,0.126961261
Brooks,0.146350331,0.146350331,0.146350331,0.0,0.0,0.0,0.801782958,0.801782958,0.801782958,0.409013788,0.409013788,0.409013788
Monroe,0.735690669,0.954037315,0.8448639920000001,0.0,0.0,0.0,0.551886403,0.584813144,0.5683497735,0.577157302,0.985940553,0.7815489275
Morgan,0.737894917,0.737894917,0.737894917,0.0,0.0,0.0,0.673654285,0.673654285,0.673654285,0.92660053,0.92660053,0.92660053
Twin City,0.105054958,0.105054958,0.105054958,0.0,0.0,0.0,0.399726527,0.399726527,0.399726527,0.007084588,0.007084588,0.007084588
Marietta,0.016066667,0.977495079,0.5157754415,0.0,0.0,0.0,0.014979827,0.841138001,0.5083278615714285,0.195126678,0.71129305,0.4810913205
Meigs,0.542970824,0.542970824,0.542970824,0.0,0.0,0.0,0.04927232,0.04927232,0.04927232,0.905643458,0.905643458,0.905643458
Hortense,0.44843645,0.44843645,0.44843645,0.0,0.0,0.0,0.48749276,0.48749276,0.48749276,0.902437586,0.902437586,0.902437586
Hahira,0.119976735,0.119976735,0.119976735,0.0,0.0,0.0,0.532029701,0.532029701,0.532029701,0.289060408,0.289060408,0.289060408
Locust Grove,0.396105967,0.396105967,0.396105967,0.0,0.0,0.0,0.765815424,0.765815424,0.765815424,0.156330399,0.156330399,0.156330399
Decatur,0.031868484,0.771439096,0.4021998232222222,0.0,0.0,0.0,1.24e-06,0.991240445,0.47070087600000005,0.118808244,0.802974027,0.48650049244444443
Grantville,0.799902569,0.799902569,0.799902569,0.0,0.0,0.0,0.171451959,0.171451959,0.171451959,0.633908335,0.633908335,0.633908335
Jonesboro,0.454132581,0.851729819,0.6340685553333333,0.0,0.0,0.0,0.27315649,0.521989555,0.39496559633333334,0.088974185,0.661273403,0.3229590896666667
Bogart,0.844599725,0.844599725,0.844599725,0.0,0.0,0.0,0.054484855,0.054484855,0.054484855,0.769777714,0.769777714,0.769777714
Midland,0.271412526,0.271412526,0.271412526,0.0,0.0,0.0,0.734124366,0.734124366,0.734124366,0.963590787,0.963590787,0.963590787
Rentz,0.441915523,0.441915523,0.441915523,0.0,0.0,0.0,0.694180687,0.694180687,0.694180687,0.26636449,0.26636449,0.26636449
Homerville,0.788414593,0.788414593,0.788414593,0.0,0.0,0.0,0.338284245,0.338284245,0.338284245,0.467278172,0.467278172,0.467278172
Austell,0.626398104,0.630568626,0.6284833649999999,0.0,0.0,0.0,0.030621332,0.517141879,0.27388160549999996,0.002390475,0.19257566,0.0974830675
Ludowici,0.742489721,0.742489721,0.742489721,0.0,0.0,0.0,0.788123507,0.788123507,0.788123507,0.82473896,0.82473896,0.82473896
Nicholls,0.188831914,0.188831914,0.188831914,0.0,0.0,0.0,0.015923865,0.015923865,0.015923865,0.19867372,0.19867372,0.19867372
Morven,0.76650109,0.76650109,0.76650109,0.0,0.0,0.0,0.372784213,0.372784213,0.372784213,0.287938662,0.287938662,0.287938662
Hoschton,0.483738791,0.483738791,0.483738791,0.0,0.0,0.0,0.48122023,0.48122023,0.48122023,0.592924132,0.592924132,0.592924132
Grayson,0.348877655,0.348877655,0.348877655,0.0,0.0,0.0,0.899938114,0.899938114,0.899938114,0.740801745,0.740801745,0.740801745
Greensboro,0.619262428,0.619262428,0.619262428,0.0,0.0,0.0,0.778915808,0.778915808,0.778915808,0.374642181,0.374642181,0.374642181
Leesburg,0.049780118,0.049780118,0.049780118,0.0,0.0,0.0,0.885952379,0.885952379,0.885952379,0.397191347,0.397191347,0.397191347
Sunny Side,0.226189081,0.226189081,0.226189081,0.0,0.0,0.0,0.864573852,0.864573852,0.864573852,0.535932039,0.535932039,0.535932039
Thomaston,0.618629159,0.618629159,0.618629159,0.0,0.0,0.0,0.196071127,0.196071127,0.196071127,0.678093985,0.678093985,0.678093985
Flintstone,0.276165335,0.276165335,0.276165335,0.0,0.0,0.0,0.120190939,0.120190939,0.120190939,0.875180862,0.875180862,0.875180862
Riverdale,0.365507529,0.726665791,0.54608666,0.0,0.0,0.0,0.0070553,0.771135606,0.389095453,0.692585737,0.757283113,0.724934425
Cherrylog,0.358787776,0.358787776,0.358787776,0.0,0.0,0.0,0.225601681,0.225601681,0.225601681,0.181398107,0.181398107,0.181398107
Baldwin,0.497431929,0.497431929,0.497431929,0.0,0.0,0.0,0.303048981,0.303048981,0.303048981,0.696453849,0.696453849,0.696453849
Winterville,0.248728523,0.248728523,0.248728523,0.0,0.0,0.0,0.338157509,0.338157509,0.338157509,0.095736179,0.095736179,0.095736179
Smithville,0.914427949,0.914427949,0.914427949,0.0,0.0,0.0,0.90695082,0.90695082,0.90695082,0.116850009,0.116850009,0.116850009
Ellenwood,0.974094665,0.974094665,0.974094665,0.0,0.0,0.0,0.820207157,0.820207157,0.820207157,0.196152428,0.196152428,0.196152428
Hawkinsville,0.54940502,0.54940502,0.54940502,0.0,0.0,0.0,0.90200369,0.90200369,0.90200369,0.954526606,0.954526606,0.954526606
Scotland,0.199547568,0.199547568,0.199547568,0.0,0.0,0.0,0.360263869,0.360263869,0.360263869,0.653070163,0.653070163,0.653070163
Atlanta,0.003229515,0.995812338,0.5310983226037737,0.0,0.0,0.0,0.002765063,0.98951324,0.5010560524622643,0.002546104,0.991411095,0.4812633585283017
Sparta,0.879132873,0.879132873,0.879132873,0.0,0.0,0.0,0.667265225,0.667265225,0.667265225,0.83166764,0.83166764,0.83166764
Bethlehem,0.785987606,0.785987606,0.785987606,0.0,0.0,0.0,0.408395902,0.408395902,0.408395902,0.127633479,0.127633479,0.127633479
Ellaville,0.500055166,0.500055166,0.500055166,0.0,0.0,0.0,0.675137215,0.675137215,0.675137215,0.840401219,0.840401219,0.840401219
Edison,0.843361003,0.843361003,0.843361003,0.0,0.0,0.0,0.265455633,0.265455633,0.265455633,0.012733215,0.012733215,0.012733215
Jackson,0.487958803,0.487958803,0.487958803,0.0,0.0,0.0,0.398136982,0.398136982,0.398136982,0.585804623,0.585804623,0.585804623
Camak,0.560812202,0.560812202,0.560812202,0.0,0.0,0.0,0.926280007,0.926280007,0.926280007,0.425617483,0.425617483,0.425617483
Climax,0.308405817,0.308405817,0.308405817,0.0,0.0,0.0,0.121212761,0.121212761,0.121212761,0.513249978,0.513249978,0.513249978
Sylvester,0.643458927,0.643458927,0.643458927,0.0,0.0,0.0,0.839913777,0.839913777,0.839913777,0.36290174,0.36290174,0.36290174
Epworth,0.753899246,0.753899246,0.753899246,0.0,0.0,0.0,0.73695122,0.73695122,0.73695122,0.307913389,0.307913389,0.307913389
Collins,0.517583429,0.517583429,0.517583429,0.0,0.0,0.0,0.736938124,0.736938124,0.736938124,0.099773567,0.099773567,0.099773567
Buford,0.157135867,0.428461025,0.30207655633333336,0.0,0.0,0.0,0.055623586,0.392299769,0.18418476533333336,0.799769073,0.969901165,0.8697520723333333
Martin,0.178824103,0.178824103,0.178824103,0.0,0.0,0.0,0.584702714,0.584702714,0.584702714,0.799985466,0.799985466,0.799985466
Pitts,0.874250825,0.874250825,0.874250825,0.0,0.0,0.0,0.881682752,0.881682752,0.881682752,0.212467372,0.212467372,0.212467372
Crescent,0.861643161,0.861643161,0.861643161,0.0,0.0,0.0,0.416809121,0.416809121,0.416809121,0.342065039,0.342065039,0.342065039
Clarkdale,0.374034898,0.374034898,0.374034898,0.0,0.0,0.0,0.53596673,0.53596673,0.53596673,0.427226139,0.427226139,0.427226139
Hoboken,0.365369977,0.365369977,0.365369977,0.0,0.0,0.0,0.460880542,0.460880542,0.460880542,0.744109885,0.744109885,0.744109885
Ila,0.215420416,0.215420416,0.215420416,0.0,0.0,0.0,0.321106615,0.321106615,0.321106615,0.676990528,0.676990528,0.676990528
Saint Marys,0.920003762,0.920003762,0.920003762,0.0,0.0,0.0,0.473289861,0.473289861,0.473289861,0.092810521,0.092810521,0.092810521
Sugar Valley,0.6142372,0.6142372,0.6142372,0.0,0.0,0.0,0.535807805,0.535807805,0.535807805,0.407007823,0.407007823,0.407007823
Wrens,0.788080758,0.788080758,0.788080758,0.0,0.0,0.0,0.06477548,0.06477548,0.06477548,0.991922231,0.991922231,0.991922231
Gray,0.42142498,0.42142498,0.42142498,0.0,0.0,0.0,0.322771475,0.322771475,0.322771475,0.998850497,0.998850497,0.998850497
Perkins,0.879117385,0.879117385,0.879117385,0.0,0.0,0.0,0.160892851,0.160892851,0.160892851,0.29717367,0.29717367,0.29717367
Ellerslie,0.784935986,0.784935986,0.784935986,0.0,0.0,0.0,0.848016896,0.848016896,0.848016896,0.118334564,0.118334564,0.118334564
Clarkesville,0.082019863,0.082019863,0.082019863,0.0,0.0,0.0,0.073043073,0.073043073,0.073043073,0.682999761,0.682999761,0.682999761
Sharpsburg,0.486508213,0.486508213,0.486508213,0.0,0.0,0.0,0.292789853,0.292789853,0.292789853,0.722484887,0.722484887,0.722484887
Fort Stewart,0.059259526,0.434647858,0.246953692,0.0,0.0,0.0,0.265635465,0.585740036,0.4256877505,0.423383044,0.982318906,0.702850975
Perry,0.184456315,0.184456315,0.184456315,0.0,0.0,0.0,0.797226848,0.797226848,0.797226848,0.689842711,0.689842711,0.689842711
Felton,0.149520807,0.149520807,0.149520807,0.0,0.0,0.0,0.263183827,0.263183827,0.263183827,0.697013646,0.697013646,0.697013646
Helena,0.98068928,0.98068928,0.98068928,0.0,0.0,0.0,0.820688483,0.820688483,0.820688483,0.612538111,0.612538111,0.612538111
Newington,0.313488046,0.313488046,0.313488046,0.0,0.0,0.0,0.413590092,0.413590092,0.413590092,0.34592603,0.34592603,0.34592603
Cumming,0.018174464,0.828550875,0.5402986393333333,0.0,0.0,0.0,0.144180223,0.673116746,0.48517619,0.20468916,0.353950594,0.299284269
Harlem,0.039225491,0.039225491,0.039225491,0.0,0.0,0.0,0.835536897,0.835536897,0.835536897,0.558346851,0.558346851,0.558346851
Crawfordville,0.281349559,0.281349559,0.281349559,0.0,0.0,0.0,0.067085998,0.067085998,0.067085998,0.401434734,0.401434734,0.401434734
Sautee Nacoochee,0.980400936,0.980400936,0.980400936,0.0,0.0,0.0,0.819363195,0.819363195,0.819363195,0.215418949,0.215418949,0.215418949
Covington,0.598313421,0.7440997,0.6782872426666667,0.0,0.0,0.0,0.068555678,0.922709719,0.4787805096666667,0.091516229,0.636889398,0.32233413633333335
Centerville,0.650475481,0.650475481,0.650475481,0.0,0.0,0.0,0.436905815,0.436905815,0.436905815,0.208587666,0.208587666,0.208587666
Lexington,0.682692879,0.682692879,0.682692879,0.0,0.0,0.0,0.178852979,0.178852979,0.178852979,0.649658475,0.649658475,0.649658475
Madison,0.297488533,0.297488533,0.297488533,0.0,0.0,0.0,0.913702958,0.913702958,0.913702958,0.818080506,0.818080506,0.818080506
Tarrytown,0.153720668,0.153720668,0.153720668,0.0,0.0,0.0,0.088214729,0.088214729,0.088214729,0.25186466,0.25186466,0.25186466
Lumpkin,0.86633655,0.86633655,0.86633655,0.0,0.0,0.0,0.190983794,0.190983794,0.190983794,0.426378926,0.426378926,0.426378926
Union City,0.365101559,0.365101559,0.365101559,0.0,0.0,0.0,0.22237262,0.22237262,0.22237262,0.169695524,0.169695524,0.169695524
Lawrenceville,0.074984075,0.820844127,0.4303165155,0.0,0.0,0.0,0.011318491,0.554130669,0.21627384483333334,0.179322922,0.835621894,0.47305641449999997
Daisy,0.927437766,0.927437766,0.927437766,0.0,0.0,0.0,0.892814329,0.892814329,0.892814329,0.474875521,0.474875521,0.474875521
Bluffton,0.293496066,0.293496066,0.293496066,0.0,0.0,0.0,0.012826099,0.012826099,0.012826099,0.545420559,0.545420559,0.545420559
Maxeys,0.823016428,0.823016428,0.823016428,0.0,0.0,0.0,0.161848913,0.161848913,0.161848913,0.752841708,0.752841708,0.752841708
Alma,0.259291203,0.259291203,0.259291203,0.0,0.0,0.0,0.024697525,0.024697525,0.024697525,0.801741685,0.801741685,0.801741685
Toccoa Falls,0.047075845,0.047075845,0.047075845,0.0,0.0,0.0,0.155407146,0.155407146,0.155407146,0.795877073,0.795877073,0.795877073
Varnell,0.951509347,0.951509347,0.951509347,0.0,0.0,0.0,0.182302998,0.182302998,0.182302998,0.590347529,0.590347529,0.590347529
Oakman,0.161599847,0.161599847,0.161599847,0.0,0.0,0.0,0.201388765,0.201388765,0.201388765,0.389835621,0.389835621,0.389835621
Dixie,0.568325559,0.568325559,0.568325559,0.0,0.0,0.0,0.229911344,0.229911344,0.229911344,0.522741629,0.522741629,0.522741629
Colquitt,0.141748127,0.141748127,0.141748127,0.0,0.0,0.0,0.667847991,0.667847991,0.667847991,0.882796418,0.882796418,0.882796418
Camilla,0.238172443,0.238172443,0.238172443,0.0,0.0,0.0,0.057933312,0.057933312,0.057933312,0.472480889,0.472480889,0.472480889
Dallas,0.545550546,0.99941829,0.772484418,0.0,0.0,0.0,0.324611478,0.815282822,0.56994715,0.135363028,0.671338805,0.4033509165
Clarkston,0.235448126,0.235448126,0.235448126,0.0,0.0,0.0,0.596122929,0.596122929,0.596122929,0.746473688,0.746473688,0.746473688
Stephens,0.769905683,0.769905683,0.769905683,0.0,0.0,0.0,0.294020191,0.294020191,0.294020191,0.980099823,0.980099823,0.980099823
Cadwell,0.878262615,0.878262615,0.878262615,0.0,0.0,0.0,0.973895426,0.973895426,0.973895426,0.598368299,0.598368299,0.598368299
Summerville,0.554753459,0.554753459,0.554753459,0.0,0.0,0.0,0.345791075,0.345791075,0.345791075,0.207332642,0.207332642,0.207332642
Woodland,0.071122364,0.071122364,0.071122364,0.0,0.0,0.0,0.167071571,0.167071571,0.167071571,0.252264228,0.252264228,0.252264228
Lizella,0.672820184,0.672820184,0.672820184,0.0,0.0,0.0,0.46966462,0.46966462,0.46966462,0.959994474,0.959994474,0.959994474
Woodstock,0.040149861,0.582025611,0.311087736,0.0,0.0,0.0,0.424822356,0.906196309,0.6655093325,0.138571152,0.209559758,0.174065455
Cotton,0.398743896,0.398743896,0.398743896,0.0,0.0,0.0,0.976865501,0.976865501,0.976865501,0.892829256,0.892829256,0.892829256
Mc Intyre,0.9772774,0.9772774,0.9772774,0.0,0.0,0.0,0.322031809,0.322031809,0.322031809,0.043224211,0.043224211,0.043224211
Calvary,0.562768416,0.562768416,0.562768416,0.0,0.0,0.0,0.233571014,0.233571014,0.233571014,0.593389678,0.593389678,0.593389678
Winston,0.501372403,0.501372403,0.501372403,0.0,0.0,0.0,0.174733817,0.174733817,0.174733817,0.998231969,0.998231969,0.998231969
Rome,0.036632651,0.542317428,0.28725332960000005,0.0,0.0,0.0,0.056615557,0.804153884,0.44532223139999993,0.179903966,0.80434705,0.500695714
Farmington,0.212819146,0.212819146,0.212819146,0.0,0.0,0.0,0.118092012,0.118092012,0.118092012,0.903280624,0.903280624,0.903280624
Molena,0.75235627,0.75235627,0.75235627,0.0,0.0,0.0,0.59889314,0.59889314,0.59889314,0.336103835,0.336103835,0.336103835
Pendergrass,0.010503125,0.010503125,0.010503125,0.0,0.0,0.0,0.5473203,0.5473203,0.5473203,0.373924294,0.373924294,0.373924294
Social Circle,0.950456639,0.950456639,0.950456639,0.0,0.0,0.0,0.972110214,0.972110214,0.972110214,0.14324566,0.14324566,0.14324566
Sycamore,0.803717421,0.803717421,0.803717421,0.0,0.0,0.0,0.86215249,0.86215249,0.86215249,0.549016089,0.549016089,0.549016089
Nahunta,0.677669671,0.677669671,0.677669671,0.0,0.0,0.0,0.125998248,0.125998248,0.125998248,0.11624751,0.11624751,0.11624751
Tunnel Hill,0.922644212,0.922644212,0.922644212,0.0,0.0,0.0,0.875363841,0.875363841,0.875363841,0.154983407,0.154983407,0.154983407
Offerman,0.618348628,0.618348628,0.618348628,0.0,0.0,0.0,0.933810868,0.933810868,0.933810868,0.211528973,0.211528973,0.211528973
Iron City,0.434268388,0.434268388,0.434268388,0.0,0.0,0.0,0.907657307,0.907657307,0.907657307,0.694570305,0.694570305,0.694570305
Mountain City,0.052974166,0.052974166,0.052974166,0.0,0.0,0.0,0.93526392,0.93526392,0.93526392,0.665271889,0.665271889,0.665271889
Valdosta,0.083392618,0.827507794,0.4882153691428571,0.0,0.0,0.0,0.244625471,0.879897029,0.49896701100000007,0.075821317,0.710300173,0.29543774899999997
Smyrna,0.017530595,0.677437946,0.40140510599999996,0.0,0.0,0.0,0.578737237,0.903231302,0.791560815,0.032170954,0.542065881,0.30370435166666665
Kingston,0.149032471,0.149032471,0.149032471,0.0,0.0,0.0,0.656768097,0.656768097,0.656768097,0.408069639,0.408069639,0.408069639
Andersonville,0.425103924,0.425103924,0.425103924,0.0,0.0,0.0,0.064770084,0.064770084,0.064770084,0.851181938,0.851181938,0.851181938
Clinchfield,0.629244245,0.629244245,0.629244245,0.0,0.0,0.0,0.944563278,0.944563278,0.944563278,0.423211821,0.423211821,0.423211821
Demorest,0.156641354,0.801814795,0.4792280745,0.0,0.0,0.0,0.02484778,0.781851114,0.40334944699999997,0.446228375,0.571247831,0.508738103
Cochran,0.105623724,0.105623724,0.105623724,0.0,0.0,0.0,0.094688601,0.094688601,0.094688601,0.889018258,0.889018258,0.889018258
Dewy Rose,0.440216882,0.440216882,0.440216882,0.0,0.0,0.0,0.891657938,0.891657938,0.891657938,0.703128903,0.703128903,0.703128903
Davisboro,0.881750656,0.881750656,0.881750656,0.0,0.0,0.0,0.237937898,0.237937898,0.237937898,0.411504229,0.411504229,0.411504229
Ball Ground,0.380194721,0.380194721,0.380194721,0.0,0.0,0.0,0.005440399,0.005440399,0.005440399,0.60442247,0.60442247,0.60442247
Fairmount,0.473429912,0.473429912,0.473429912,0.0,0.0,0.0,0.068555646,0.068555646,0.068555646,0.97720324,0.97720324,0.97720324
Pinehurst,0.137782865,0.137782865,0.137782865,0.0,0.0,0.0,0.305679525,0.305679525,0.305679525,0.159144088,0.159144088,0.159144088
Attapulgus,0.59570301,0.59570301,0.59570301,0.0,0.0,0.0,0.307392611,0.307392611,0.307392611,0.495104307,0.495104307,0.495104307
Dry Branch,0.764965092,0.764965092,0.764965092,0.0,0.0,0.0,0.401847882,0.401847882,0.401847882,0.53969626,0.53969626,0.53969626
Fitzgerald,0.387436619,0.387436619,0.387436619,0.0,0.0,0.0,0.860589503,0.860589503,0.860589503,0.009853058,0.009853058,0.009853058
Wray,0.217031326,0.217031326,0.217031326,0.0,0.0,0.0,0.440316543,0.440316543,0.440316543,0.646696338,0.646696338,0.646696338
Reidsville,0.346382712,0.729947377,0.5381650445,0.0,0.0,0.0,0.135018601,0.616419008,0.3757188045,0.081420085,0.285702058,0.1835610715
Rabun Gap,0.569474119,0.569474119,0.569474119,0.0,0.0,0.0,0.47723264,0.47723264,0.47723264,0.108761773,0.108761773,0.108761773
Graysville,0.694321316,0.694321316,0.694321316,0.0,0.0,0.0,0.805737093,0.805737093,0.805737093,0.348426251,0.348426251,0.348426251
Pembroke,0.781629882,0.781629882,0.781629882,0.0,0.0,0.0,0.41922258,0.41922258,0.41922258,0.656378139,0.656378139,0.656378139
Warwick,0.052613192,0.052613192,0.052613192,0.0,0.0,0.0,0.315736286,0.315736286,0.315736286,0.324528288,0.324528288,0.324528288
Ty Ty,0.738092927,0.738092927,0.738092927,0.0,0.0,0.0,0.883992918,0.883992918,0.883992918,0.48762,0.48762,0.48762
Hiawassee,0.826853836,0.826853836,0.826853836,0.0,0.0,0.0,0.069830933,0.069830933,0.069830933,0.9217201,0.9217201,0.9217201
Coleman,0.711536186,0.711536186,0.711536186,0.0,0.0,0.0,0.927166215,0.927166215,0.927166215,0.243295825,0.243295825,0.243295825
Waco,0.267213194,0.267213194,0.267213194,0.0,0.0,0.0,0.548093809,0.548093809,0.548093809,0.458433692,0.458433692,0.458433692
Manor,0.9456336,0.9456336,0.9456336,0.0,0.0,0.0,0.298304741,0.298304741,0.298304741,0.372334453,0.372334453,0.372334453
Alpharetta,0.483767475,0.806613622,0.6308936172,0.0,0.0,0.0,0.073772982,0.754550055,0.42425471340000004,0.402138089,0.939301903,0.6616100058
Saint Simons Island,0.549019306,0.549019306,0.549019306,0.0,0.0,0.0,0.588195952,0.588195952,0.588195952,0.794008438,0.794008438,0.794008438
Evans,0.795684994,0.795684994,0.795684994,0.0,0.0,0.0,0.410235288,0.410235288,0.410235288,0.195186243,0.195186243,0.195186243
Reynolds,0.766148108,0.766148108,0.766148108,0.0,0.0,0.0,0.443450863,0.443450863,0.443450863,0.186447234,0.186447234,0.186447234
Suches,0.84680242,0.84680242,0.84680242,0.0,0.0,0.0,0.288559888,0.288559888,0.288559888,0.362444142,0.362444142,0.362444142
Dacula,0.983750623,0.983750623,0.983750623,0.0,0.0,0.0,0.809779088,0.809779088,0.809779088,0.96367606,0.96367606,0.96367606
Calhoun,0.491604802,0.49934668,0.495475741,0.0,0.0,0.0,0.61496843,0.953410422,0.784189426,0.434655749,0.741401427,0.588028588
De Soto,0.093742287,0.093742287,0.093742287,0.0,0.0,0.0,0.172824562,0.172824562,0.172824562,0.416356213,0.416356213,0.416356213
Swainsboro,0.529779289,0.529779289,0.529779289,0.0,0.0,0.0,0.143330548,0.143330548,0.143330548,0.803175945,0.803175945,0.803175945
Tallapoosa,0.580570193,0.580570193,0.580570193,0.0,0.0,0.0,0.508714387,0.508714387,0.508714387,0.656788222,0.656788222,0.656788222
Nunez,0.624217898,0.624217898,0.624217898,0.0,0.0,0.0,0.910598509,0.910598509,0.910598509,0.060779695,0.060779695,0.060779695
Culloden,0.896663121,0.896663121,0.896663121,0.0,0.0,0.0,0.929095532,0.929095532,0.929095532,0.525426269,0.525426269,0.525426269
Royston,0.063474874,0.063474874,0.063474874,0.0,0.0,0.0,0.357260831,0.357260831,0.357260831,0.231020713,0.231020713,0.231020713
Gordon,0.242717871,0.242717871,0.242717871,0.0,0.0,0.0,0.687679325,0.687679325,0.687679325,0.76589736,0.76589736,0.76589736
Meridian,0.825279481,0.825279481,0.825279481,0.0,0.0,0.0,0.700371837,0.700371837,0.700371837,0.981411862,0.981411862,0.981411862
Dover,0.574267624,0.574267624,0.574267624,0.0,0.0,0.0,0.836359253,0.836359253,0.836359253,0.839568238,0.839568238,0.839568238
Morrow,0.118933321,0.527778445,0.323355883,0.0,0.0,0.0,0.010766846,0.108645087,0.0597059665,0.58196077,0.712360803,0.6471607865
East Dublin,0.977010178,0.977010178,0.977010178,0.0,0.0,0.0,0.890209957,0.890209957,0.890209957,0.684288878,0.684288878,0.684288878
Chauncey,0.847330028,0.847330028,0.847330028,0.0,0.0,0.0,0.098527313,0.098527313,0.098527313,0.75170741,0.75170741,0.75170741
Norcross,0.244444765,0.781831788,0.5201593148333333,0.0,0.0,0.0,0.146443505,0.924262694,0.5537274913333334,0.580524779,0.980138251,0.7352375878333333
Talmo,0.161337042,0.161337042,0.161337042,0.0,0.0,0.0,0.376890487,0.376890487,0.376890487,0.461540044,0.461540044,0.461540044
White Plains,0.913341702,0.913341702,0.913341702,0.0,0.0,0.0,0.039406071,0.039406071,0.039406071,0.189306121,0.189306121,0.189306121
Donalsonville,0.497841885,0.497841885,0.497841885,0.0,0.0,0.0,0.167104091,0.167104091,0.167104091,0.794149735,0.794149735,0.794149735
Hinesville,0.042573669,0.808860111,0.42571689,0.0,0.0,0.0,0.677240568,0.869118041,0.7731793044999999,0.397568738,0.732676083,0.5651224105
Newnan,0.08039277,0.924986314,0.5725592107499999,0.0,0.0,0.0,0.34789125,0.696724405,0.518327644,0.429285991,0.783243528,0.64587820025
Dudley,0.18188307,0.18188307,0.18188307,0.0,0.0,0.0,0.936480023,0.936480023,0.936480023,0.726055913,0.726055913,0.726055913
Juliette,0.746805894,0.746805894,0.746805894,0.0,0.0,0.0,0.952525237,0.952525237,0.952525237,0.327249393,0.327249393,0.327249393
Abbeville,0.774528292,0.774528292,0.774528292,0.0,0.0,0.0,0.157766666,0.157766666,0.157766666,0.880820074,0.880820074,0.880820074
Dillard,0.241930121,0.241930121,0.241930121,0.0,0.0,0.0,0.949184909,0.949184909,0.949184909,0.027833988,0.027833988,0.027833988
Experiment,0.93246468,0.93246468,0.93246468,0.0,0.0,0.0,0.72952596,0.72952596,0.72952596,0.485209126,0.485209126,0.485209126
Sapelo Island,0.004151238,0.004151238,0.004151238,0.0,0.0,0.0,0.476700542,0.476700542,0.476700542,0.291275233,0.291275233,0.291275233
Bartow,0.333686507,0.333686507,0.333686507,0.0,0.0,0.0,0.58365055,0.58365055,0.58365055,0.63553749,0.63553749,0.63553749
Marble Hill,0.956527527,0.956527527,0.956527527,0.0,0.0,0.0,0.559126933,0.559126933,0.559126933,0.073359041,0.073359041,0.073359041
Barnesville,0.28824682,0.28824682,0.28824682,0.0,0.0,0.0,0.980854659,0.980854659,0.980854659,0.233726471,0.233726471,0.233726471
Keysville,0.885863095,0.885863095,0.885863095,0.0,0.0,0.0,0.019420999,0.019420999,0.019420999,0.141580087,0.141580087,0.141580087
Pine Lake,0.467444481,0.467444481,0.467444481,0.0,0.0,0.0,0.458842777,0.458842777,0.458842777,0.725567894,0.725567894,0.725567894
Guyton,0.204987551,0.204987551,0.204987551,0.0,0.0,0.0,0.610842862,0.610842862,0.610842862,0.385917073,0.385917073,0.385917073
Jersey,0.662639647,0.662639647,0.662639647,0.0,0.0,0.0,0.986513947,0.986513947,0.986513947,0.871359477,0.871359477,0.871359477
Cave Spring,0.286825937,0.286825937,0.286825937,0.0,0.0,0.0,0.632155899,0.632155899,0.632155899,0.254233896,0.254233896,0.254233896
Tucker,0.858950906,0.973937673,0.9164442895,0.0,0.0,0.0,0.587740001,0.777429676,0.6825848385,0.605455212,0.650655264,0.628055238
Grovetown,0.581602243,0.581602243,0.581602243,0.0,0.0,0.0,0.554075584,0.554075584,0.554075584,0.00774181,0.00774181,0.00774181
Broxton,0.255102315,0.255102315,0.255102315,0.0,0.0,0.0,0.246871645,0.246871645,0.246871645,0.398911993,0.398911993,0.398911993
Metter,0.890934775,0.890934775,0.890934775,0.0,0.0,0.0,0.317358531,0.317358531,0.317358531,0.771095366,0.771095366,0.771095366
Barwick,0.433519073,0.433519073,0.433519073,0.0,0.0,0.0,0.553359714,0.553359714,0.553359714,0.253860116,0.253860116,0.253860116
Jakin,0.447083059,0.447083059,0.447083059,0.0,0.0,0.0,0.423826216,0.423826216,0.423826216,0.362062709,0.362062709,0.362062709
Mount Airy,0.220496758,0.220496758,0.220496758,0.0,0.0,0.0,0.414106676,0.414106676,0.414106676,0.833528429,0.833528429,0.833528429
Preston,0.817337971,0.817337971,0.817337971,0.0,0.0,0.0,0.577379891,0.577379891,0.577379891,0.270967342,0.270967342,0.270967342
Young Harris,0.0138606,0.0138606,0.0138606,0.0,0.0,0.0,0.035680681,0.035680681,0.035680681,0.85548361,0.85548361,0.85548361
Good Hope,0.723583751,0.723583751,0.723583751,0.0,0.0,0.0,0.190403975,0.190403975,0.190403975,0.815971769,0.815971769,0.815971769
Boston,0.66987709,0.66987709,0.66987709,0.0,0.0,0.0,0.842761712,0.842761712,0.842761712,0.456217846,0.456217846,0.456217846
Elko,0.245050901,0.245050901,0.245050901,0.0,0.0,0.0,0.367053214,0.367053214,0.367053214,0.114416684,0.114416684,0.114416684
Pearson,0.4453808,0.4453808,0.4453808,0.0,0.0,0.0,0.541061232,0.541061232,0.541061232,0.661806131,0.661806131,0.661806131
Rock Spring,0.480495095,0.480495095,0.480495095,0.0,0.0,0.0,0.418590566,0.418590566,0.418590566,0.843547896,0.843547896,0.843547896
Louisville,0.594879091,0.594879091,0.594879091,0.0,0.0,0.0,0.318350567,0.318350567,0.318350567,0.190005111,0.190005111,0.190005111
Irwinton,0.576189526,0.576189526,0.576189526,0.0,0.0,0.0,0.713603798,0.713603798,0.713603798,0.659518348,0.659518348,0.659518348
Comer,0.215576987,0.215576987,0.215576987,0.0,0.0,0.0,0.899936502,0.899936502,0.899936502,0.662284391,0.662284391,0.662284391
Fleming,0.289790786,0.289790786,0.289790786,0.0,0.0,0.0,0.174622605,0.174622605,0.174622605,0.387794621,0.387794621,0.387794621
Pooler,0.183127646,0.183127646,0.183127646,0.0,0.0,0.0,0.460847461,0.460847461,0.460847461,0.967923477,0.967923477,0.967923477
Hartwell,0.371846848,0.371846848,0.371846848,0.0,0.0,0.0,0.988413762,0.988413762,0.988413762,0.349875018,0.349875018,0.349875018
Douglas,0.824352588,0.988656567,0.8885705513333333,0.0,0.0,0.0,0.230486663,0.643952199,0.3744184526666667,0.092814868,0.525844457,0.3773160056666667
Tybee Island,0.214247006,0.214247006,0.214247006,0.0,0.0,0.0,0.371353345,0.371353345,0.371353345,0.07848617,0.07848617,0.07848617
Alston,0.425367532,0.425367532,0.425367532,0.0,0.0,0.0,0.296751189,0.296751189,0.296751189,0.223362905,0.223362905,0.223362905
Cecil,0.1870657,0.1870657,0.1870657,0.0,0.0,0.0,0.77194045,0.77194045,0.77194045,0.301517769,0.301517769,0.301517769
Willacoochee,0.573335904,0.573335904,0.573335904,0.0,0.0,0.0,0.853444222,0.853444222,0.853444222,0.826806164,0.826806164,0.826806164
Cohutta,0.953291262,0.953291262,0.953291262,0.0,0.0,0.0,0.815211785,0.815211785,0.815211785,0.342610699,0.342610699,0.342610699
Avera,0.601096288,0.601096288,0.601096288,0.0,0.0,0.0,0.472681394,0.472681394,0.472681394,0.347834415,0.347834415,0.347834415
Shannon,0.347152303,0.347152303,0.347152303,0.0,0.0,0.0,0.35757694,0.35757694,0.35757694,0.279755652,0.279755652,0.279755652
Rocky Face,0.103433139,0.103433139,0.103433139,0.0,0.0,0.0,0.948172898,0.948172898,0.948172898,0.014921355,0.014921355,0.014921355
Scottdale,0.922013379,0.922013379,0.922013379,0.0,0.0,0.0,0.399515471,0.399515471,0.399515471,0.783552182,0.783552182,0.783552182
Athens,0.163024869,0.872480122,0.49316877569999995,0.0,0.0,0.0,0.128216548,0.671556252,0.4249536233000001,0.076856898,0.736894814,0.37047381049999994
Jefferson,0.34754391,0.34754391,0.34754391,0.0,0.0,0.0,0.551165223,0.551165223,0.551165223,0.908026099,0.908026099,0.908026099
Mershon,0.81189776,0.81189776,0.81189776,0.0,0.0,0.0,0.269563808,0.269563808,0.269563808,0.969053473,0.969053473,0.969053473
Hampton,0.458081156,0.458081156,0.458081156,0.0,0.0,0.0,0.202317343,0.202317343,0.202317343,0.298896899,0.298896899,0.298896899
Tignall,0.206782354,0.206782354,0.206782354,0.0,0.0,0.0,0.495020402,0.495020402,0.495020402,0.710414529,0.710414529,0.710414529
Buchanan,0.191849425,0.191849425,0.191849425,0.0,0.0,0.0,0.71275579,0.71275579,0.71275579,0.328351847,0.328351847,0.328351847
Sea Island,0.53513308,0.53513308,0.53513308,0.0,0.0,0.0,0.265594971,0.265594971,0.265594971,0.115545633,0.115545633,0.115545633
Fowlstown,0.370101748,0.370101748,0.370101748,0.0,0.0,0.0,0.031837453,0.031837453,0.031837453,0.789315243,0.789315243,0.789315243
Tennille,0.534246842,0.534246842,0.534246842,0.0,0.0,0.0,0.037073639,0.037073639,0.037073639,0.418628628,0.418628628,0.418628628
Roswell,0.100112455,0.957485985,0.42430260366666667,0.0,0.0,0.0,0.03613469,0.857366615,0.4555221933333333,0.23288773,0.416228308,0.35332600833333333
Orchard Hill,0.287412357,0.287412357,0.287412357,0.0,0.0,0.0,0.954362376,0.954362376,0.954362376,0.570700068,0.570700068,0.570700068
Garfield,0.977736169,0.977736169,0.977736169,0.0,0.0,0.0,0.221889808,0.221889808,0.221889808,0.291463071,0.291463071,0.291463071
Pelham,0.479546759,0.479546759,0.479546759,0.0,0.0,0.0,0.489468871,0.489468871,0.489468871,0.292339357,0.292339357,0.292339357
Naylor,0.319114819,0.319114819,0.319114819,0.0,0.0,0.0,0.701186741,0.701186741,0.701186741,0.363345329,0.363345329,0.363345329
Ideal,0.56514104,0.56514104,0.56514104,0.0,0.0,0.0,0.476965404,0.476965404,0.476965404,0.882357947,0.882357947,0.882357947
Du Pont,0.384707582,0.384707582,0.384707582,0.0,0.0,0.0,0.739101543,0.739101543,0.739101543,0.504758688,0.504758688,0.504758688
Cornelia,0.21617026,0.21617026,0.21617026,0.0,0.0,0.0,0.01957251,0.01957251,0.01957251,0.274893672,0.274893672,0.274893672
Mineral Bluff,0.526175375,0.526175375,0.526175375,0.0,0.0,0.0,0.177937426,0.177937426,0.177937426,0.411843102,0.411843102,0.411843102
Blythe,0.997809646,0.997809646,0.997809646,0.0,0.0,0.0,0.174542403,0.174542403,0.174542403,0.609382365,0.609382365,0.609382365
Lumber City,0.96542384,0.96542384,0.96542384,0.0,0.0,0.0,0.556066965,0.556066965,0.556066965,0.177302966,0.177302966,0.177302966
Argyle,0.169785326,0.169785326,0.169785326,0.0,0.0,0.0,0.109686678,0.109686678,0.109686678,0.887489845,0.887489845,0.887489845
Meldrim,0.047808885,0.047808885,0.047808885,0.0,0.0,0.0,0.111412609,0.111412609,0.111412609,0.727260075,0.727260075,0.727260075
Musella,0.601256396,0.601256396,0.601256396,0.0,0.0,0.0,0.609579673,0.609579673,0.609579673,0.408198875,0.408198875,0.408198875
Ashburn,0.605006456,0.605006456,0.605006456,0.0,0.0,0.0,0.289083743,0.289083743,0.289083743,0.156058341,0.156058341,0.156058341
Sasser,0.164346486,0.164346486,0.164346486,0.0,0.0,0.0,0.995301839,0.995301839,0.995301839,0.260138968,0.260138968,0.260138968
Norman Park,0.844478169,0.844478169,0.844478169,0.0,0.0,0.0,0.288735626,0.288735626,0.288735626,0.071220916,0.071220916,0.071220916
Louvale,0.303514242,0.303514242,0.303514242,0.0,0.0,0.0,0.317748804,0.317748804,0.317748804,0.621191827,0.621191827,0.621191827
Portal,0.359271499,0.359271499,0.359271499,0.0,0.0,0.0,0.125568395,0.125568395,0.125568395,0.52096822,0.52096822,0.52096822
Eastanollee,0.422198954,0.422198954,0.422198954,0.0,0.0,0.0,0.24859727,0.24859727,0.24859727,0.232034925,0.232034925,0.232034925
Tifton,0.216927451,0.976612635,0.596770043,0.0,0.0,0.0,0.068254839,0.907602449,0.48792864399999997,0.500223509,0.969472808,0.7348481585
Moody A F B,0.862939138,0.862939138,0.862939138,0.0,0.0,0.0,0.686417916,0.686417916,0.686417916,0.704704824,0.704704824,0.704704824
Fort Valley,0.882639443,0.882639443,0.882639443,0.0,0.0,0.0,0.90372225,0.90372225,0.90372225,0.769501367,0.769501367,0.769501367
Lovejoy,0.291208335,0.291208335,0.291208335,0.0,0.0,0.0,0.499194597,0.499194597,0.499194597,0.157287011,0.157287011,0.157287011
Esom Hill,0.489785943,0.489785943,0.489785943,0.0,0.0,0.0,0.474828215,0.474828215,0.474828215,0.442305669,0.442305669,0.442305669
Leslie,0.27196902,0.27196902,0.27196902,0.0,0.0,0.0,0.565457918,0.565457918,0.565457918,0.300947987,0.300947987,0.300947987
Bellville,0.82063613,0.82063613,0.82063613,0.0,0.0,0.0,0.848941881,0.848941881,0.848941881,0.633939295,0.633939295,0.633939295
Watkinsville,0.856501826,0.856501826,0.856501826,0.0,0.0,0.0,0.708387935,0.708387935,0.708387935,0.347512461,0.347512461,0.347512461
Sandersville,0.27820121,0.27820121,0.27820121,0.0,0.0,0.0,0.4530229,0.4530229,0.4530229,0.36683974,0.36683974,0.36683974
Avondale Estates,0.552872376,0.552872376,0.552872376,0.2587,0.2587,0.2587,0.037793375,0.037793375,0.037793375,0.302531811,0.302531811,0.302531811
Mount Berry,0.630526545,0.630526545,0.630526545,0.0,0.0,0.0,0.284513932,0.284513932,0.284513932,0.521200389,0.521200389,0.521200389
Oxford,0.998516175,0.998516175,0.998516175,0.0,0.0,0.0,0.51000323,0.51000323,0.51000323,0.40348448,0.40348448,0.40348448
Homer,0.624616924,0.624616924,0.624616924,0.0,0.0,0.0,0.280375882,0.280375882,0.280375882,0.351847945,0.351847945,0.351847945
Gibson,0.892009413,0.892009413,0.892009413,0.0,0.0,0.0,0.105752962,0.105752962,0.105752962,0.108849691,0.108849691,0.108849691
Darien,0.489784763,0.489784763,0.489784763,0.0,0.0,0.0,0.761448854,0.761448854,0.761448854,0.516304816,0.516304816,0.516304816
Armuchee,0.947533375,0.947533375,0.947533375,0.0,0.0,0.0,0.319910856,0.319910856,0.319910856,0.499179562,0.499179562,0.499179562
Blakely,0.742159562,0.742159562,0.742159562,0.0,0.0,0.0,0.53208179,0.53208179,0.53208179,0.211694344,0.211694344,0.211694344
Mableton,0.677903606,0.677903606,0.677903606,0.0,0.0,0.0,0.745639948,0.745639948,0.745639948,0.075522352,0.075522352,0.075522352
Bainbridge,0.04863033,0.359878108,0.212488498,0.0,0.0,0.0,0.100714524,0.294326335,0.216031422,0.304389058,0.471122437,0.41476579166666666
Braselton,0.648255371,0.648255371,0.648255371,0.0,0.0,0.0,0.060267428,0.060267428,0.060267428,0.055378697,0.055378697,0.055378697
Lula,0.30166657,0.30166657,0.30166657,0.0,0.0,0.0,0.047823739,0.047823739,0.047823739,0.708485413,0.708485413,0.708485413
Rydal,0.510607302,0.510607302,0.510607302,0.0,0.0,0.0,0.209632121,0.209632121,0.209632121,0.358219209,0.358219209,0.358219209
West Green,0.026146628,0.026146628,0.026146628,0.0,0.0,0.0,0.813719027,0.813719027,0.813719027,0.002431722,0.002431722,0.002431722
Bonaire,0.284520626,0.284520626,0.284520626,0.0,0.0,0.0,0.512075086,0.512075086,0.512075086,0.252036497,0.252036497,0.252036497
Odum,0.085642903,0.085642903,0.085642903,0.0,0.0,0.0,0.814697909,0.814697909,0.814697909,0.081009798,0.081009798,0.081009798
Rebecca,0.945154617,0.945154617,0.945154617,0.0,0.0,0.0,0.08800433,0.08800433,0.08800433,0.317176772,0.317176772,0.317176772
Dalton,0.004371668,0.93803139,0.46031131300000006,0.0,0.0,0.0,0.405619225,0.966104738,0.615556297,0.032442494,0.849533147,0.56774938675
Baconton,0.9920806,0.9920806,0.9920806,0.0,0.0,0.0,0.507209525,0.507209525,0.507209525,0.820684077,0.820684077,0.820684077
Lilburn,0.010243619,0.252287504,0.1312655615,0.0,0.0,0.0,0.43511125,0.911410852,0.673261051,0.313899265,0.615910591,0.464904928
Hagan,0.233087446,0.233087446,0.233087446,0.0,0.0,0.0,0.867391994,0.867391994,0.867391994,0.170670297,0.170670297,0.170670297
Nicholson,0.314160754,0.314160754,0.314160754,0.0,0.0,0.0,0.916237046,0.916237046,0.916237046,0.848499995,0.848499995,0.848499995
Wrightsville,0.839346569,0.839346569,0.839346569,0.0,0.0,0.0,0.060544096,0.060544096,0.060544096,0.441973268,0.441973268,0.441973268
Brooklet,0.785530664,0.785530664,0.785530664,0.0,0.0,0.0,0.902203826,0.902203826,0.902203826,0.815883774,0.815883774,0.815883774
Tennga,0.363895299,0.363895299,0.363895299,0.0,0.0,0.0,0.301718745,0.301718745,0.301718745,0.34118292,0.34118292,0.34118292
Dexter,0.75670534,0.75670534,0.75670534,0.0,0.0,0.0,0.611967782,0.611967782,0.611967782,0.761646496,0.761646496,0.761646496
Brunswick,0.136206917,0.926885909,0.49290713299999994,0.0,0.0,0.0,0.222733727,0.851551519,0.5913813068,0.31478304,0.90422116,0.5258148112
Plainville,0.734512106,0.734512106,0.734512106,0.0,0.0,0.0,0.715444355,0.715444355,0.715444355,0.194721978,0.194721978,0.194721978
Carnesville,0.124563863,0.124563863,0.124563863,0.0,0.0,0.0,0.590252198,0.590252198,0.590252198,0.450027416,0.450027416,0.450027416
Franklin Springs,0.035138583,0.035138583,0.035138583,0.0,0.0,0.0,0.360190089,0.360190089,0.360190089,0.368024698,0.368024698,0.368024698
Dahlonega,0.103711241,0.441875723,0.272793482,0.0,0.0,0.0,0.392642995,0.743323612,0.5679833034999999,0.793337394,0.794001155,0.7936692745
Chestnut Mountain,0.525378112,0.525378112,0.525378112,0.0,0.0,0.0,0.522723246,0.522723246,0.522723246,0.836643403,0.836643403,0.836643403
Turnerville,0.33735025,0.33735025,0.33735025,0.0,0.0,0.0,0.488516213,0.488516213,0.488516213,0.857768902,0.857768902,0.857768902
Poulan,0.270414706,0.270414706,0.270414706,0.0,0.0,0.0,0.933068843,0.933068843,0.933068843,0.020703103,0.020703103,0.020703103
Roopville,0.705996925,0.705996925,0.705996925,0.0,0.0,0.0,0.663599182,0.663599182,0.663599182,0.397853331,0.397853331,0.397853331
Hull,0.326539408,0.326539408,0.326539408,0.0,0.0,0.0,0.215833195,0.215833195,0.215833195,0.850527598,0.850527598,0.850527598
Rayle,0.472564493,0.472564493,0.472564493,0.0,0.0,0.0,0.690273623,0.690273623,0.690273623,0.019774005,0.019774005,0.019774005
Warthen,0.125744518,0.125744518,0.125744518,0.0,0.0,0.0,0.344834283,0.344834283,0.344834283,0.446859553,0.446859553,0.446859553
Bristol,0.625501184,0.625501184,0.625501184,0.0,0.0,0.0,0.886349802,0.886349802,0.886349802,0.066201428,0.066201428,0.066201428
Talking Rock,0.209919522,0.209919522,0.209919522,0.0,0.0,0.0,0.569325242,0.569325242,0.569325242,0.22536285,0.22536285,0.22536285
Adel,0.026848507,0.026848507,0.026848507,0.0,0.0,0.0,0.219467591,0.219467591,0.219467591,0.475038049,0.475038049,0.475038049
Mc Rae,0.647631024,0.647631024,0.647631024,0.0,0.0,0.0,0.741022692,0.741022692,0.741022692,0.864639099,0.864639099,0.864639099
Mount Zion,0.431116917,0.431116917,0.431116917,0.0,0.0,0.0,0.441260633,0.441260633,0.441260633,0.122939985,0.122939985,0.122939985
Cordele,0.038664148,0.643235133,0.3409496405,0.0,0.0,0.0,0.037692802,0.209620228,0.123656515,0.176286489,0.722070753,0.449178621
Franklin,0.597891017,0.597891017,0.597891017,0.0,0.0,0.0,0.820561912,0.820561912,0.820561912,0.453775835,0.453775835,0.453775835
Saint George,0.183952662,0.183952662,0.183952662,0.0,0.0,0.0,0.062029216,0.062029216,0.062029216,0.465100668,0.465100668,0.465100668
Yatesville,0.968380178,0.968380178,0.968380178,0.0,0.0,0.0,0.922592512,0.922592512,0.922592512,0.302606777,0.302606777,0.302606777
Midway,0.397686144,0.397686144,0.397686144,0.0,0.0,0.0,0.243440388,0.243440388,0.243440388,0.070917015,0.070917015,0.070917015
Junction City,0.418667166,0.418667166,0.418667166,0.0,0.0,0.0,0.807590906,0.807590906,0.807590906,0.316857309,0.316857309,0.316857309
Lyerly,0.970214274,0.970214274,0.970214274,0.0,0.0,0.0,0.193941415,0.193941415,0.193941415,0.809380791,0.809380791,0.809380791
Byron,0.536118052,0.536118052,0.536118052,0.0,0.0,0.0,0.936106629,0.936106629,0.936106629,0.267472238,0.267472238,0.267472238
North Metro,0.149459184,0.794701948,0.47208056600000003,0.0,0.0,0.0,0.549570546,0.935156825,0.7423636855,0.219930696,0.631111821,0.4255212585
Upatoi,0.784920957,0.784920957,0.784920957,0.0,0.0,0.0,0.708051493,0.708051493,0.708051493,0.583610539,0.583610539,0.583610539
Mcdonough,0.045254137,0.319274568,0.1822643525,0.0,0.0,0.0,0.326893312,0.752837836,0.539865574,0.437501174,0.768694262,0.603097718
Richland,0.496498736,0.496498736,0.496498736,0.0,0.0,0.0,0.312168643,0.312168643,0.312168643,0.166902387,0.166902387,0.166902387
Oakfield,0.8806293,0.8806293,0.8806293,0.0,0.0,0.0,0.207081189,0.207081189,0.207081189,0.7839533,0.7839533,0.7839533
Brookfield,0.526479193,0.526479193,0.526479193,0.0,0.0,0.0,0.476898973,0.476898973,0.476898973,0.375311087,0.375311087,0.375311087
Turin,0.952341392,0.952341392,0.952341392,0.0,0.0,0.0,0.165624027,0.165624027,0.165624027,0.703953359,0.703953359,0.703953359
Denton,0.166548629,0.166548629,0.166548629,0.0,0.0,0.0,0.95265908,0.95265908,0.95265908,0.91598783,0.91598783,0.91598783
Carlton,0.493117052,0.493117052,0.493117052,0.0,0.0,0.0,0.653311391,0.653311391,0.653311391,0.72744148,0.72744148,0.72744148
Acworth,0.284653073,0.793187288,0.5389201805,0.0,0.0,0.0,0.52303611,0.730753936,0.6268950230000001,0.307139123,0.806460479,0.5567998009999999
Ellenton,0.536574402,0.536574402,0.536574402,0.0,0.0,0.0,0.110531499,0.110531499,0.110531499,0.681444512,0.681444512,0.681444512
Rincon,0.247326571,0.247326571,0.247326571,0.0,0.0,0.0,0.068094226,0.068094226,0.068094226,0.880632409,0.880632409,0.880632409
Cataula,0.937084825,0.937084825,0.937084825,0.0,0.0,0.0,0.624358556,0.624358556,0.624358556,0.469295722,0.469295722,0.469295722
Savannah,0.063960786,0.836825362,0.42140311321052626,0.0,0.0,0.0,0.089280354,0.989926328,0.5473957062105264,0.043338496,0.97242952,0.6438672021052633
Adrian,0.337873329,0.337873329,0.337873329,0.0,0.0,0.0,0.499604157,0.499604157,0.499604157,0.906677258,0.906677258,0.906677258
La Fayette,0.607192973,0.607192973,0.607192973,0.0,0.0,0.0,0.988405539,0.988405539,0.988405539,0.468659493,0.468659493,0.468659493
Wadley,0.512012603,0.512012603,0.512012603,0.0,0.0,0.0,0.659604927,0.659604927,0.659604927,0.335640255,0.335640255,0.335640255
Lookout Mountain,0.941119683,0.941119683,0.941119683,0.0,0.0,0.0,0.834962252,0.834962252,0.834962252,0.434966016,0.434966016,0.434966016
Rex,0.710121347,0.710121347,0.710121347,0.0,0.0,0.0,0.324013455,0.324013455,0.324013455,0.256006956,0.256006956,0.256006956
Kings Bay,0.125357707,0.125357707,0.125357707,0.0,0.0,0.0,0.161071529,0.161071529,0.161071529,0.305815312,0.305815312,0.305815312
Tiger,0.838951866,0.838951866,0.838951866,0.0,0.0,0.0,0.383973478,0.383973478,0.383973478,0.278595137,0.278595137,0.278595137
Bishop,0.67134686,0.67134686,0.67134686,0.0,0.0,0.0,0.919600974,0.919600974,0.919600974,0.811237182,0.811237182,0.811237182
Gough,0.830010504,0.830010504,0.830010504,0.0,0.0,0.0,0.067490252,0.067490252,0.067490252,0.875133067,0.875133067,0.875133067
Uvalda,0.740656949,0.740656949,0.740656949,0.0,0.0,0.0,0.045812556,0.045812556,0.045812556,0.064462721,0.064462721,0.064462721
Claxton,0.321656286,0.321656286,0.321656286,0.0,0.0,0.0,0.449164341,0.449164341,0.449164341,0.660210653,0.660210653,0.660210653
Bowdon Junction,0.999524255,0.999524255,0.999524255,0.0,0.0,0.0,0.646319145,0.646319145,0.646319145,0.223089589,0.223089589,0.223089589
Arnoldsville,0.756917027,0.756917027,0.756917027,0.0,0.0,0.0,0.976400462,0.976400462,0.976400462,0.512950115,0.512950115,0.512950115
Pulaski,0.108234885,0.108234885,0.108234885,0.0,0.0,0.0,0.286209444,0.286209444,0.286209444,0.933226974,0.933226974,0.933226974
Buckhead,0.248930322,0.248930322,0.248930322,0.0,0.0,0.0,0.94544535,0.94544535,0.94544535,0.113990293,0.113990293,0.113990293
Sylvania,0.677324859,0.677324859,0.677324859,0.0,0.0,0.0,0.848704055,0.848704055,0.848704055,0.09960626,0.09960626,0.09960626
Blairsville,0.457313463,0.756755895,0.607034679,0.0,0.0,0.0,0.325381636,0.95041788,0.637899758,0.613753845,0.7833394,0.6985466225
Georgetown,0.452156789,0.452156789,0.452156789,0.0,0.0,0.0,0.433198093,0.433198093,0.433198093,0.192102716,0.192102716,0.192102716
Flowery Branch,0.923565058,0.923565058,0.923565058,0.0,0.0,0.0,0.669236633,0.669236633,0.669236633,0.782726318,0.782726318,0.782726318
Griffin,0.308279343,0.662115867,0.485197605,0.0,0.0,0.0,0.058060073,0.193152211,0.125606142,0.350350995,0.390973167,0.370662081
Flovilla,0.397099678,0.397099678,0.397099678,0.0,0.0,0.0,0.748501068,0.748501068,0.748501068,0.340137433,0.340137433,0.340137433
Midville,0.116302259,0.116302259,0.116302259,0.0,0.0,0.0,0.067213828,0.067213828,0.067213828,0.788628625,0.788628625,0.788628625
Coosa,0.999337789,0.999337789,0.999337789,0.0,0.0,0.0,0.095367612,0.095367612,0.095367612,0.480001781,0.480001781,0.480001781
Lindale,0.686719626,0.686719626,0.686719626,0.0,0.0,0.0,0.46667695,0.46667695,0.46667695,0.350703482,0.350703482,0.350703482
Blackshear,0.707113333,0.707113333,0.707113333,0.0,0.0,0.0,0.730908643,0.730908643,0.730908643,0.817570287,0.817570287,0.817570287
Crawford,0.24603921,0.24603921,0.24603921,0.0,0.0,0.0,0.250131139,0.250131139,0.250131139,0.529494252,0.529494252,0.529494252
Thomasville,0.186158797,0.989394675,0.58612554225,0.0,0.0,0.0,0.097907959,0.766544663,0.5077086264999999,0.090739398,0.948341291,0.5325091102499999
Omega,0.858409169,0.858409169,0.858409169,0.0,0.0,0.0,0.741779212,0.741779212,0.741779212,0.252653728,0.252653728,0.252653728
Richmond Hill,0.721008613,0.721008613,0.721008613,0.0,0.0,0.0,0.176091224,0.176091224,0.176091224,0.518592465,0.518592465,0.518592465
Hamilton,0.959657913,0.959657913,0.959657913,0.0,0.0,0.0,0.567200279,0.567200279,0.567200279,0.650312549,0.650312549,0.650312549
Peachtree City,0.360911438,0.750166469,0.5555389534999999,0.0,0.0,0.0,0.419513173,0.519827654,0.4696704135,0.064765817,0.590515659,0.32764073800000004
Norwood,0.905060759,0.905060759,0.905060759,0.0,0.0,0.0,0.838479293,0.838479293,0.838479293,0.974373616,0.974373616,0.974373616
Register,0.842784001,0.842784001,0.842784001,0.0,0.0,0.0,0.532898675,0.532898675,0.532898675,0.728699992,0.728699992,0.728699992
Suwanee,0.897930623,0.897930623,0.897930623,0.0,0.0,0.0,0.447825976,0.447825976,0.447825976,0.009888648,0.009888648,0.009888648
Conyers,0.336978607,0.777881964,0.5611304313333333,0.0,0.0,0.0,0.118302837,0.302487767,0.18956926300000002,0.247081012,0.708210301,0.5318200270000001
Eton,0.646700057,0.646700057,0.646700057,0.0,0.0,0.0,0.791696249,0.791696249,0.791696249,0.960302872,0.960302872,0.960302872
Harrison,0.497377414,0.497377414,0.497377414,0.0,0.0,0.0,0.183179364,0.183179364,0.183179364,0.027909397,0.027909397,0.027909397
Trenton,0.954452818,0.954452818,0.954452818,0.0,0.0,0.0,0.532222543,0.532222543,0.532222543,0.300270462,0.300270462,0.300270462
Arabi,0.447084397,0.447084397,0.447084397,0.0,0.0,0.0,0.536834116,0.536834116,0.536834116,0.042422913,0.042422913,0.042422913
Cobb,0.815061695,0.815061695,0.815061695,0.0,0.0,0.0,0.124249474,0.124249474,0.124249474,0.45362758,0.45362758,0.45362758
Duluth,0.34141648,0.885410156,0.6645833081999999,0.0,0.0,0.0,0.255193445,0.490601212,0.357501654,0.028839705,0.89263577,0.4746436291999999
High Shoals,0.143846582,0.143846582,0.143846582,0.0,0.0,0.0,0.368615817,0.368615817,0.368615817,0.728134662,0.728134662,0.728134662
Waverly,0.653616193,0.653616193,0.653616193,0.0,0.0,0.0,0.206553534,0.206553534,0.206553534,0.051280908,0.051280908,0.051280908
Omaha,0.850775695,0.850775695,0.850775695,0.0,0.0,0.0,0.903888573,0.903888573,0.903888573,0.603743387,0.603743387,0.603743387
Cobbtown,0.056683545,0.056683545,0.056683545,0.0,0.0,0.0,0.856334995,0.856334995,0.856334995,0.964420203,0.964420203,0.964420203
Stockbridge,0.023902438,0.023902438,0.023902438,0.0,0.0,0.0,0.5329386,0.5329386,0.5329386,0.377694427,0.377694427,0.377694427
Jekyll Island,0.060527119,0.060527119,0.060527119,0.0,0.0,0.0,0.072822065,0.072822065,0.072822065,0.346337635,0.346337635,0.346337635
Oglethorpe,0.793750877,0.793750877,0.793750877,0.0,0.0,0.0,0.728426986,0.728426986,0.728426986,0.642841253,0.642841253,0.642841253
Rocky Ford,0.922710612,0.922710612,0.922710612,0.0,0.0,0.0,0.77966981,0.77966981,0.77966981,0.85711486,0.85711486,0.85711486
Kingsland,0.624525618,0.624525618,0.624525618,0.0,0.0,0.0,0.836653014,0.836653014,0.836653014,0.598338764,0.598338764,0.598338764
Gillsville,0.208261425,0.208261425,0.208261425,0.0,0.0,0.0,0.953435483,0.953435483,0.953435483,0.431987644,0.431987644,0.431987644
Red Oak,0.340215398,0.340215398,0.340215398,0.0,0.0,0.0,0.157949897,0.157949897,0.157949897,0.968350369,0.968350369,0.968350369
Ailey,0.814232989,0.814232989,0.814232989,0.0,0.0,0.0,0.160793938,0.160793938,0.160793938,0.544847635,0.544847635,0.544847635
Buena Vista,0.107980032,0.107980032,0.107980032,0.0,0.0,0.0,0.708821011,0.708821011,0.708821011,0.631745355,0.631745355,0.631745355
Oconee,0.146342758,0.146342758,0.146342758,0.0,0.0,0.0,0.431143973,0.431143973,0.431143973,0.86412146,0.86412146,0.86412146
Sale City,0.714726629,0.714726629,0.714726629,0.0,0.0,0.0,0.940961913,0.940961913,0.940961913,0.079466568,0.079466568,0.079466568
Mc Caysville,0.85479772,0.85479772,0.85479772,0.0,0.0,0.0,0.578506304,0.578506304,0.578506304,0.700950449,0.700950449,0.700950449
Concord,0.168017256,0.168017256,0.168017256,0.0,0.0,0.0,0.028852015,0.028852015,0.028852015,0.091592187,0.091592187,0.091592187
Alto,0.437150488,0.578202892,0.50767669,0.0,0.0,0.0,0.324543315,0.434828259,0.379685787,0.530209168,0.743045677,0.6366274224999999
Bowersville,0.061393953,0.061393953,0.061393953,0.0,0.0,0.0,0.973977251,0.973977251,0.973977251,0.417728373,0.417728373,0.417728373
Millen,0.944818438,0.944818438,0.944818438,0.0,0.0,0.0,0.909179904,0.909179904,0.909179904,0.896195984,0.896195984,0.896195984
Pine Mountain Valley,0.099376415,0.099376415,0.099376415,0.0,0.0,0.0,0.27732397,0.27732397,0.27732397,0.017976704,0.017976704,0.017976704
Emerson,0.41786567,0.41786567,0.41786567,0.0,0.0,0.0,0.742045967,0.742045967,0.742045967,0.280779417,0.280779417,0.280779417
Byromville,0.788385924,0.788385924,0.788385924,0.0,0.0,0.0,0.847835867,0.847835867,0.847835867,0.884701834,0.884701834,0.884701834
Howard,0.951070505,0.951070505,0.951070505,0.0,0.0,0.0,0.23836993,0.23836993,0.23836993,0.970759039,0.970759039,0.970759039
Jacksonville,0.984795638,0.984795638,0.984795638,0.0,0.0,0.0,0.836001315,0.836001315,0.836001315,0.917981511,0.917981511,0.917981511
Haralson,0.250816778,0.250816778,0.250816778,0.0,0.0,0.0,0.489146736,0.489146736,0.489146736,0.086945681,0.086945681,0.086945681
Chatsworth,0.323082602,0.323082602,0.323082602,0.0,0.0,0.0,0.25491323,0.25491323,0.25491323,0.263062616,0.263062616,0.263062616
Mitchell,0.31818183,0.31818183,0.31818183,0.0,0.0,0.0,0.529252784,0.529252784,0.529252784,0.384109849,0.384109849,0.384109849
Norristown,0.212217223,0.212217223,0.212217223,0.0,0.0,0.0,0.222038946,0.222038946,0.222038946,0.291569234,0.291569234,0.291569234
Kite,0.08899422,0.08899422,0.08899422,0.0,0.0,0.0,0.307993116,0.307993116,0.307993116,0.331829566,0.331829566,0.331829566
Funston,0.330872876,0.330872876,0.330872876,0.0,0.0,0.0,0.081160548,0.081160548,0.081160548,0.360034525,0.360034525,0.360034525
Arlington,0.711249567,0.711249567,0.711249567,0.0,0.0,0.0,0.351851592,0.351851592,0.351851592,0.689707848,0.689707848,0.689707848
White,0.462568721,0.462568721,0.462568721,0.0,0.0,0.0,0.835284962,0.835284962,0.835284962,0.928286339,0.928286339,0.928286339
Helen,0.223181555,0.223181555,0.223181555,0.0,0.0,0.0,0.814110665,0.814110665,0.814110665,0.541629615,0.541629615,0.541629615
Waleska,0.758282403,0.758282403,0.758282403,0.0,0.0,0.0,0.785812659,0.785812659,0.785812659,0.353098641,0.353098641,0.353098641
Maysville,0.860824451,0.860824451,0.860824451,0.0,0.0,0.0,0.792164538,0.792164538,0.792164538,0.55469216,0.55469216,0.55469216
Aragon,0.043878069,0.043878069,0.043878069,0.0,0.0,0.0,0.006778612,0.006778612,0.006778612,0.187248275,0.187248275,0.187248275
Murrayville,0.881032213,0.881032213,0.881032213,0.0,0.0,0.0,0.281213202,0.281213202,0.281213202,0.116748487,0.116748487,0.116748487
Taylorsville,0.077035257,0.077035257,0.077035257,0.0,0.0,0.0,0.818418621,0.818418621,0.818418621,0.281060288,0.281060288,0.281060288
Cedartown,0.740074939,0.740074939,0.740074939,0.0,0.0,0.0,0.477637634,0.477637634,0.477637634,0.359964319,0.359964319,0.359964319
Zebulon,0.402201507,0.402201507,0.402201507,0.0,0.0,0.0,0.404659,0.404659,0.404659,0.478427389,0.478427389,0.478427389
Lithonia,0.652410057,0.758273481,0.705341769,0.0,0.0,0.0,0.632816858,0.821694293,0.7272555755,0.757490341,0.938731962,0.8481111514999999
Lakemont,0.899961915,0.899961915,0.899961915,0.0,0.0,0.0,0.959763462,0.959763462,0.959763462,0.631295428,0.631295428,0.631295428
Conley,0.250735332,0.250735332,0.250735332,0.0,0.0,0.0,0.617928639,0.617928639,0.617928639,0.66353107,0.66353107,0.66353107
Girard,0.616722902,0.616722902,0.616722902,0.0,0.0,0.0,0.771455329,0.771455329,0.771455329,0.959040983,0.959040983,0.959040983
Woodbine,0.275080951,0.275080951,0.275080951,0.0,0.0,0.0,0.418817021,0.418817021,0.418817021,0.912808426,0.912808426,0.912808426
Kennesaw,0.06456388,0.687142651,0.30315788325,0.0,0.0,0.0,0.419912667,0.846128239,0.6952935892500001,0.407239241,0.577807419,0.49489553399999997
Mystic,0.78775702,0.78775702,0.78775702,0.0,0.0,0.0,0.956856227,0.956856227,0.956856227,0.91545037,0.91545037,0.91545037
Mauk,0.810645113,0.810645113,0.810645113,0.0,0.0,0.0,0.970652948,0.970652948,0.970652948,0.264251162,0.264251162,0.264251162
Pineview,0.150543034,0.150543034,0.150543034,0.0,0.0,0.0,0.912427365,0.912427365,0.912427365,0.283714057,0.283714057,0.283714057
Barney,0.866028973,0.866028973,0.866028973,0.0,0.0,0.0,0.064282226,0.064282226,0.064282226,0.953100391,0.953100391,0.953100391
Mount Vernon,0.878384852,0.878384852,0.878384852,0.0,0.0,0.0,0.543810418,0.543810418,0.543810418,0.294076086,0.294076086,0.294076086
West Point,0.233834895,0.233834895,0.233834895,0.0,0.0,0.0,0.552831711,0.552831711,0.552831711,0.937333379,0.937333379,0.937333379
Adairsville,0.821881653,0.821881653,0.821881653,0.0,0.0,0.0,0.936173844,0.936173844,0.936173844,0.81195022,0.81195022,0.81195022
Nelson,0.018803841,0.018803841,0.018803841,0.0,0.0,0.0,0.898566898,0.898566898,0.898566898,0.141947105,0.141947105,0.141947105
Glennville,0.389120084,0.389120084,0.389120084,0.0,0.0,0.0,0.85555156,0.85555156,0.85555156,0.32245467,0.32245467,0.32245467
Danville,0.261477077,0.261477077,0.261477077,0.0,0.0,0.0,0.126119194,0.126119194,0.126119194,0.380674547,0.380674547,0.380674547
Siloam,0.395213437,0.395213437,0.395213437,0.0,0.0,0.0,0.124243644,0.124243644,0.124243644,0.900995835,0.900995835,0.900995835
Temple,0.330668238,0.330668238,0.330668238,0.0,0.0,0.0,0.95640952,0.95640952,0.95640952,0.780609788,0.780609788,0.780609788
Hazlehurst,0.042584247,0.042584247,0.042584247,0.0,0.0,0.0,0.337990646,0.337990646,0.337990646,0.363638482,0.363638482,0.363638482
Albany,0.064056785,0.991900849,0.5528931499999999,0.0,0.0,0.0,0.059362848,0.999940746,0.5582863459999999,0.126115145,0.985892359,0.6930867311111112
Screven,0.263369648,0.263369648,0.263369648,0.0,0.0,0.0,0.849342852,0.849342852,0.849342852,0.2178145,0.2178145,0.2178145
Auburn,0.272821206,0.272821206,0.272821206,0.0,0.0,0.0,0.27494903,0.27494903,0.27494903,0.129392164,0.129392164,0.129392164
Luthersville,0.668368683,0.668368683,0.668368683,0.0,0.0,0.0,0.221288191,0.221288191,0.221288191,0.882925342,0.882925342,0.882925342
Stillmore,0.974571907,0.974571907,0.974571907,0.0,0.0,0.0,0.903776788,0.903776788,0.903776788,0.609328927,0.609328927,0.609328927
Crandall,0.870045994,0.870045994,0.870045994,0.0,0.0,0.0,0.659089569,0.659089569,0.659089569,0.788961378,0.788961378,0.788961378
White Oak,0.762877435,0.762877435,0.762877435,0.0,0.0,0.0,0.466315305,0.466315305,0.466315305,0.32638182,0.32638182,0.32638182
Nashville,0.468143152,0.468143152,0.468143152,0.0,0.0,0.0,0.67162718,0.67162718,0.67162718,0.552852805,0.552852805,0.552852805
Meansville,0.432165852,0.432165852,0.432165852,0.0,0.0,0.0,0.013116368,0.013116368,0.013116368,0.606199936,0.606199936,0.606199936
Berlin,0.439898019,0.439898019,0.439898019,0.0,0.0,0.0,0.4196209,0.4196209,0.4196209,0.962773488,0.962773488,0.962773488
Forsyth,0.996612837,0.996612837,0.996612837,0.0,0.0,0.0,0.605037275,0.605037275,0.605037275,0.658695742,0.658695742,0.658695742
Montezuma,0.121779587,0.121779587,0.121779587,0.0,0.0,0.0,0.39378642,0.39378642,0.39378642,0.193006247,0.193006247,0.193006247
Monticello,0.308170977,0.308170977,0.308170977,0.0,0.0,0.0,0.216973996,0.216973996,0.216973996,0.215363554,0.215363554,0.215363554
Forest Park,0.429037024,0.842635082,0.635836053,0.0,0.0,0.0,0.470215631,0.501854332,0.4860349815,0.022891382,0.661348167,0.3421197745
Walthourville,0.473074298,0.473074298,0.473074298,0.0,0.0,0.0,0.504131829,0.504131829,0.504131829,0.764557957,0.764557957,0.764557957
Rockledge,0.941679384,0.941679384,0.941679384,0.0,0.0,0.0,0.853628411,0.853628411,0.853628411,0.636861213,0.636861213,0.636861213
Cassville,0.10621443,0.10621443,0.10621443,0.0,0.0,0.0,0.347288658,0.347288658,0.347288658,0.076376252,0.076376252,0.076376252
Quitman,0.163701327,0.163701327,0.163701327,0.0,0.0,0.0,0.07324266,0.07324266,0.07324266,0.390878228,0.390878228,0.390878228
Roberta,0.674107404,0.674107404,0.674107404,0.0,0.0,0.0,0.344767367,0.344767367,0.344767367,0.291244885,0.291244885,0.291244885
Sharon,0.393863506,0.393863506,0.393863506,0.0,0.0,0.0,0.954535866,0.954535866,0.954535866,0.278487432,0.278487432,0.278487432
Union Point,0.788352469,0.788352469,0.788352469,0.0,0.0,0.0,0.114862081,0.114862081,0.114862081,0.316006966,0.316006966,0.316006966
Leary,0.726053405,0.726053405,0.726053405,0.0,0.0,0.0,0.601780248,0.601780248,0.601780248,0.018680506,0.018680506,0.018680506
Eatonton,0.350947522,0.48573037,0.418338946,0.0,0.0,0.0,0.077390524,0.896715623,0.4870530735,0.012650029,0.386410917,0.199530473
Fayetteville,0.176871686,0.249670519,0.2132711025,0.0,0.0,0.0,0.93414212,0.971119036,0.952630578,0.288077396,0.968683826,0.628380611
Glenn,0.038435235,0.038435235,0.038435235,0.0,0.0,0.0,0.465598965,0.465598965,0.465598965,0.037204033,0.037204033,0.037204033
Ocilla,0.26684688,0.26684688,0.26684688,0.0,0.0,0.0,0.819832158,0.819832158,0.819832158,0.699997957,0.699997957,0.699997957
Stone Mountain,0.556441027,0.949388281,0.71917720325,0.0,0.0,0.0,0.450647685,0.969405599,0.65365252425,0.053435117,0.647027195,0.35206540925
Hiram,0.952016859,0.952016859,0.952016859,0.0,0.0,0.0,0.141660719,0.141660719,0.141660719,0.270990467,0.270990467,0.270990467
Wildwood,0.083281175,0.083281175,0.083281175,0.0,0.0,0.0,0.141468899,0.141468899,0.141468899,0.923977956,0.923977956,0.923977956
Williamson,0.155155811,0.155155811,0.155155811,0.0,0.0,0.0,0.232506739,0.232506739,0.232506739,0.948273179,0.948273179,0.948273179
Hillsboro,0.745437221,0.745437221,0.745437221,0.0,0.0,0.0,0.125414916,0.125414916,0.125414916,0.013089674,0.013089674,0.013089674
Baxley,0.182494898,0.599719428,0.391107163,0.0,0.0,0.0,0.141952571,0.555360619,0.348656595,0.016277367,0.124968488,0.0706229275
Elberton,0.879969164,0.879969164,0.879969164,0.0,0.0,0.0,0.666765618,0.666765618,0.666765618,0.331434873,0.331434873,0.331434873
Warrenton,0.808530485,0.808530485,0.808530485,0.0,0.0,0.0,0.0299164,0.0299164,0.0299164,0.089249865,0.089249865,0.089249865
Box Springs,0.767715694,0.767715694,0.767715694,0.0,0.0,0.0,0.678144439,0.678144439,0.678144439,0.170211676,0.170211676,0.170211676
Coolidge,0.65459386,0.65459386,0.65459386,0.0,0.0,0.0,0.769132703,0.769132703,0.769132703,0.349027411,0.349027411,0.349027411
Lake Park,0.074858576,0.074858576,0.074858576,0.0,0.0,0.0,0.920836236,0.920836236,0.920836236,0.711755895,0.711755895,0.711755895
Moultrie,0.307739712,0.997831713,0.647803151,0.0,0.0,0.0,0.071404649,0.78807645,0.44623419833333333,0.416262723,0.900714307,0.6452003156666666
Irwinville,0.280388906,0.280388906,0.280388906,0.0,0.0,0.0,0.20565743,0.20565743,0.20565743,0.088703516,0.088703516,0.088703516
Oliver,0.350617407,0.350617407,0.350617407,0.0,0.0,0.0,0.658134387,0.658134387,0.658134387,0.272517522,0.272517522,0.272517522
Washington,0.203292378,0.203292378,0.203292378,0.0,0.0,0.0,0.140033275,0.140033275,0.140033275,0.82165623,0.82165623,0.82165623
Bolingbroke,0.406102108,0.406102108,0.406102108,0.0,0.0,0.0,0.55682051,0.55682051,0.55682051,0.148802144,0.148802144,0.148802144
Chickamauga,0.80715043,0.80715043,0.80715043,0.0,0.0,0.0,0.052523086,0.052523086,0.052523086,0.404425034,0.404425034,0.404425034
Clayton,0.173717569,0.173717569,0.173717569,0.0,0.0,0.0,0.467720307,0.467720307,0.467720307,0.664480901,0.664480901,0.664480901
Allenhurst,0.819214753,0.819214753,0.819214753,0.0,0.0,0.0,0.469218723,0.469218723,0.469218723,0.141338259,0.141338259,0.141338259
Seville,0.335550477,0.335550477,0.335550477,0.0,0.0,0.0,0.113681544,0.113681544,0.113681544,0.17809574,0.17809574,0.17809574
Lebanon,0.699054928,0.699054928,0.699054928,0.0,0.0,0.0,0.038050835,0.038050835,0.038050835,0.104232471,0.104232471,0.104232471
Eastman,0.238437388,0.238437388,0.238437388,0.0,0.0,0.0,0.468072718,0.468072718,0.468072718,0.2325082,0.2325082,0.2325082
Stapleton,0.342369135,0.342369135,0.342369135,0.0,0.0,0.0,0.898132804,0.898132804,0.898132804,0.086607695,0.086607695,0.086607695
Moreland,0.721477665,0.721477665,0.721477665,0.0,0.0,0.0,0.812580102,0.812580102,0.812580102,0.23862199,0.23862199,0.23862199
Toomsboro,0.557612967,0.557612967,0.557612967,0.0,0.0,0.0,0.266258374,0.266258374,0.266258374,0.139528741,0.139528741,0.139528741
Statenville,0.848167237,0.848167237,0.848167237,0.0,0.0,0.0,0.820299753,0.820299753,0.820299753,0.522787931,0.522787931,0.522787931
Sargent,0.738398233,0.738398233,0.738398233,0.0,0.0,0.0,0.168543307,0.168543307,0.168543307,0.224572322,0.224572322,0.224572322
Oakwood,0.495154208,0.495154208,0.495154208,0.0,0.0,0.0,0.988135674,0.988135674,0.988135674,0.83893883,0.83893883,0.83893883
Mesena,0.057108616,0.057108616,0.057108616,0.0,0.0,0.0,0.219331858,0.219331858,0.219331858,0.548662497,0.548662497,0.548662497
Tate,0.318114911,0.318114911,0.318114911,0.0,0.0,0.0,0.589027927,0.589027927,0.589027927,0.252805569,0.252805569,0.252805569
Cisco,0.111291417,0.111291417,0.111291417,0.0,0.0,0.0,0.16504254,0.16504254,0.16504254,0.793242834,0.793242834,0.793242834
Weston,0.077512875,0.077512875,0.077512875,0.0,0.0,0.0,0.886402326,0.886402326,0.886402326,0.461800654,0.461800654,0.461800654
Shiloh,0.978119474,0.978119474,0.978119474,0.0,0.0,0.0,0.516408003,0.516408003,0.516408003,0.274049334,0.274049334,0.274049334
Butler,0.348321468,0.348321468,0.348321468,0.0,0.0,0.0,0.125005635,0.125005635,0.125005635,0.943264145,0.943264145,0.943264145
Ochlocknee,0.986904615,0.986904615,0.986904615,0.0,0.0,0.0,0.712007255,0.712007255,0.712007255,0.78119705,0.78119705,0.78119705
Rupert,0.461327189,0.461327189,0.461327189,0.0,0.0,0.0,0.225850171,0.225850171,0.225850171,0.929562346,0.929562346,0.929562346
Palmetto,0.191215465,0.191215465,0.191215465,0.0,0.0,0.0,0.966164826,0.966164826,0.966164826,0.650842367,0.650842367,0.650842367
Dawsonville,0.134037727,0.134037727,0.134037727,0.0,0.0,0.0,0.811302134,0.811302134,0.811302134,0.920268266,0.920268266,0.920268266
Chula,0.986306169,0.986306169,0.986306169,0.0,0.0,0.0,0.069356723,0.069356723,0.069356723,0.242950637,0.242950637,0.242950637
East Ellijay,0.342204479,0.342204479,0.342204479,0.0,0.0,0.0,0.536878013,0.536878013,0.536878013,0.424851678,0.424851678,0.424851678
Fort Oglethorpe,0.49981849,0.49981849,0.49981849,0.0,0.0,0.0,0.153257633,0.153257633,0.153257633,0.952918098,0.952918098,0.952918098
Lilly,0.374971579,0.374971579,0.374971579,0.0,0.0,0.0,0.895072144,0.895072144,0.895072144,0.568899398,0.568899398,0.568899398
Milledgeville,0.769260268,0.897480732,0.839933414,0.0,0.0,0.0,0.106503386,0.976124453,0.6549052329999999,0.731936654,0.951394442,0.8689409426666667
Woodbury,0.501661471,0.501661471,0.501661471,0.0,0.0,0.0,0.711982054,0.711982054,0.711982054,0.412708022,0.412708022,0.412708022
Dearing,0.809860485,0.809860485,0.809860485,0.0,0.0,0.0,0.974442828,0.974442828,0.974442828,0.919211845,0.919211845,0.919211845
Warner Robins,0.012349062,0.669591411,0.3330312152,0.0,0.0,0.0,0.094545482,0.840499699,0.4694274846,0.051962893,0.723089999,0.4047699058000001
Springfield,0.474500102,0.474500102,0.474500102,0.0,0.0,0.0,0.844162979,0.844162979,0.844162979,0.201239361,0.201239361,0.201239361
Fort Gaines,0.605931791,0.605931791,0.605931791,0.0,0.0,0.0,0.62569241,0.62569241,0.62569241,0.783315668,0.783315668,0.783315668
Soperton,0.438154219,0.438154219,0.438154219,0.0,0.0,0.0,0.678514715,0.678514715,0.678514715,0.68203279,0.68203279,0.68203279
Ranger,0.24104239,0.24104239,0.24104239,0.0,0.0,0.0,0.09938656,0.09938656,0.09938656,0.374064861,0.374064861,0.374064861
Porterdale,0.578785819,0.578785819,0.578785819,0.0,0.0,0.0,0.15055453,0.15055453,0.15055453,0.644424446,0.644424446,0.644424446
Haddock,0.640004029,0.640004029,0.640004029,0.0,0.0,0.0,0.899781346,0.899781346,0.899781346,0.621872951,0.621872951,0.621872951
Macon,0.06090012,0.907649853,0.4809331561904763,0.0,0.0,0.0,0.032897452,0.959819482,0.586763739952381,0.002097853,0.933325759,0.43053056485714286
Cedar Springs,0.980383512,0.980383512,0.980383512,0.0,0.0,0.0,0.045682599,0.045682599,0.045682599,0.150750419,0.150750419,0.150750419
Montrose,0.20485535,0.20485535,0.20485535,0.0,0.0,0.0,0.148970836,0.148970836,0.148970836,0.332784474,0.332784474,0.332784474
Bowdon,0.902650264,0.902650264,0.902650264,0.0,0.0,0.0,0.155264092,0.155264092,0.155264092,0.203356908,0.203356908,0.203356908
Hogansville,0.778275493,0.778275493,0.778275493,0.0,0.0,0.0,0.685024613,0.685024613,0.685024613,0.652184881,0.652184881,0.652184881
Fairburn,0.445719531,0.445719531,0.445719531,0.0,0.0,0.0,0.104210097,0.104210097,0.104210097,0.918172762,0.918172762,0.918172762
Hardwick,0.545932079,0.545932079,0.545932079,0.0,0.0,0.0,0.551204135,0.551204135,0.551204135,0.619888135,0.619888135,0.619888135
Ellijay,0.21141137,0.632255672,0.421833521,0.0,0.0,0.0,0.070686919,0.636757986,0.3537224525,0.529678902,0.661560955,0.5956199285
Menlo,0.610488159,0.610488159,0.610488159,0.0,0.0,0.0,0.366746553,0.366746553,0.366746553,0.700307241,0.700307241,0.700307241
Eden,0.989654993,0.989654993,0.989654993,0.0,0.0,0.0,0.980827218,0.980827218,0.980827218,0.848217514,0.848217514,0.848217514
Cuthbert,0.954260135,0.954260135,0.954260135,0.0,0.0,0.0,0.4118453,0.4118453,0.4118453,0.467855668,0.467855668,0.467855668
Bostwick,0.399959918,0.399959918,0.399959918,0.0,0.0,0.0,0.125701828,0.125701828,0.125701828,0.131787213,0.131787213,0.131787213
Sardis,0.273628079,0.273628079,0.273628079,0.0,0.0,0.0,0.088573228,0.088573228,0.088573228,0.732920215,0.732920215,0.732920215
Vidalia,0.361302831,0.566047304,0.4636750675,0.0,0.0,0.0,0.469733566,0.640045377,0.5548894715,0.093978147,0.492467956,0.2932230515
Gracewood,0.76922183,0.76922183,0.76922183,0.0,0.0,0.0,0.563131581,0.563131581,0.563131581,0.705397172,0.705397172,0.705397172
Waynesville,0.502815032,0.502815032,0.502815032,0.0,0.0,0.0,0.962071143,0.962071143,0.962071143,0.790911596,0.790911596,0.790911596
Marshallville,0.221713246,0.221713246,0.221713246,0.0,0.0,0.0,0.927433233,0.927433233,0.927433233,0.659300448,0.659300448,0.659300448
Ellabell,0.096706186,0.096706186,0.096706186,0.0,0.0,0.0,0.124202174,0.124202174,0.124202174,0.074550761,0.074550761,0.074550761
Pavo,0.967611493,0.967611493,0.967611493,0.0,0.0,0.0,0.444188925,0.444188925,0.444188925,0.990398149,0.990398149,0.990398149
Jesup,0.330213304,0.960247253,0.66849006375,0.0,0.0,0.0,0.026922189,0.940287404,0.54274470925,0.007666137,0.808995842,0.46215140825
Stockton,0.328341124,0.328341124,0.328341124,0.0,0.0,0.0,0.624344719,0.624344719,0.624344719,0.628250981,0.628250981,0.628250981
Appling,0.289600266,0.289600266,0.289600266,0.0,0.0,0.0,0.251916296,0.251916296,0.251916296,0.953846244,0.953846244,0.953846244
The Rock,0.143683517,0.143683517,0.143683517,0.0,0.0,0.0,0.690907403,0.690907403,0.690907403,0.548161252,0.548161252,0.548161252
Manchester,0.376104832,0.376104832,0.376104832,0.0,0.0,0.0,0.358823294,0.358823294,0.358823294,0.262654761,0.262654761,0.262654761
Patterson,0.479468255,0.479468255,0.479468255,0.0,0.0,0.0,0.643077064,0.643077064,0.643077064,0.867175403,0.867175403,0.867175403
Powder Springs,0.798887835,0.798887835,0.798887835,0.0,0.0,0.0,0.70507673,0.70507673,0.70507673,0.256663839,0.256663839,0.256663839
Brinson,0.607369731,0.607369731,0.607369731,0.0,0.0,0.0,0.528720676,0.528720676,0.528720676,0.215019605,0.215019605,0.215019605
Loganville,0.263848072,0.263848072,0.263848072,0.0,0.0,0.0,0.674549011,0.674549011,0.674549011,0.749903086,0.749903086,0.749903086
Parrott,0.26114998,0.26114998,0.26114998,0.0,0.0,0.0,0.062918506,0.062918506,0.062918506,0.186527925,0.186527925,0.186527925
Damascus,0.098773482,0.098773482,0.098773482,0.0,0.0,0.0,0.127457289,0.127457289,0.127457289,0.795629523,0.795629523,0.795629523
Cleveland,0.649652549,0.649652549,0.649652549,0.0,0.0,0.0,0.303860091,0.303860091,0.303860091,0.596036086,0.596036086,0.596036086
Lincolnton,0.837965441,0.837965441,0.837965441,0.0,0.0,0.0,0.17269021,0.17269021,0.17269021,0.933296079,0.933296079,0.933296079
Villa Rica,0.116761704,0.116761704,0.116761704,0.0,0.0,0.0,0.579958429,0.579958429,0.579958429,0.836511552,0.836511552,0.836511552
Carrollton,0.203129596,0.923822137,0.545378938,0.0,0.0,0.0,0.027082231,0.884332527,0.5009818582,0.26901896,0.500238534,0.3601187702
Whigham,0.000591,0.000591,0.000591,0.0,0.0,0.0,0.262288368,0.262288368,0.262288368,0.546961089,0.546961089,0.546961089
Danielsville,0.170043168,0.170043168,0.170043168,0.0,0.0,0.0,0.856258734,0.856258734,0.856258734,0.248671247,0.248671247,0.248671247
Jewell,0.671433592,0.671433592,0.671433592,0.0,0.0,0.0,0.765997011,0.765997011,0.765997011,0.537854237,0.537854237,0.537854237
Dublin,0.481981219,0.707735109,0.594858164,0.0,0.0,0.0,0.032075957,0.118431032,0.0752534945,0.477600228,0.859276251,0.6684382395
Morris,0.213405229,0.213405229,0.213405229,0.0,0.0,0.0,0.367019686,0.367019686,0.367019686,0.604153637,0.604153637,0.604153637
Shellman,0.291617722,0.291617722,0.291617722,0.0,0.0,0.0,0.711656755,0.711656755,0.711656755,0.403991322,0.403991322,0.403991322
Kathleen,0.690206895,0.690206895,0.690206895,0.0,0.0,0.0,0.064613066,0.064613066,0.064613066,0.490057749,0.490057749,0.490057749
Folkston,0.044720463,0.044720463,0.044720463,0.0,0.0,0.0,0.306332869,0.306332869,0.306332869,0.315321941,0.315321941,0.315321941
Canon,0.790165685,0.790165685,0.790165685,0.0,0.0,0.0,0.238216502,0.238216502,0.238216502,0.466492164,0.466492164,0.466492164
Rutledge,0.403314239,0.403314239,0.403314239,0.0,0.0,0.0,0.067591512,0.067591512,0.067591512,0.569147789,0.569147789,0.569147789
Pine Mountain,0.677804738,0.677804738,0.677804738,0.0,0.0,0.0,0.59938369,0.59938369,0.59938369,0.980841452,0.980841452,0.980841452
Clermont,0.749641193,0.749641193,0.749641193,0.0,0.0,0.0,0.510785102,0.510785102,0.510785102,0.159283082,0.159283082,0.159283082
Geneva,0.446039907,0.446039907,0.446039907,0.0,0.0,0.0,0.677932788,0.677932788,0.677932788,0.759129662,0.759129662,0.759129662
Morganton,0.667201543,0.667201543,0.667201543,0.0,0.0,0.0,0.312061553,0.312061553,0.312061553,0.812377765,0.812377765,0.812377765
Colbert,0.820922314,0.820922314,0.820922314,0.0,0.0,0.0,0.20426388,0.20426388,0.20426388,0.25090123,0.25090123,0.25090123
Lithia Springs,0.353454311,0.353454311,0.353454311,0.0,0.0,0.0,0.048332389,0.048332389,0.048332389,0.465518843,0.465518843,0.465518843
Silver Creek,0.149044441,0.149044441,0.149044441,0.0,0.0,0.0,0.739285081,0.739285081,0.739285081,0.878494518,0.878494518,0.878494518
Wiley,0.002992682,0.002992682,0.002992682,0.0,0.0,0.0,0.989133011,0.989133011,0.989133011,0.376560434,0.376560434,0.376560434
Shady Dale,0.554807263,0.554807263,0.554807263,0.0,0.0,0.0,0.516603176,0.516603176,0.516603176,0.759020839,0.759020839,0.759020839
Putney,0.923975157,0.923975157,0.923975157,0.0,0.0,0.0,0.788518585,0.788518585,0.788518585,0.366371368,0.366371368,0.366371368
Thomson,0.421669476,0.421669476,0.421669476,0.0,0.0,0.0,0.257645289,0.257645289,0.257645289,0.94459557,0.94459557,0.94459557
Knoxville,0.641021534,0.641021534,0.641021534,0.0,0.0,0.0,0.708540687,0.708540687,0.708540687,0.74481825,0.74481825,0.74481825
Jeffersonville,0.064439741,0.064439741,0.064439741,0.0,0.0,0.0,0.164101186,0.164101186,0.164101186,0.981788281,0.981788281,0.981788281
Holly Springs,0.634303617,0.634303617,0.634303617,0.0,0.0,0.0,0.449992376,0.449992376,0.449992376,0.760349501,0.760349501,0.760349501
Hartsfield,0.305711188,0.305711188,0.305711188,0.0,0.0,0.0,0.804882724,0.804882724,0.804882724,0.285596537,0.285596537,0.285596537
Riceboro,0.340913334,0.340913334,0.340913334,0.0,0.0,0.0,0.938828846,0.938828846,0.938828846,0.282681443,0.282681443,0.282681443
Gainesville,0.017453536,0.937628757,0.6359680308000001,0.0,0.0,0.0,0.114822189,0.892162293,0.5274341326,0.166032581,0.933207898,0.5761227304000001
Greenville,0.400382791,0.400382791,0.400382791,0.0,0.0,0.0,0.236716786,0.236716786,0.236716786,0.888973889,0.888973889,0.888973889
Statham,0.622928975,0.622928975,0.622928975,0.0,0.0,0.0,0.314122689,0.314122689,0.314122689,0.270981536,0.270981536,0.270981536
Newton,0.80035288,0.80035288,0.80035288,0.0,0.0,0.0,0.432686534,0.432686534,0.432686534,0.818846882,0.818846882,0.818846882
Lavonia,0.082305943,0.082305943,0.082305943,0.0,0.0,0.0,0.758122373,0.758122373,0.758122373,0.32926111,0.32926111,0.32926111
Matthews,0.242015828,0.242015828,0.242015828,0.0,0.0,0.0,0.153393385,0.153393385,0.153393385,0.110849171,0.110849171,0.110849171
Clyo,0.811376524,0.811376524,0.811376524,0.0,0.0,0.0,0.841017533,0.841017533,0.841017533,0.432599313,0.432599313,0.432599313
Snellville,0.455519911,0.95599314,0.7057565255,0.0,0.0,0.0,0.869728753,0.883381427,0.87655509,0.671498526,0.959623732,0.815561129
Rising Fawn,0.468984133,0.468984133,0.468984133,0.0,0.0,0.0,0.757232372,0.757232372,0.757232372,0.096160714,0.096160714,0.096160714
Rhine,0.579207907,0.579207907,0.579207907,0.0,0.0,0.0,0.534331876,0.534331876,0.534331876,0.751349589,0.751349589,0.751349589
Canton,0.338974807,0.986644958,0.7703301536666666,0.0,0.0,0.0,0.250785401,0.724947799,0.443577233,0.712462225,0.9524218,0.8361483036666666
Ambrose,0.85651807,0.85651807,0.85651807,0.0,0.0,0.0,0.006081991,0.006081991,0.006081991,0.913493215,0.913493215,0.913493215
Vienna,0.968213365,0.968213365,0.968213365,0.0,0.0,0.0,0.106425732,0.106425732,0.106425732,0.635352285,0.635352285,0.635352285
Cusseta,0.727080967,0.727080967,0.727080967,0.0,0.0,0.0,0.553105327,0.553105327,0.553105327,0.049302155,0.049302155,0.049302155
Doerun,0.596284929,0.596284929,0.596284929,0.0,0.0,0.0,0.340247598,0.340247598,0.340247598,0.680173595,0.680173595,0.680173595
Bremen,0.659018745,0.659018745,0.659018745,0.0,0.0,0.0,0.069174607,0.069174607,0.069174607,0.290738571,0.290738571,0.290738571
Alamo,0.768677284,0.768677284,0.768677284,0.0,0.0,0.0,0.657713829,0.657713829,0.657713829,0.326857582,0.326857582,0.326857582
Commerce,0.014958683,0.822915017,0.450653741,0.0,0.0,0.0,0.064137025,0.964012892,0.5288807853333334,0.366404395,0.905184249,0.7061068533333333
Townsend,0.780711539,0.780711539,0.780711539,0.0,0.0,0.0,0.036760722,0.036760722,0.036760722,0.869054777,0.869054777,0.869054777
Unadilla,0.920862055,0.920862055,0.920862055,0.0,0.0,0.0,0.67305912,0.67305912,0.67305912,0.482892807,0.482892807,0.482892807
Sparks,0.554142706,0.554142706,0.554142706,0.0,0.0,0.0,0.46559447,0.46559447,0.46559447,0.543637734,0.543637734,0.543637734
Jenkinsburg,0.026066677,0.026066677,0.026066677,0.0,0.0,0.0,0.085792441,0.085792441,0.085792441,0.198190188,0.198190188,0.198190188
Lakeland,0.771665044,0.771665044,0.771665044,0.0,0.0,0.0,0.092945129,0.092945129,0.092945129,0.144995081,0.144995081,0.144995081
Milan,0.860103221,0.860103221,0.860103221,0.0,0.0,0.0,0.408288283,0.408288283,0.408288283,0.700217601,0.700217601,0.700217601
